﻿<?xml version="1.0"?>
<!-- Generator: Adobe Illustrator 10.0, SVG Export Plug-In . SVG Version: 3.0.0 Build 77)  -->
<!DOCTYPE svg PUBLIC "-//W3C//DTD SVG 1.0//EN" "http://www.w3.org/TR/2001/REC-SVG-20010904/DTD/svg10.dtd"[
	<!ENTITY ns_flows "http://ns.adobe.com/Flows/1.0/">
	<!ENTITY ns_svg "http://www.w3.org/2000/svg">
	<!ENTITY ns_xlink "http://www.w3.org/1999/xlink">
	<!ENTITY st0 "fill:none;stroke:#FFFFFF;stroke-width:0.9;stroke-linecap:round;stroke-linejoin:round;">
	<!ENTITY st1 "fill:none;stroke:#000000;stroke-width:0.5;">
	<!ENTITY st2 "fill:none;stroke:#000000;">
	<!ENTITY st3 "fill:none;stroke:#FFFFFF;stroke-width:2;">
	<!ENTITY st4 "font-size:8px;">
	<!ENTITY st5 "fill:none;stroke:#000000;stroke-width:0.315;stroke-linecap:round;stroke-linejoin:round;">
	<!ENTITY st6 "fill:#FFFFFF;stroke:#000000;stroke-width:0.675;stroke-linecap:round;stroke-linejoin:round;">
	<!ENTITY st7 "fill:#FFFFFF;">
	<!ENTITY st8 "fill:none;stroke:#000000;stroke-width:0.315;stroke-linecap:round;">
	<!ENTITY st9 "font-family:'Arial';">
	<!ENTITY st10 "fill:none;stroke:#FFFFFF;stroke-width:0.9;">
	<!ATTLIST svg
		xmlns:ewd CDATA #FIXED "http://shcl.co.jp/ewd"
		xmlns:a CDATA #FIXED "http://ns.adobe.com/AdobeSVGViewerExtensions/3.0/"
		ewd:ver CDATA #IMPLIED>
	<!ATTLIST a
		ewd:innerGroupID CDATA #IMPLIED
		ewd:figtype CDATA #IMPLIED
		ewd:code CDATA #IMPLIED
		ewd:pinNo CDATA #IMPLIED>
]>
<svg width="518.741" height="349.642" viewBox="0 0 518.741 349.642" style="overflow:visible;enable-background:new 0 0 518.741 349.642" xml:space="preserve" onload="call_execInitLoadProc_svg('location')" ewd:ver="L2.1.2.6" xmlns="&ns_svg;" xmlns:ewd="http://shcl.co.jp/ewd" xmlns:a="http://ns.adobe.com/AdobeSVGViewerExtensions/3.0/" xmlns:xlink="&ns_xlink;">
<script type="text/javascript" xlink:href="../../../../../system/js/ewd/fig/svgfig.js"/>
<g id="waku">
	<path style="&st7;" d="M518.741,349.151V0.491H0v348.661H518.741z"/>
</g>
<g id="シルエット">
	<path d="M224.723,195.072c-0.199,0.055-0.364,0.184-0.466,0.363s-0.127,0.389-0.072,0.586c0.055,0.199,0.185,0.365,0.364,0.467    s0.388,0.127,0.587,0.072c2.139-0.596,3.849-0.668,4.207-0.396c0.068,0.051,0.274,0.207,0.274,0.813    c0,1.438-2.179,2.219-6.712,3.715l-1.371,0.453c-5.274,1.758-7.682,2.561-7.682,6.164c0,0.426,0.347,0.773,0.772,0.773    s0.772-0.348,0.772-0.773c0-2.211,0.743-2.738,6.626-4.697l1.366-0.453c4.848-1.598,7.774-2.564,7.774-5.182    c0-1.133-0.481-1.736-0.884-2.043C229.055,194.006,225.986,194.721,224.723,195.072z"/>
	<g>
		<g>
			<path style="&st6;" d="M221.791,193.053l-4.927,1.051l-0.04,3.568l2.993,1.783l4.926-1.053l0.039-3.568L221.791,193.053z"/>
			<path style="&st8;" d="M219.857,195.889l4.926-1.055"/>
			<path style="&st8;" d="M219.857,195.889l-0.04,3.566"/>
			<path style="&st8;" d="M219.857,195.889l-2.993-1.785"/>
		</g>
		<g>
			<path style="&st6;" d="M216.827,194.121l-4.927,1.053l-0.04,3.568l2.993,1.781l4.927-1.051l0.039-3.568L216.827,194.121z"/>
			<path style="&st8;" d="M214.894,196.957l4.926-1.053"/>
			<path style="&st8;" d="M214.894,196.957l-0.04,3.566"/>
			<path style="&st8;" d="M214.894,196.957l-2.993-1.783"/>
		</g>
	</g>
	<path d="M213.179,197.307c-3.152,0.441-5.439,2.039-6.441,4.498c-0.36,0.885-0.538,1.844-0.538,2.855    c0,2.58,1.154,5.492,3.364,8.348c1.148,1.486,2.775,2.986,4.659,4.725c6.217,5.734,14.731,13.59,15.43,29.359    c0.01,0.232,0.11,0.447,0.282,0.604c0.171,0.156,0.394,0.238,0.625,0.227c0.232-0.01,0.447-0.109,0.604-0.281    s0.237-0.393,0.227-0.625c-0.73-16.486-9.908-24.953-15.982-30.557c-1.83-1.688-3.41-3.146-4.469-4.514    c-2.687-3.475-3.631-6.93-2.591-9.484c0.758-1.861,2.559-3.08,5.071-3.432c0.23-0.033,0.434-0.152,0.574-0.338    s0.199-0.414,0.167-0.645C214.095,197.572,213.654,197.24,213.179,197.307z"/>
	<path d="M204.266,219.584c-0.426,0.088-0.7,0.506-0.612,0.932s0.505,0.699,0.931,0.611c2.071-0.428,2.685-0.354,2.835-0.215    c0.016,0.016,0.157,0.172,0.049,1.033c-0.131,1.047-0.329,2.631,0.619,3.582c0.598,0.602,1.491,0.822,2.731,0.672    c0.033-0.004,0.065-0.01,0.097-0.018l1.35-0.338c0.422-0.105,0.678-0.531,0.573-0.955c-0.105-0.422-0.533-0.678-0.955-0.572    c0,0-1.173,0.293-1.288,0.322c-0.488,0.055-1.112,0.061-1.393-0.221c-0.406-0.408-0.26-1.578-0.173-2.277    c0.099-0.785,0.125-1.77-0.543-2.387C207.712,219.037,206.405,219.143,204.266,219.584z"/>
	<g>
		<path style="&st6;" d="M202.171,218.037l-4.927,1.053l-0.04,3.568l2.993,1.781l4.927-1.053l0.039-3.568L202.171,218.037z"/>
		<path style="&st8;" d="M200.237,220.871l4.926-1.053"/>
		<path style="&st8;" d="M200.237,220.871l-0.04,3.568"/>
		<path style="&st8;" d="M200.237,220.871l-2.993-1.781"/>
	</g>
	<path d="M210.009,224.996c-0.11,0.031-2.716,0.754-4.201,1.25c-1.349,0.449-2.623,0.637-4.235,0.873    c-1.528,0.223-3.259,0.477-5.594,1.02c-0.424,0.098-0.687,0.521-0.589,0.945c0.099,0.424,0.522,0.688,0.946,0.588    c2.271-0.527,3.968-0.775,5.465-0.996c1.623-0.236,3.025-0.441,4.505-0.936c1.447-0.482,4.098-1.219,4.124-1.227    c0.419-0.115,0.665-0.549,0.548-0.969S210.428,224.881,210.009,224.996z"/>
	<g>
		<path style="&st6;" d="M194.548,226.232l-4.927,1.053l-0.041,3.568l2.993,1.781l4.927-1.053l0.04-3.568L194.548,226.232z"/>
		<path style="&st8;" d="M192.614,229.066l4.927-1.053"/>
		<path style="&st8;" d="M192.614,229.066l-0.04,3.568"/>
		<path style="&st8;" d="M192.614,229.066l-2.992-1.781"/>
	</g>
	<path d="M195.62,215.158c-0.807,1.736-3.493,2.18-5.8,2.686l-5.547,1.145c-0.363,0.082-0.574,0.441-0.491,0.805    c0.084,0.363,0.461,0.586,0.825,0.502l5.502-1.133c2.613-0.572,5.647-1.092,6.736-3.434c1.245-2.68,1.958-3.281,3.633-3.066    c0.37,0.049,0.708-0.213,0.756-0.584c0.047-0.369-0.214-0.707-0.584-0.754C197.811,210.959,196.733,212.764,195.62,215.158z"/>
	<g>
		<path style="&st6;" d="M183.339,216.725l-4.927,1.051l-0.04,3.568l2.993,1.781l4.927-1.051l0.039-3.568L183.339,216.725z"/>
		<path style="&st8;" d="M181.405,219.559l4.926-1.053"/>
		<path style="&st8;" d="M181.405,219.559l-0.04,3.566"/>
		<path style="&st8;" d="M181.405,219.559l-2.993-1.783"/>
	</g>
	<path d="M229.656,247.1c0.024,3.535,0.551,6.33,2.98,8.453l0.055,0.045l1.055,0.789l-0.076-0.025l0.132,0.064    c3.333,2.141,11.52,5.688,15.011,7.164c0.082-0.193,0.612-1.451,0.677-1.604c-2.755-1.166-11.406-4.889-14.725-7.01    c-0.005-0.004-0.986-0.738-0.986-0.738c-1.706-1.5-2.353-3.447-2.383-7.139C231.193,247.1,229.869,247.1,229.656,247.1z"/>
	<g>
		<path style="&st6;" d="M265.766,209.635l-3.505,0.783l-0.04,3.568l3.971,1.959l3.505-0.783l0.039-3.568L265.766,209.635z"/>
		<path style="&st8;" d="M266.232,212.379l3.504-0.785"/>
		<path style="&st8;" d="M266.232,212.379l-0.04,3.566"/>
		<path style="&st8;" d="M266.232,212.379l-3.971-1.961"/>
	</g>
	<path d="M253.941,265.941c0.174,0.074,0.878,0.377,1.052,0.451c0.084-0.195,0.704-1.637,0.789-1.832    c-0.176-0.076-0.886-0.379-1.061-0.455C254.637,264.303,254.024,265.746,253.941,265.941z"/>
	<path d="M250.254,264.4c0.204,0.086,2.14,0.904,2.343,0.988c0.083-0.195,0.697-1.639,0.781-1.836    c-0.205-0.086-2.146-0.904-2.349-0.99C250.946,262.758,250.336,264.203,250.254,264.4z"/>
	<g>
		<path style="&st6;" d="M211.908,208.232c0.248-0.047,0.257-1.541,0.483-1.582c0.639-0.117,3.079-0.242,3.658-0.271     c0.41-0.02,0.89-0.045,0.927,0.408c0.069,0.836,0.331,1.008,0.331,1.008c2.501,1.256,8.093,3.629,10.781,4.77     c0.636,0.256,1.266,0.535,1.5,0.654c0.443,0.268,0.674,0.838,0.674,1.01s0.058,1.186,0.058,1.473s0.464,0.707,1.262,0.973     c0.797,0.268,1.462,0.6,2.592,0.998c0.39,0.139,0.798,0.061,1.225,0.027l2.483-0.385c2.632-0.354,2.825,2.727,0.705,3.326     l-6.127,1.268l-2.974-0.393l-6.612,1.412l-2.194,1.422l-7.974,1.902c-0.825,0.189-1.763-0.209-2.054-1.096     c-0.225-0.686-0.045-1.633,0.509-1.941c1.248-0.693,1.788-0.549,2.236-0.975s0.248-1.941,0.248-1.941l-9.14-5.014l-3.956-0.773     c-0.369-0.307-0.431-0.639-0.492-0.945c-0.061-0.307,0-2.248,0-2.74c0.062-0.43,0.245-0.797,0.798-0.92     c0,0,1.091-0.555,2.204-0.834c0.31-0.078,2.891,0.477,3.247,0.406L211.908,208.232z"/>
		<path style="&st5;" d="M229.589,214.064l-13.289,2.764"/>
		<path style="&st5;" d="M200.84,210.795l4.188,1.064l10.314,5.004c0.263,0.145,0.317,0.328,0.317,0.58     c-0.01,1.047-0.05,2.193-0.089,2.594c-0.045,0.457-1.002,1.641-2.172,2.203"/>
	</g>
	<g>
		<path style="&st6;" d="M329.674,194.57l-3.792,0.785l-0.039,5.104l2.992,1.781l3.792-0.783l0.038-5.105L329.674,194.57z"/>
		<path style="&st8;" d="M328.875,197.137l3.79-0.785"/>
		<path style="&st8;" d="M328.875,197.137l-0.04,5.104"/>
		<path style="&st8;" d="M328.875,197.137l-2.993-1.781"/>
	</g>
	<path d="M220.435,218.105c-0.253,0.428-0.112,0.98,0.316,1.234c1.039,0.615,1.123,0.893,1.126,0.904    c-0.007,0.109-0.259,0.473-0.354,0.609c-0.323,0.467-1.416,1.863-13.104,4.367c-0.486,0.105-0.796,0.584-0.691,1.068    c0.104,0.486,0.583,0.797,1.068,0.693c12.026-2.578,13.475-4.047,14.207-5.105c0.344-0.496,0.815-1.178,0.632-2.018    c-0.159-0.727-0.747-1.346-1.967-2.068C221.241,217.537,220.689,217.678,220.435,218.105z"/>
	<path d="M267.515,213.533c-0.118,0.354,0.074,0.736,0.427,0.854c1.233,0.412,4.296,1.91,5.938,2.85    c1.69,0.965,1.655,1.891,1.609,3.064l-0.015,0.549c0,2.271-0.177,5.021-0.179,5.049c-0.001,0.707-0.348,1.385-0.844,1.689    c-0.486,0.301-1.102,0.27-1.826-0.092c-1.401-0.701-8.275-3.668-14.466-6.295c-0.343-0.146-0.738,0.014-0.885,0.357    c-0.146,0.344,0.015,0.738,0.357,0.885c5.971,2.535,13.021,5.576,14.39,6.26c1.139,0.57,2.254,0.582,3.14,0.035    c0.9-0.559,1.482-1.654,1.482-2.797c0.001,0.016,0.181-2.777,0.181-5.092l0.013-0.498c0.048-1.23,0.113-2.916-2.288-4.287    c-1.499-0.857-4.729-2.475-6.182-2.959C268.015,212.988,267.632,213.18,267.515,213.533z"/>
	<path d="M223.698,217.074c-0.244,0.434-0.076,0.992,0.357,1.234l2.232,1.26l2.25,1.244c1.783,0.871,8.167,0.227,16.661-1.684    c2.178-0.49,3.376-0.053,5.09,0.727c0.017,0.008,0.033,0.014,0.049,0.02c0.709,0.273,3.571,1.471,7.293,3.049    c0.457,0.195,0.985-0.018,1.18-0.477c0.049-0.113,0.072-0.232,0.072-0.35c0-0.352-0.206-0.684-0.549-0.83    c-3.717-1.578-6.585-2.777-7.333-3.064c-1.859-0.844-3.503-1.436-6.198-0.83c-9.582,2.154-14.577,2.262-15.475,1.822l-2.141-1.186    l-2.279-1.285C224.476,216.48,223.942,216.643,223.698,217.074z"/>
	<path style="&st6;" d="M232.578,219.283c1.087-0.256,6.023-1.18,6.023-1.18c0.773-0.266,1.431,0.131,1.436,1.195    c0.004,0.879-0.635,1.057-1.376,1.316l-6.199,1.178l-2.314-0.285l-7.105,1.498l-2.119,1.408c0,0-7.058,1.889-7.875,2.082    c-0.816,0.193-1.264-0.313-1.264-1.178c0-0.867,0.632-1.35,1.567-1.555l7.011-1.895l2.128-1.525l7.47-1.699L232.578,219.283z"/>
	<path style="&st5;" d="M211.908,208.365l1.13-0.199l-0.229-0.994"/>
	<path d="M256.499,222.299c0.85,0.396,1.03,1.342,1.306,3.156c0.549,3.604,1.376,9.049,11.256,13.166    c9.994,4.164,10.505,6.244,11.276,9.395l0.106,0.432c0.85,3.396,1.238,5.941,0.379,7.322c-0.48,0.773-1.412,1.287-2.932,1.617    l-9.448,2.057c-0.428,0.08-0.71,0.49-0.631,0.918s0.49,0.711,0.917,0.631l9.472-2.063c1.988-0.43,3.239-1.168,3.96-2.328    c1.155-1.857,0.784-4.645-0.189-8.537l-0.104-0.424c-0.939-3.834-1.97-6.211-12.2-10.473c-9.062-3.777-9.779-8.5-10.304-11.951    c-0.124-0.813-0.244-1.607-0.483-2.307"/>
	<g>
		<g>
			<path style="&st6;" d="M268.06,256.668l-4.927,1.051l-0.04,3.568l2.993,1.783l4.927-1.053l0.038-3.568L268.06,256.668z"/>
			<path style="&st8;" d="M266.126,259.502l4.925-1.053"/>
			<path style="&st8;" d="M266.126,259.502l-0.04,3.568"/>
			<path style="&st8;" d="M266.126,259.502l-2.993-1.783"/>
		</g>
		<g>
			<path style="&st6;" d="M263.097,257.736l-4.927,1.053l-0.041,3.566l2.993,1.783l4.927-1.053l0.039-3.568L263.097,257.736z"/>
			<path style="&st8;" d="M261.163,260.572l4.926-1.055"/>
			<path style="&st8;" d="M261.163,260.572l-0.04,3.566"/>
			<path style="&st8;" d="M261.163,260.572l-2.992-1.783"/>
		</g>
	</g>
	<path style="&st10;" d="M255.052,261.582l-4.422,0.982c-2.671,0.588-4.151,1.873-4.182,3.461"/>
	<path style="&st10;" d="M248.198,266.293c-0.051-0.648,0.809-1.502,2.843-1.949l4.581-1.018"/>
	<path d="M259.209,260.818l-8.552,1.871c-2.502,0.549-3.969,1.725-4.066,3.229c0.196,0.029,1.278,0.195,1.491,0.229    c0.068-0.639,0.85-1.471,2.931-1.928l8.561-1.871c0.132-0.031,0.255-0.129,0.346-0.275c0.09-0.145,0.139-0.324,0.139-0.492    c0-0.059-0.006-0.117-0.019-0.172c-0.046-0.193-0.188-0.385-0.372-0.498C259.517,260.818,259.354,260.785,259.209,260.818z"/>
	<path style="&st10;" d="M279.766,226.193c-0.085,1.244-2.056,30.352-2.108,32.623c-0.119,4.994-4.759,5.926-5.288,6.014"/>
	<path style="&st10;" d="M272.67,266.605c2.462-0.418,6.662-2.52,6.786-7.746c0.053-2.232,2.084-32.236,2.104-32.539"/>
	<path d="M318.077,198.293l-0.12,0.145c-6.21,7.518-8.084,9.787-19.813,10.197c-11.435,0.402-17.405,6.148-18.251,17.568    c-0.021,0.301-2.054,30.314-2.108,32.615c-0.121,5.098-4.854,6.047-5.394,6.139c-1.259,0.215-5.382,1.031-9.369,1.82l-6.309,1.242    c-3.492,0.676-7.22,0.244-8.31-0.961c-0.207-0.23-0.31-0.477-0.31-0.758c0-0.09,0.025-0.191,0.047-0.289    c-0.17-0.053-1.259-0.379-1.479-0.443c-0.063,0.246-0.11,0.492-0.11,0.729c0,0.662,0.24,1.281,0.707,1.797    c1.664,1.84,6.265,2.117,9.748,1.443l6.315-1.244c3.982-0.789,8.098-1.604,9.326-1.813c2.425-0.412,6.559-2.48,6.681-7.625    c0.048-1.977,1.611-25.232,2.09-32.313l0.015-0.23c0.789-10.633,6.116-15.76,16.765-16.133    c12.424-0.436,14.745-3.246,20.95-10.758l0.119-0.145c3.78-4.576,6.947-6.166,8.292-5.709c0.583,0.197,0.91,0.859,0.946,1.91    c0.015,0.426,0.373,0.76,0.799,0.746c0.426-0.016,0.76-0.373,0.745-0.799c-0.08-2.326-1.283-3.078-1.993-3.32    C325.677,191.297,321.946,193.609,318.077,198.293z"/>
	<path style="&st0;" d="M203.792,266.645l-60.953-27.797c-1.864-0.799-5.058-2.928-6.656-9.051s-4.526-24.227-4.526-24.227    c-1.065-4.525,1.065-8.252,3.728-10.914c2.662-2.662,15.706-10.117,26.888-7.986c8.775,1.67,24.208,10.201,47.513,30.688"/>
	<path style="&st0;" d="M328.566,245.354c0,0,0.093,12.928-0.439,16.922c-0.533,3.992-4.792,7.721-7.986,7.986    c0,0-63.626,12.512-68.685,13.576c-5.059,1.066-8.252,1.332-11.714-0.797l-35.95-16.396"/>
	<path style="&st0;" d="M341.525,89.303c4.685,0.466,9.082,2.587,12.465,4.547c4.018,2.327,6.817,4.521,7.152,13.153    c0.735,18.931-6.213,25.328-10.038,36.086c-1.731,4.869-4.653,12.293-7.208,22.234c-1.446,5.624-3.399,46.091-3.124,56.232    c0.274,10.139-2.281,11.988-2.83,13.359"/>
	<path style="&st0;" d="M163.869,187.201c5.59-2.928,26.215-9.068,54.435-14.66"/>
	<path style="&st0;" d="M282.09,65.589c-1.6,5.436-3.295,14.289-3.443,18.892c-0.188,5.796-0.071,12.292,6.339,14.339    c3.897,1.245,9.086,2.535,14.701,2.311c8.246-0.329,25.482-3.046,35.2-5.484c7.172-1.8,6.783-6.894,6.056-11.04    c-0.728-4.146-0.369-12.243-7.095-23.088c-2.831-4.563-6.817-7.908-12.86-7.188c-5.131,0.61-25.418,3.471-29.058,4.093    C288.292,59.046,284.104,58.743,282.09,65.589z"/>
	<path style="&st0;" d="M288.983,61.526c3.397,0.099,5.813-0.087,9.061,23.397c0.909,6.578,1.745,13.808-4.402,15.305"/>
	<path style="&st0;" d="M220.227,169.945c2.533-3.458,5.562-6.706,9.154-9.645c5.905-4.83,10.464-9.542,13.717-19.051    c2.471-7.22,3.017-15.633,7.805-28.584c1.62-4.383,7.326-12.626,29.162-16.262l0.79-0.093"/>
	<path style="&st0;" d="M211.818,224.373c-1.527-1.566-1.771-3.963-2.352-9.041c-1.536-13.438,0.348-29.924,9.483-43.564    c0.411-0.613,0.836-1.221,1.277-1.823"/>
	<path style="&st0;" d="M264.382,205.98c4.818-20.174,11.394-42.822,18.404-56.639c1.665-3.28,5.552-8.627,10.545-9.868    c4.992-1.242,38.332-6.636,44.157-7.299c5.824-0.663,10.667-2.635,10.262,4.289c-0.518,8.862-6.172,25.348-7.559,37.235    c-2.789,23.903-3.369,37.729-2.305,60.091c0,0,0.711,5.465-4.969,6.365c-5.079,0.803-70.637,12.459-74.187,13.064    c-3.55,0.607-6.745,0.514-8.874-3.541c-3.789-7.215-4.449-11.314-14.799-16.08c-3.897-1.793-11.466-4.563-17.693-6.553    c-2.821-0.9-4.491-1.588-5.548-2.672"/>
	<path style="&st0;" d="M256.602,246.215c0.407-4.57,2.248-15.303,5.074-28.354"/>
	<path style="&st0;" d="M268.917,98.905c6.067-0.69,25.535,2.868,27.732,8.896c2.022,5.548,3.467,25.234-4.622,32.22"/>
	<path style="&st0;" d="M339.51,93.514c5.637,2.332,7.936,4.038,9.091,9.852c1.631,8.198-0.262,22.006-4.003,27.299"/>
	<path style="&st0;" d="M296.429,104.838c10.932-1.243,32.621-4.527,46.453-7.694"/>
	<path style="&st0;" d="M270.349,197.338c16.189-4.063,54.3-10.186,67.524-11.357"/>
	<path style="&st0;" d="M271.207,191.145c16.19-4.061,53.442-9.996,66.667-11.166"/>
	<path style="&st0;" d="M240.046,282.1c3.097,0.488,6.537,2.285,9.34-2.07c2.041-3.174,1.984-8.379,1.984-19.842"/>
	<path style="&st0;" d="M211.656,228.289c3.668,2.656,7.004,5.088,9.684,7.045"/>
	<path style="&st0;" d="M205.93,224.152c1.964,1.416,3.887,2.805,5.726,4.137"/>
	<path style="&st0;" d="M131.386,204.689c4.873,0,8.6-3.727,16.342-7.168c7.741-3.439,16.055-1.432,26.376,4.588    c3.953,2.305,13.097,8.664,22.743,15.533"/>
	<path style="&st0;" d="M211.249,244.709c3.668-1.004,7.322-2.273,10.603-3.883"/>
	<path style="&st0;" d="M178.691,255.15c5.447-5.734,4.014-6.021,12.328-6.883c4.501-0.465,12.4-1.41,20.229-3.559"/>
	<path style="&st0;" d="M222.789,228.781c-1.238,4.055-1.492,8.791-0.5,13.658c2.484,12.207,11.863,20.605,20.945,18.756    c3.096-0.629,78.358-14,81.695-14.68c3.811-0.775,6.965-3.232,9.159-6.727"/>
	<path style="&st0;" d="M241.863,260.545c3.656-0.744,6.681-3.102,8.784-6.451c0.363-0.58,0.699-1.188,1.006-1.824"/>
	<path style="&st5;" d="M203.792,266.645l-60.953-27.797c-1.864-0.799-5.058-2.928-6.656-9.051s-4.526-24.227-4.526-24.227    c-1.065-4.525,1.065-8.252,3.728-10.914c2.662-2.662,15.706-10.117,26.888-7.986c8.775,1.67,24.208,10.201,47.513,30.688"/>
	<path style="&st5;" d="M328.566,245.354c0,0,0.093,12.928-0.439,16.922c-0.533,3.992-4.792,7.721-7.986,7.986    c0,0-63.626,12.512-68.685,13.576c-5.059,1.066-8.252,1.332-11.714-0.797l-35.95-16.396"/>
	<path style="&st5;" d="M341.525,89.303c4.685,0.466,9.082,2.587,12.465,4.547c4.018,2.327,6.817,4.521,7.152,13.153    c0.735,18.931-6.213,25.328-10.038,36.086c-1.731,4.869-4.653,12.293-7.208,22.234c-1.446,5.624-3.399,46.091-3.124,56.232    c0.274,10.139-2.281,11.988-2.83,13.359"/>
	<path style="&st5;" d="M163.869,187.201c5.59-2.928,26.215-9.068,54.435-14.66"/>
	<path style="&st5;" d="M282.09,65.589c-1.6,5.436-3.295,14.289-3.443,18.892c-0.188,5.796-0.071,12.292,6.339,14.339    c3.897,1.245,9.086,2.535,14.701,2.311c8.246-0.329,25.482-3.046,35.2-5.484c7.172-1.8,6.783-6.894,6.056-11.04    c-0.728-4.146-0.369-12.243-7.095-23.088c-2.831-4.563-6.817-7.908-12.86-7.188c-5.131,0.61-25.418,3.471-29.058,4.093    C288.292,59.046,284.104,58.743,282.09,65.589z"/>
	<path style="&st5;" d="M288.983,61.526c3.397,0.099,5.813-0.087,9.061,23.397c0.909,6.578,1.745,13.808-4.402,15.305"/>
	<path style="&st5;" d="M220.227,169.945c2.533-3.458,5.562-6.706,9.154-9.645c5.905-4.83,10.464-9.542,13.717-19.051    c2.471-7.22,3.017-15.633,7.805-28.584c1.62-4.383,7.326-12.626,29.162-16.262l0.79-0.093"/>
	<path style="&st5;" d="M211.818,224.373c-1.527-1.566-1.771-3.963-2.352-9.041c-1.536-13.438,0.348-29.924,9.483-43.564    c0.411-0.613,0.836-1.221,1.277-1.823"/>
	<path style="&st5;" d="M264.382,205.98c4.818-20.174,11.394-42.822,18.404-56.639c1.665-3.28,5.552-8.627,10.545-9.868    c4.992-1.242,38.332-6.636,44.157-7.299c5.824-0.663,10.667-2.635,10.262,4.289c-0.518,8.862-6.172,25.348-7.559,37.235    c-2.789,23.903-3.369,37.729-2.305,60.091c0,0,0.711,5.465-4.969,6.365c-5.079,0.803-70.637,12.459-74.187,13.064    c-3.55,0.607-6.745,0.514-8.874-3.541c-3.789-7.215-4.449-11.314-14.799-16.08c-3.897-1.793-11.466-4.563-17.693-6.553    c-2.821-0.9-4.491-1.588-5.548-2.672"/>
	<path style="&st5;" d="M256.602,246.215c0.407-4.57,2.248-15.303,5.074-28.354"/>
	<path style="&st5;" d="M268.917,98.905c6.067-0.69,25.535,2.868,27.732,8.896c2.022,5.548,3.467,25.234-4.622,32.22"/>
	<path style="&st5;" d="M339.51,93.514c5.637,2.332,7.936,4.038,9.091,9.852c1.631,8.198-0.262,22.006-4.003,27.299"/>
	<path style="&st5;" d="M296.429,104.838c10.932-1.243,32.621-4.527,46.453-7.694"/>
	<path style="&st5;" d="M270.349,197.338c16.189-4.063,54.3-10.186,67.524-11.357"/>
	<path style="&st5;" d="M271.207,191.145c16.19-4.061,53.442-9.996,66.667-11.166"/>
	<path style="&st5;" d="M240.046,282.1c3.097,0.488,6.537,2.285,9.34-2.07c2.041-3.174,1.984-8.379,1.984-19.842"/>
	<path style="&st5;" d="M211.656,228.289c3.668,2.656,7.004,5.088,9.684,7.045"/>
	<path style="&st5;" d="M205.93,224.152c1.964,1.416,3.887,2.805,5.726,4.137"/>
	<path style="&st5;" d="M131.386,204.689c4.873,0,8.6-3.727,16.342-7.168c7.741-3.439,16.055-1.432,26.376,4.588    c3.953,2.305,13.097,8.664,22.743,15.533"/>
	<path style="&st5;" d="M211.249,244.709c3.668-1.004,7.322-2.273,10.603-3.883"/>
	<path style="&st5;" d="M178.691,255.15c5.447-5.734,4.014-6.021,12.328-6.883c4.501-0.465,12.4-1.41,20.229-3.559"/>
	<path style="&st5;" d="M222.789,228.781c-1.238,4.055-1.492,8.791-0.5,13.658c2.484,12.207,11.863,20.605,20.945,18.756    c3.096-0.629,78.358-14,81.695-14.68c3.811-0.775,6.965-3.232,9.159-6.727"/>
	<path style="&st5;" d="M241.863,260.545c3.656-0.744,6.681-3.102,8.784-6.451c0.363-0.58,0.699-1.188,1.006-1.824"/>
</g>
<g id="Code">
	<path style="&st3;" d="M161.576,332.145v-14.174l19.94-98.586"/>
	<path style="&st1;" d="M161.576,332.145v-14.174l19.94-98.586"/>
	<a ewd:code="F21" ewd:figtype="conn" style="cursor:pointer;">
		<path style="&st7;stroke:#000000;" d="M161.576,349.151c4.697,0,8.504-3.807,8.504-8.504c0-4.696-3.807-8.503-8.504-8.503     c-4.696,0-8.504,3.807-8.504,8.503C153.072,345.345,156.879,349.151,161.576,349.151z"/>
		<text transform="matrix(1 0 0 1 154.6831 343.2803)"><tspan x="0" y="0" style="&st9; &st4;">F21</tspan></text>
		<title>Front Power Seat Slide Position Motor Assembly RH</title>
	</a>
	<path style="&st3;" d="M206.93,332.145v-14.174l-4.959-97.47"/>
	<path style="&st1;" d="M206.93,332.145v-14.174l-4.959-97.47"/>
	<a ewd:code="F24" ewd:figtype="conn" style="cursor:pointer;">
		<path style="&st7;stroke:#000000;" d="M206.93,349.151c4.697,0,8.504-3.807,8.504-8.504c0-4.696-3.807-8.503-8.504-8.503     c-4.696,0-8.504,3.807-8.504,8.503C198.426,345.345,202.234,349.151,206.93,349.151z"/>
		<text transform="matrix(1 0 0 1 200.0376 343.2803)"><tspan x="0" y="0" style="&st9; &st4;">F24</tspan></text>
		<title>Front Seat Inner Belt Assembly (Driver&apos;s Side)</title>
	</a>
	<path style="&st3;" d="M184.253,332.145v-14.174l8.351-88.017"/>
	<path style="&st1;" d="M184.253,332.145v-14.174l8.351-88.017"/>
	<a ewd:code="F22" ewd:figtype="conn" style="cursor:pointer;">
		<path style="&st7;stroke:#000000;" d="M184.253,349.151c4.697,0,8.504-3.807,8.504-8.504c0-4.696-3.807-8.503-8.504-8.503     c-4.696,0-8.504,3.807-8.504,8.503C175.749,345.345,179.557,349.151,184.253,349.151z"/>
		<text transform="matrix(1 0 0 1 177.3604 343.2803)"><tspan x="0" y="0" style="&st9; &st4;">F22</tspan></text>
		<title>Front Power Seat Lift Position Motor Assembly RH</title>
	</a>
	<path style="&st3;" d="M277.795,17.499v14.173l51.067,167.094"/>
	<path style="&st1;" d="M277.795,17.499v14.173l51.067,167.094"/>
	<a ewd:code="F25" ewd:figtype="conn" style="cursor:pointer;">
		<path style="&st7;stroke:#000000;" d="M277.795,17.499c4.696,0,8.504-3.808,8.504-8.504c0-4.697-3.808-8.504-8.504-8.504     c-4.695,0-8.503,3.808-8.503,8.504C269.292,13.691,273.1,17.499,277.795,17.499z"/>
		<text transform="matrix(1 0 0 1 270.9028 11.6265)"><tspan x="0" y="0" style="&st9; &st4;">F25</tspan></text>
		<title>Front Power Seat Reclining Position Motor Assembly RH</title>
	</a>
	<path style="&st3;" d="M255.119,17.499v14.173l9.99,181.006"/>
	<path style="&st1;" d="M255.119,17.499v14.173l9.99,181.006"/>
	<a ewd:code="F23" ewd:figtype="conn" style="cursor:pointer;">
		<path style="&st7;stroke:#000000;" d="M255.119,17.499c4.696,0,8.504-3.808,8.504-8.504c0-4.697-3.808-8.504-8.504-8.504     c-4.696,0-8.503,3.808-8.503,8.504C246.615,13.691,250.423,17.499,255.119,17.499z"/>
		<text transform="matrix(1 0 0 1 248.2261 11.6265)"><tspan x="0" y="0" style="&st9; &st4;">F23</tspan></text>
		<title>Front Power Seat Switch RH</title>
	</a>
	<path style="&st3;" d="M209.765,17.499v14.173l6.309,165.479"/>
	<path style="&st1;" d="M209.765,17.499v14.173l6.309,165.479"/>
	<a ewd:code="J59" ewd:figtype="conn" style="cursor:pointer;">
		<path style="&st7;stroke:#000000;" d="M209.765,17.499c4.696,0,8.504-3.808,8.504-8.504c0-4.697-3.808-8.504-8.504-8.504     s-8.504,3.808-8.504,8.504C201.261,13.691,205.068,17.499,209.765,17.499z"/>
		<text transform="matrix(1 0 0 1 203.3154 11.6265)"><tspan x="0" y="0" style="&st9; &st4;">J59</tspan></text>
		<title>Junction Connector</title>
	</a>
	<path style="&st3;" d="M232.442,17.499v14.173l-10.348,164.526"/>
	<path style="&st1;" d="M232.442,17.499v14.173l-10.348,164.526"/>
	<a ewd:code="J58" ewd:figtype="conn" style="cursor:pointer;">
		<path style="&st7;stroke:#000000;" d="M232.442,17.499c4.696,0,8.504-3.808,8.504-8.504c0-4.697-3.808-8.504-8.504-8.504     s-8.504,3.808-8.504,8.504C223.938,13.691,227.746,17.499,232.442,17.499z"/>
		<text transform="matrix(1 0 0 1 225.9927 11.6265)"><tspan x="0" y="0" style="&st9; &st4;">J58</tspan></text>
		<title>Junction Connector</title>
	</a>
</g>
</svg>