﻿<?xml version="1.0"?>
<!-- Generator: Adobe Illustrator 10.0, SVG Export Plug-In . SVG Version: 3.0.0 Build 77)  -->
<!DOCTYPE svg PUBLIC "-//W3C//DTD SVG 1.0//EN" "http://www.w3.org/TR/2001/REC-SVG-20010904/DTD/svg10.dtd"[
	<!ENTITY ns_flows "http://ns.adobe.com/Flows/1.0/">
	<!ENTITY ns_svg "http://www.w3.org/2000/svg">
	<!ENTITY ns_xlink "http://www.w3.org/1999/xlink">
	<!ENTITY st0 "fill:none;">
	<!ENTITY st1 "stroke:#000000;">
	<!ENTITY st2 "stroke-linecap:round;">
	<!ENTITY st3 "stroke-linejoin:round;">
	<!ENTITY st4 "stroke-width:0.6;">
	<!ENTITY st5 "font-size:8px;">
	<!ENTITY st6 "font-family:'Arial';">
	<!ENTITY st7 "stroke-width:1.4;">
	<!ATTLIST svg
		xmlns:ewd CDATA #FIXED "http://shcl.co.jp/ewd"
		xmlns:a CDATA #FIXED "http://ns.adobe.com/AdobeSVGViewerExtensions/3.0/"
		ewd:ver CDATA #IMPLIED>
	<!ATTLIST g
		ewd:pinNo CDATA #IMPLIED>
]>
<svg width="108.187" height="60.5" viewBox="0 0 108.187 60.5" style="overflow:visible;enable-background:new 0 0 42.02 43.494" xml:space="preserve" onload="call_execInitLoadProc_svg('connector')" ewd:ver="L2.1.2.6" xmlns="&ns_svg;" xmlns:ewd="http://shcl.co.jp/ewd" xmlns:a="http://ns.adobe.com/AdobeSVGViewerExtensions/3.0/" xmlns:xlink="&ns_xlink;">
<script type="text/javascript" xlink:href="../../../../../system/js/ewd/fig/svgfig.js"/>
<g id="レイヤー_1" transform="translate(0,17.008)">
	<path style="&st0;&st1;&st2;&st3;" d="M28.276,42.993H13.744"/>
	<path style="&st0;&st1;&st2;&st3;" d="M41.52,22.823v11.104"/>
	<path style="&st0;&st1;&st2;&st3;" d="M25.684,0.5h-9.349"/>
	<path style="&st0;&st1;&st2;&st3;" d="M0.5,22.823v11.104"/>
	<path style="&st0;&st1;&st4;&st2;&st3;" d="M21.01,21.747v11.332"/>
	<path style="&st0;&st1;&st4;&st2;&st3;" d="M37.44,37.327H4.579"/>
	<path style="&st0;&st1;&st4;&st2;&st3;" d="M39.707,21.69v13.371"/>
	<path style="&st0;&st1;&st2;&st3;" d="M40.387,21.69h-0.68"/>
	<path style="&st0;&st1;&st2;&st3;" d="M40.387,35.061h-0.68"/>
	<path style="&st0;&st1;&st2;&st3;" d="M2.313,35.061h-0.68"/>
	<path style="&st0;&st1;&st4;&st2;&st3;" d="M16.477,7.242v1.757"/>
	<path style="&st0;&st1;&st4;&st2;&st3;" d="M25.542,7.242v1.757"/>
	<path style="&st0;&st1;&st2;&st3;" d="M14.211,2.625v4.25"/>
	<path style="&st0;&st1;&st2;&st3;" d="M27.809,2.625v4.25"/>
	<path style="&st0;&st1;&st2;&st3;" d="M5.712,16.591v2.125"/>
	<path style="&st0;&st1;&st2;&st3;" d="M25.684,8.999h-0.142"/>
	<path style="&st0;&st1;&st2;&st3;" d="M16.477,8.999h-0.142"/>
	<path style="&st0;&st1;&st2;&st3;" d="M16.477,8.999v9.575"/>
	<path style="&st0;&st1;&st2;&st3;" d="M25.542,8.993v9.581"/>
	<path style="&st0;&st1;&st4;&st2;&st3;" d="M2.313,21.69v13.371"/>
	<path style="&st0;&st1;&st4;&st2;&st3;" d="M18.885,34.495H8.262"/>
	<path style="&st0;&st1;&st4;&st2;&st3;" d="M33.758,34.495H23.134"/>
	<path style="&st0;&st1;&st4;&st2;&st3;" d="M33.701,19.424h-3.399"/>
	<path style="&st0;&st1;&st4;&st2;&st3;" d="M11.718,19.424H8.319"/>
	<path style="&st0;&st1;&st2;&st3;" d="M31.525,41.968l7.218-5.054"/>
	<path style="&st0;&st1;&st2;&st3;" d="M3.279,36.917l7.212,5.051"/>
	<path style="&st0;&st1;&st2;&st3;" d="M39.707,21.69c0-1.251-1.015-2.266-2.266-2.266"/>
	<path style="&st0;&st1;&st2;&st3;" d="M2.313,35.061c0,0.765,0.34,1.417,0.965,1.856"/>
	<path style="&st0;&st1;&st4;&st2;&st3;" d="M37.44,37.327c0.488,0,0.904-0.131,1.304-0.412"/>
	<path style="&st0;&st1;&st2;&st3;" d="M41.52,22.823c0-0.626-0.507-1.133-1.133-1.133"/>
	<path style="&st0;&st1;&st2;&st3;" d="M40.387,35.061c0.625,0,1.133-0.507,1.133-1.133"/>
	<path style="&st0;&st1;&st2;&st3;" d="M0.5,33.928c0,0.626,0.507,1.133,1.133,1.133"/>
	<path style="&st0;&st1;&st2;&st3;" d="M1.633,21.69c-0.625,0-1.133,0.507-1.133,1.133"/>
	<path style="&st0;&st1;&st4;&st2;&st3;" d="M38.574,23.814c0.625,0,1.133-0.507,1.133-1.133"/>
	<path style="&st0;&st1;&st4;&st2;&st3;" d="M39.707,33.078c0-0.626-0.507-1.133-1.133-1.133"/>
	<path style="&st0;&st1;&st4;&st2;&st3;" d="M3.446,31.945c-0.625,0-1.133,0.507-1.133,1.133"/>
	<path style="&st0;&st1;&st4;&st2;&st3;" d="M2.313,22.682c0,0.626,0.507,1.133,1.133,1.133"/>
	<path style="&st0;&st1;&st2;&st3;" d="M33.701,7.525c0-0.938-0.761-1.699-1.7-1.699"/>
	<path style="&st0;&st1;&st2;&st3;" d="M32.001,5.826c-0.939,0-1.7,0.761-1.7,1.699"/>
	<path style="&st0;&st1;&st2;&st3;" d="M11.718,7.525c0-0.938-0.761-1.699-1.7-1.699"/>
	<path style="&st0;&st1;&st2;&st3;" d="M10.019,5.826c-0.939,0-1.7,0.761-1.7,1.699"/>
	<path style="&st0;&st1;&st2;&st3;" d="M5.712,16.591c0-0.938-0.761-1.7-1.7-1.7"/>
	<path style="&st0;&st1;&st2;&st3;" d="M4.013,14.891c-0.938,0-1.7,0.761-1.7,1.7"/>
	<path style="&st0;&st1;&st4;&st2;&st3;" d="M17.894,5.826c-0.782,0-1.417,0.634-1.417,1.416"/>
	<path style="&st0;&st1;&st4;&st2;&st3;" d="M25.542,7.242c0-0.782-0.634-1.416-1.417-1.416"/>
	<path style="&st0;&st1;&st4;&st2;&st3;" d="M25.542,8.659c0-0.782-0.634-1.417-1.417-1.417"/>
	<path style="&st0;&st1;&st4;&st2;&st3;" d="M17.894,7.242c-0.782,0-1.417,0.634-1.417,1.417"/>
	<path style="&st0;&st1;&st2;&st3;" d="M16.335,0.5c-1.173,0-2.125,0.952-2.125,2.125"/>
	<path style="&st0;&st1;&st2;&st3;" d="M27.809,2.625c0-1.173-0.951-2.125-2.125-2.125"/>
	<path style="&st0;&st1;&st2;&st3;" d="M25.684,8.999c1.173,0,2.125-0.952,2.125-2.125"/>
	<path style="&st0;&st1;&st2;&st3;" d="M14.211,6.874c0,1.173,0.951,2.125,2.125,2.125"/>
	<path style="&st0;&st1;&st2;&st3;" d="M25.542,18.574c0,0.469,0.38,0.85,0.85,0.85"/>
	<path style="&st0;&st1;&st2;&st3;" d="M15.627,19.424c0.469,0,0.85-0.381,0.85-0.85"/>
	<path style="&st0;&st1;&st2;&st3;" d="M5.712,18.716c0,0.391,0.317,0.708,0.708,0.708"/>
	<path style="&st0;&st1;&st2;&st3;" d="M10.491,41.968c0.998,0.699,2.035,1.026,3.252,1.026"/>
	<path style="&st0;&st1;&st2;&st3;" d="M28.276,42.993c1.217,0,2.253-0.327,3.25-1.025"/>
	<path style="&st0;&st1;&st4;&st2;&st3;" d="M3.279,36.917c0.399,0.28,0.813,0.411,1.3,0.411"/>
	<path style="&st0;&st1;&st2;&st3;" d="M38.744,36.914c0.624-0.439,0.962-1.09,0.962-1.853"/>
	<path style="&st0;&st1;&st4;&st2;&st3;" d="M33.758,33.078h4.249v2.125h-4.249V33.078"/>
	<path style="&st0;&st1;&st4;&st2;&st3;" d="M38.574,31.945H37.44v-8.13h1.133"/>
	<path style="&st0;&st1;&st4;&st2;&st3;" d="M3.446,31.945h1.133v-8.13H3.446"/>
	<path style="&st0;&st1;&st4;&st2;&st3;" d="M17.894,3.701h6.232v3.541h-6.232V3.701"/>
	<path style="&st0;&st1;&st4;&st2;&st3;" d="M18.885,33.078h4.249v2.125h-4.249V33.078"/>
	<path style="&st0;&st1;&st4;&st2;&st3;" d="M4.013,33.078h4.249v2.125H4.013V33.078"/>
	<path style="&st0;&st1;&st4;&st2;&st3;" d="M35.882,33.078V21.747H6.137v11.332"/>
	<path style="&st0;&st1;&st2;&st3;" d="M15.627,19.424h-3.909V7.525"/>
	<path style="&st0;&st1;&st2;&st3;" d="M26.392,19.424h3.91V7.525"/>
	<path style="&st0;&st1;&st2;&st3;" d="M37.44,19.424h-3.739V7.525"/>
	<path style="&st0;&st1;&st2;&st3;" d="M6.42,19.424h1.898V7.525"/>
	<path style="&st0;&st1;&st2;&st3;" d="M1.633,21.69h0.68v-5.099"/>
	<g ewd:pinNo="1">
		<text transform="matrix(1 0 0 1 11.2563 31.0313)"><tspan x="0" y="0" style="&st6; &st5;">1</tspan></text>
	</g>
	<g ewd:pinNo="2">
		<text transform="matrix(1 0 0 1 26.1289 31.0313)"><tspan x="0" y="0" style="&st6; &st5;">2</tspan></text>
	</g>
</g>
<g id="レイヤー_1" transform="translate(61.861,17.008)">
	<path style="&st0;&st1;&st2;&st3;" d="M16.931,0.5h12.464"/>
	<path style="&st0;&st1;&st4;&st2;&st3;" d="M23.163,19.712v10.199"/>
	<path style="&st0;&st1;&st4;&st2;&st3;" d="M5.882,16.874h9.915"/>
	<path style="&st0;&st1;&st4;&st2;&st3;" d="M41.01,12.341h-1.7"/>
	<path style="&st0;&st1;&st2;&st3;" d="M41.577,8.375h-2.833"/>
	<path style="&st0;&st1;&st2;&st3;" d="M45.826,12.625v18.188"/>
	<path style="&st0;&st1;&st2;&st3;" d="M8.999,39.311h28.329"/>
	<path style="&st0;&st1;&st2;&st3;" d="M0.5,17.158v13.654"/>
	<path style="&st0;&st1;&st4;&st2;&st3;" d="M33.645,12.908h0.85"/>
	<path style="&st0;&st1;&st4;&st2;&st3;" d="M28.404,6.959H17.922"/>
	<path style="&st0;&st1;&st4;&st2;&st3;" d="M28.404,10.358H17.922"/>
	<path style="&st0;&st1;&st4;&st2;&st3;" d="M28.404,4.126H17.922"/>
	<path style="&st0;&st1;&st4;&st2;&st3;" d="M17.922,14.041h10.482"/>
	<path style="&st0;&st1;&st4;&st2;&st3;" d="M14.098,6.959v4.533"/>
	<path style="&st0;&st1;&st4;&st2;&st3;" d="M8.999,12.908h3.683"/>
	<path style="&st0;&st1;&st4;&st2;&st3;" d="M32.228,6.959v4.533"/>
	<path style="&st0;&st1;&st4;&st2;&st3;" d="M34.494,16.874v-4.25"/>
	<path style="&st0;&st1;&st4;&st2;&st3;" d="M36.684,34.778v-1.7"/>
	<path style="&st0;&st1;&st4;&st2;&st3;" d="M9.642,33.078v1.7"/>
	<path style="&st0;&st1;&st4;&st2;&st3;" d="M39.31,12.341c-0.469,0-0.85,0.381-0.85,0.85"/>
	<path style="&st0;&st1;&st4;&st2;&st3;" d="M41.86,13.191c0-0.469-0.381-0.85-0.85-0.85"/>
	<path style="&st0;&st1;&st4;&st2;&st3;" d="M5.882,16.874c-0.782,0-1.417,0.634-1.417,1.417"/>
	<path style="&st0;&st1;&st4;&st2;&st3;" d="M4.466,33.361c0,0.782,0.634,1.417,1.417,1.417"/>
	<path style="&st0;&st1;&st4;&st2;&st3;" d="M40.443,34.778c0.782,0,1.417-0.634,1.417-1.417"/>
	<path style="&st0;&st1;&st2;&st3;" d="M37.327,39.311c4.693,0,8.499-3.805,8.499-8.499"/>
	<path style="&st0;&st1;&st2;&st3;" d="M0.5,30.812c0,4.693,3.805,8.499,8.499,8.499"/>
	<path style="&st0;&st1;&st2;&st3;" d="M32.228,3.333c0-1.564-1.269-2.833-2.833-2.833"/>
	<path style="&st0;&st1;&st2;&st3;" d="M16.931,0.5c-1.564,0-2.833,1.269-2.833,2.833"/>
	<path style="&st0;&st1;&st4;&st2;&st3;" d="M12.681,12.908c0.782,0,1.417-0.634,1.417-1.417"/>
	<path style="&st0;&st1;&st4;&st2;&st3;" d="M15.797,16.874c1.173,0,2.125-0.951,2.125-2.125"/>
	<path style="&st0;&st1;&st4;&st2;&st3;" d="M28.404,14.75c0,1.173,0.951,2.125,2.125,2.125"/>
	<path style="&st0;&st1;&st4;&st2;&st3;" d="M32.228,11.492c0,0.782,0.634,1.417,1.417,1.417"/>
	<path style="&st0;&st1;&st2;&st3;" d="M38.744,8.375c-0.526,0-0.971,0.079-1.465,0.26"/>
	<path style="&st0;&st1;&st2;&st3;" d="M45.826,12.625c0-2.346-1.902-4.249-4.249-4.249"/>
	<path style="&st0;&st1;&st2;&st3;" d="M11.123,6.959c-1.173,0-2.125,0.951-2.125,2.125"/>
	<path style="&st0;&st1;&st2;&st3;" d="M37.279,8.636c-0.214-0.992-1.062-1.677-2.076-1.677"/>
	<path style="&st0;&st1;&st2;&st3;" d="M4.749,12.908c-2.347,0-4.249,1.902-4.249,4.25"/>
	<path style="&st0;&st1;&st4;&st2;&st3;" d="M37.279,8.636c-1.709,0.627-2.784,2.167-2.784,3.988"/>
	<path style="&st0;&st1;&st4;&st2;&st3;" d="M36.684,19.712H9.642v10.199h27.042V19.712"/>
	<path style="&st0;&st1;&st4;&st2;&st3;" d="M40.443,34.778h-6.232l-1.133,1.133h-19.83l-1.133-1.133H5.882"/>
	<path style="&st0;&st1;&st4;&st2;&st3;" d="M41.86,33.361v-4.136l1.133-1.133V23.56l-1.133-1.133v-9.235"/>
	<path style="&st0;&st1;&st4;&st2;&st3;" d="M4.466,33.361v-4.136l-1.133-1.133V23.56l1.133-1.133v-4.136"/>
	<path style="&st0;&st1;&st4;&st2;&st3;" d="M20.33,10.358v1.983h5.666v-1.983"/>
	<path style="&st0;&st1;&st4;&st2;&st3;" d="M21.463,10.358v-1.7h3.399v1.7"/>
	<path style="&st0;&st1;&st2;&st3;" d="M11.123,6.959h2.975V3.333"/>
	<path style="&st0;&st1;&st2;&st3;" d="M4.749,12.908h4.25V9.084"/>
	<path style="&st0;&st1;&st2;&st3;" d="M35.203,6.959h-2.975V3.333"/>
	<path style="&st0;&st1;&st4;&st2;&st3;" d="M17.922,14.75V2.71h10.482v12.04"/>
	<path style="&st0;&st1;&st4;&st2;&st3;" d="M38.46,13.191v3.683h-7.932"/>
	<path style="&st0;&st1;&st4;&st2;&st3;" d="M11.058,33.078v-2.125H7.517v2.125h31.292v-2.125h-3.541v2.125"/>
	<g ewd:pinNo="2">
		<text transform="matrix(1 0 0 1 13.7935 27.5142)"><tspan x="0" y="0" style="&st6; &st5;">2</tspan></text>
	</g>
	<g ewd:pinNo="1">
		<text transform="matrix(1 0 0 1 27.312 27.5283)"><tspan x="0" y="0" style="&st6; &st5;">1</tspan></text>
	</g>
</g>
<path d="M21.01,9.069v-8.504h64.014v8.504" style="&st0;&st1;&st7;&st2;&st3;"/>
</svg>