﻿<?xml version="1.0"?>
<!-- Generator: Adobe Illustrator 10.0, SVG Export Plug-In . SVG Version: 3.0.0 Build 77)  -->
<!DOCTYPE svg PUBLIC "-//W3C//DTD SVG 1.0//EN" "http://www.w3.org/TR/2001/REC-SVG-20010904/DTD/svg10.dtd"[
	<!ENTITY ns_flows "http://ns.adobe.com/Flows/1.0/">
	<!ENTITY ns_svg "http://www.w3.org/2000/svg">
	<!ENTITY ns_xlink "http://www.w3.org/1999/xlink">
	<!ENTITY st0 "fill:none;stroke:#000000;stroke-linecap:round;stroke-linejoin:round;">
	<!ENTITY st1 "fill:none;stroke:#000000;stroke-width:0.6;stroke-linecap:round;stroke-linejoin:round;">
	<!ENTITY st2 "font-size:8px;">
	<!ENTITY st3 "font-family:'Arial';">
	<!ATTLIST svg
		xmlns:ewd CDATA #FIXED "http://shcl.co.jp/ewd"
		xmlns:a CDATA #FIXED "http://ns.adobe.com/AdobeSVGViewerExtensions/3.0/"
		ewd:ver CDATA #IMPLIED>
	<!ATTLIST g
		ewd:pinNo CDATA #IMPLIED>
]>
<svg width="37.544" height="29.13" viewBox="0 0 37.544 29.13" style="overflow:visible;enable-background:new 0 0 37.544 29.13" xml:space="preserve" onload="call_execInitLoadProc_svg('connector')" ewd:ver="L2.1.2.6" xmlns="&ns_svg;" xmlns:ewd="http://shcl.co.jp/ewd" xmlns:a="http://ns.adobe.com/AdobeSVGViewerExtensions/3.0/" xmlns:xlink="&ns_xlink;">
<script type="text/javascript" xlink:href="../../../../../system/js/ewd/fig/svgfig.js"/>
<g id="レイヤー_1">
	<path style="&st0;" d="M37.044,13.775v9.428"/>
	<path style="&st0;" d="M0.5,13.775v9.428"/>
	<path style="&st1;" d="M1.916,12.141v12.697"/>
	<path style="&st1;" d="M35.627,12.141v12.697"/>
	<path style="&st0;" d="M29.253,28.517l7.082-4.087"/>
	<path style="&st0;" d="M1.208,24.43l7.083,4.087"/>
	<path style="&st0;" d="M30.84,4.891h1.841"/>
	<path style="&st0;" d="M4.862,4.891h1.841"/>
	<path style="&st1;" d="M13.46,12.398h10.623"/>
	<path style="&st1;" d="M4.013,10.931l3.541-2.045"/>
	<path style="&st1;" d="M29.99,8.886l3.541,2.045"/>
	<path style="&st1;" d="M15.939,1.208v3.329"/>
	<path style="&st1;" d="M21.604,1.208v3.329"/>
	<path style="&st0;" d="M1.208,12.548C0.757,12.809,0.5,13.253,0.5,13.775"/>
	<path style="&st0;" d="M0.5,23.203c0,0.521,0.257,0.966,0.708,1.227"/>
	<path style="&st0;" d="M36.335,24.43c0.452-0.261,0.708-0.706,0.708-1.227"/>
	<path style="&st0;" d="M37.044,13.775c0-0.521-0.257-0.966-0.708-1.227"/>
	<path style="&st0;" d="M9.565,9.197c0-0.469-0.38-0.85-0.85-0.85"/>
	<path style="&st0;" d="M8.715,8.347c-0.157,0-0.29,0.036-0.425,0.114"/>
	<path style="&st0;" d="M8.291,28.517c0.406,0.235,0.927,0.095,1.161-0.312"/>
	<path style="&st0;" d="M9.452,28.206c0.078-0.135,0.114-0.269,0.114-0.425"/>
	<path style="&st0;" d="M27.979,27.781c0,0.469,0.38,0.85,0.85,0.85"/>
	<path style="&st0;" d="M28.829,28.63c0.156,0,0.289-0.036,0.425-0.114"/>
	<path style="&st0;" d="M29.253,8.46c-0.407-0.235-0.927-0.095-1.162,0.312"/>
	<path style="&st0;" d="M28.092,8.772c-0.078,0.135-0.114,0.268-0.114,0.425"/>
	<path style="&st0;" d="M12.398,0.5c-1.173,0-2.125,0.952-2.125,2.125"/>
	<path style="&st0;" d="M27.271,2.625c0-1.173-0.951-2.125-2.125-2.125"/>
	<path style="&st0;" d="M7.554,5.741c0-0.47-0.38-0.85-0.85-0.85"/>
	<path style="&st0;" d="M4.862,4.891c-0.469,0-0.85,0.38-0.85,0.85"/>
	<path style="&st0;" d="M33.531,5.741c0-0.47-0.381-0.85-0.85-0.85"/>
	<path style="&st0;" d="M30.84,4.891c-0.469,0-0.85,0.38-0.85,0.85"/>
	<path style="&st0;" d="M27.979,27.781V24.58H9.565v3.201"/>
	<path style="&st1;" d="M1.916,22.03h2.833v-7.082H1.916"/>
	<path style="&st1;" d="M6.166,23.163v-9.349h9.207v9.349H6.166"/>
	<path style="&st1;" d="M22.171,23.163v-9.349h9.207v9.349H22.171"/>
	<path style="&st1;" d="M35.627,22.03h-2.833v-7.082h2.833"/>
	<path style="&st0;" d="M27.979,9.197v3.201h-3.895V7.37h3.187V2.625"/>
	<path style="&st0;" d="M9.565,9.197v3.201h3.896V7.37h-3.187V2.625"/>
	<path style="&st1;" d="M24.083,7.37V4.537H13.46V7.37"/>
	<path style="&st0;" d="M1.208,12.548l2.805-1.618V5.741"/>
	<path style="&st0;" d="M8.291,8.46L7.554,8.886V5.741"/>
	<path style="&st0;" d="M29.253,8.46l0.737,0.425V5.741"/>
	<path style="&st0;" d="M36.335,12.548l-2.804-1.618V5.741"/>
	<path style="&st0;" d="M25.146,0.5h-3.542v0.708h-5.666V0.5h-3.541"/>
	<g ewd:pinNo="1">
		<text transform="matrix(1 0 0 1 8.4194 21.3071)"><tspan x="0" y="0" style="&st3; &st2;">1</tspan></text>
	</g>
	<g ewd:pinNo="2">
		<text transform="matrix(1 0 0 1 24.7505 21.3071)"><tspan x="0" y="0" style="&st3; &st2;">2</tspan></text>
	</g>
</g>
</svg>