﻿<?xml version="1.0" encoding="utf-8"?>
<!DOCTYPE svg PUBLIC "-//W3C//DTD SVG 1.0//EN" "http://www.w3.org/TR/2001/REC-SVG-20010904/DTD/svg10.dtd"[
	<!ENTITY ns_flows "http://ns.adobe.com/Flows/1.0/">
	<!ENTITY ns_svg "http://www.w3.org/2000/svg">
	<!ENTITY ns_xlink "http://www.w3.org/1999/xlink">
	<!ENTITY st0 "font-size:7px;font-family:'MS-PGothic';adobe-font-script:japanese;">
	<!ENTITY st1 "font-size:6px;font-family:'ArialMT';">
	<!-- White fill  -->
	<!ENTITY st2 "fill:#FFFFFF;stroke:#000000; stroke-width:1.41;stroke-linecap:round;stroke-linejoin:round;">
	<!-- Yellow fill  -->
	<!ENTITY st3 "fill:#FFFFCC;stroke:#FFFFCC; stroke-width:0.1;stroke-linecap:round;stroke-linejoin:round;">
	<!-- Gray fill  -->
	<!ENTITY st4 "fill:#CCCCCC;stroke:#CCCCCC; stroke-width:0.1;stroke-linecap:round;stroke-linejoin:round;">
	<!-- Light-blue fill -->
	<!ENTITY st5 "fill:#CCECF4;stroke:#000000; stroke-width:1.133;stroke-linecap:round;stroke-linejoin:round;">
	<!ENTITY st6 "fill:none;stroke-linecap:butt; stroke-linejoin:round;">
	<!ENTITY st7 "fill:none;stroke:#000000;stroke-linecap:round;stroke-linejoin:round;">
	<!ENTITY st8 "enable-background:new    ;">
	<!-- Black fill -->
	<!ENTITY st9 "fill:#000000;stroke:#000000; stroke-linecap:round;stroke-linejoin:round;">
	<!-- SRS note   -->
	<!ENTITY st10 "font-size:9px;font-family:'ArialMT';">
	<!ENTITY st11 "font-size:9px;font-family:'Svg Symbol';">
	<!ENTITY st12 "font-size:6px;font-family:'Svg Symbol';">
	<!ENTITY st13 "fill:none;stroke:#ff0000;stroke-linecap:round;stroke-linejoin:round;">
	<!-- Yellow fill  -->
	<!ENTITY st14 "fill:#FFFF00;stroke:#FFFF00; stroke-width:0.1;stroke-linecap:round;stroke-linejoin:round;">
	<!ENTITY st15 "font-size:6px;font-family:'MS-PGothic';adobe-font-script:japanese;">
	<!ENTITY st16 "1.00 0.00 0.00 1.00">
	<!ENTITY st17 "0.00 -1.00 1.00 0.00">
	<!ENTITY st18 "font-size:6px;font-family:'Arial';">
	<!ENTITY st19 "font-size:9px;font-family:'Arial';">
	<!ENTITY st20 "font-size:6px;font-family:'MS-PGothic','MS PGothic';adobe-font-script:japanese;">
	<!ENTITY st21 "font-size:7px;font-family:'MS-PGothic','MS PGothic';adobe-font-script:japanese;">
	<!ATTLIST svg
		xmlns:ewd CDATA #FIXED "http://shcl.co.jp/ewd"
		xmlns:a CDATA #FIXED "http://ns.adobe.com/AdobeSVGViewerExtensions/3.0/"
		ewd:ver CDATA #IMPLIED
	>
	<!ATTLIST a
		ewd:lineID CDATA #IMPLIED
		ewd:groupID CDATA #IMPLIED
		ewd:figtype CDATA #IMPLIED
		ewd:code CDATA #IMPLIED
		ewd:figID CDATA #IMPLIED
		ewd:pinNo CDATA #IMPLIED
		ewd:comment CDATA #IMPLIED >
	<!ATTLIST g
		ewd:lineID CDATA #IMPLIED
		ewd:groupID CDATA #IMPLIED
		ewd:figtype CDATA #IMPLIED
		ewd:code CDATA #IMPLIED
		ewd:figID CDATA #IMPLIED
		ewd:pinNo CDATA #IMPLIED
		ewd:comment CDATA #IMPLIED >
	<!ATTLIST text
		ewd:textID CDATA #IMPLIED >
	<!ATTLIST title
		ewd:textID CDATA #IMPLIED >
]>
<!-- Generator: Shintec Hozumi YS   -->
<svg onload="call_execInitLoadProc_svg('system')" style="overflow:visible;  enable-background:new 0 0 3578.427 710.000" viewBox="0 0 3578.427 710.000" height="710.000" width="3578.427" xml:space="preserve" ewd:ver="L2.1.2.6" xmlns="&ns_svg;" xmlns:a="http://ns.adobe.com/AdobeSVGViewerExtensions/3.0/" xmlns:ewd="http://shcl.co.jp/ewd" xmlns:xlink="&ns_xlink;">
<path d=" M 3543.91,  469.21  L 3450.42,  469.21  L 3450.42,  435.21  L 3543.91,  435.21  L 3543.91,  588.19 " style="stroke:#000000;stroke-width: 0.85 ;&st7;stroke-dasharray:3, 1.5;" /><path d=" M 3348.44,  443.71  L 3348.44,  469.21  L 3254.96,  469.21  L 3254.96,  435.21  L 3339.94,  435.21 " style="stroke:#000000;stroke-width: 0.85 ;&st7;stroke-dasharray:3, 1.5;" /><path d=" M 3033.99,  222.75  L 3014.87,  222.75 " style="stroke-width: 0.85 ;&st7; " /><path d=" M 3010.62,  222.75  L 3000.00,  222.75 " style="stroke-width: 0.85 ;&st7; " /><path d=" M 3010.62,  227.00  L 3010.62,  218.50 " style="stroke-width: 1.42 ;&st7; " /><path d=" M 3014.87,  227.00  L 3014.87,  218.50 " style="stroke-width: 1.42 ;&st7; " /><path d=" M 3067.99,  222.75  L 3057.36,  222.75 " style="stroke-width: 0.85 ;&st7; " /><path d=" M 3053.11,  222.75  L 3033.99,  222.75 " style="stroke-width: 0.85 ;&st7; " /><path d=" M 3053.11,  227.00  L 3053.11,  218.50 " style="stroke-width: 1.42 ;&st7; " /><path d=" M 3057.36,  227.00  L 3057.36,  218.50 " style="stroke-width: 1.42 ;&st7; " /><path d=" M 3344.91,  426.71  L 3339.94,  431.69 " style="stroke-width: 1.42 ;&st7; " /><path d=" M 3351.97,  443.71  L 3356.94,  438.74 " style="stroke-width: 1.42 ;&st7; " /><path d=" M 3356.94,  431.69  L 3351.97,  426.71 " style="stroke-width: 1.42 ;&st7; " /><path d=" M 3339.94,  438.74  L 3344.91,  443.71 " style="stroke-width: 1.42 ;&st7; " /><path d=" M 3401.56,  227.00  L 3401.56,  218.50 " style="stroke-width: 1.42 ;&st7; " /><path d=" M 3397.31,  227.00  L 3397.31,  218.50 " style="stroke-width: 1.42 ;&st7; " /><path d=" M 3397.31,  222.75  L 3382.43,  222.75 " style="stroke-width: 0.85 ;&st7; " /><path d=" M 3416.43,  222.75  L 3401.56,  222.75 " style="stroke-width: 0.85 ;&st7; " /><path d=" M 3499.29,  227.00  L 3499.29,  218.50 " style="stroke-width: 1.42 ;&st7; " /><path d=" M 3382.43,  222.75  L 3367.56,  222.75 " style="stroke-width: 0.85 ;&st7; " /><path d=" M 3363.31,  222.75  L 3348.44,  222.75 " style="stroke-width: 0.85 ;&st7; " /><path d=" M 3363.31,  227.00  L 3363.31,  218.50 " style="stroke-width: 1.42 ;&st7; " /><path d=" M 3367.56,  227.00  L 3367.56,  218.50 " style="stroke-width: 1.42 ;&st7; " /><path d=" M 3484.42,  222.75  L 3469.55,  222.75 " style="stroke-width: 0.85 ;&st7; " /><path d=" M 3465.30,  222.75  L 3450.42,  222.75 " style="stroke-width: 0.85 ;&st7; " /><path d=" M 3465.30,  227.00  L 3465.30,  218.50 " style="stroke-width: 1.42 ;&st7; " /><path d=" M 3499.29,  222.75  L 3484.42,  222.75 " style="stroke-width: 0.85 ;&st7; " /><path d=" M 3469.55,  227.00  L 3469.55,  218.50 " style="stroke-width: 1.42 ;&st7; " /><path d=" M 3000.00,  205.75  L 3000.00,  256.74 " style="stroke-width: 0.85 ;&st7; " /><path d=" M 3033.99,  205.75  L 3033.99,  256.74 " style="stroke-width: 0.85 ;&st7; " /><path d=" M 3067.99,  205.75  L 3067.99,  256.74 " style="stroke-width: 0.85 ;&st7; " /><path d=" M 3076.48,  477.71  L 3008.50,  477.71  L 3008.50,  511.70  L 3076.48,  511.70  L 3076.48,  477.71 " style="stroke-width: 1.42 ;&st7; " /><path d=" M 3066.79,  221.75  L 3066.52,  222.22  L 3066.43,  222.75  L 3066.52,  223.28  L 3066.79,  223.75  L 3067.21,  224.10  L 3067.72,  224.28  L 3068.26,  224.28  L 3068.77,  224.10  L 3069.18,  223.75  L 3069.45,  223.28  L 3069.54,  222.75  L 3069.45,  222.22  L 3069.18,  221.75  L 3068.77,  221.40  L 3068.26,  221.21  L 3067.72,  221.21  L 3067.21,  221.40  L 3066.79,  221.75  L 3067.19,  222.46  L 3067.19,  223.04  L 3067.56,  223.48  L 3068.13,  223.58  L 3068.64,  223.30  L 3068.84,  222.75  L 3068.64,  222.20  L 3068.13,  221.91  L 3067.56,  222.01  L 3067.99,  222.75 " style="stroke-width: 0.85 ;&st7; " /><path d=" M 3032.80,  221.75  L 3032.53,  222.22  L 3032.43,  222.75  L 3032.53,  223.28  L 3032.80,  223.75  L 3033.21,  224.10  L 3033.72,  224.28  L 3034.26,  224.28  L 3034.77,  224.10  L 3035.18,  223.75  L 3035.46,  223.28  L 3035.55,  222.75  L 3035.46,  222.22  L 3035.18,  221.75  L 3034.77,  221.40  L 3034.26,  221.21  L 3033.72,  221.21  L 3033.21,  221.40  L 3032.80,  221.75  L 3033.19,  222.46  L 3033.19,  223.04  L 3033.57,  223.48  L 3034.14,  223.58  L 3034.64,  223.30  L 3034.84,  222.75  L 3034.64,  222.20  L 3034.14,  221.91  L 3033.57,  222.01  L 3033.99,  222.75 " style="stroke-width: 0.85 ;&st7; " /><path d=" M 3144.47,  503.20  L 3144.47,  537.20  L 3399.43,  537.20  L 3399.43,  503.20  L 3144.47,  503.20 " style="stroke-width: 1.42 ;&st7; " /><path d=" M 3161.47,  435.21  L 3161.47,  452.21 " style="stroke-width: 0.85 ;&st7; " /><path d=" M 3152.97,  452.21  L 3169.97,  452.21  L 3169.97,  435.21  L 3152.97,  435.21  L 3152.97,  452.21 " style="stroke-width: 1.42 ;&st7; " /><path d=" M 3347.25,  221.75  L 3346.97,  222.22  L 3346.88,  222.75  L 3346.97,  223.28  L 3347.25,  223.75  L 3347.66,  224.10  L 3348.17,  224.28  L 3348.71,  224.28  L 3349.22,  224.10  L 3349.63,  223.75  L 3349.90,  223.28  L 3350.00,  222.75  L 3349.90,  222.22  L 3349.63,  221.75  L 3349.22,  221.40  L 3348.71,  221.21  L 3348.17,  221.21  L 3347.66,  221.40  L 3347.25,  221.75  L 3347.64,  222.46  L 3347.64,  223.04  L 3348.01,  223.48  L 3348.59,  223.58  L 3349.09,  223.30  L 3349.29,  222.75  L 3349.09,  222.20  L 3348.59,  221.91  L 3348.01,  222.01  L 3348.44,  222.75 " style="stroke-width: 0.85 ;&st7; " /><path d=" M 3449.23,  221.75  L 3448.96,  222.22  L 3448.86,  222.75  L 3448.96,  223.28  L 3449.23,  223.75  L 3449.64,  224.10  L 3450.15,  224.28  L 3450.69,  224.28  L 3451.20,  224.10  L 3451.61,  223.75  L 3451.89,  223.28  L 3451.98,  222.75  L 3451.89,  222.22  L 3451.61,  221.75  L 3451.20,  221.40  L 3450.69,  221.21  L 3450.15,  221.21  L 3449.64,  221.40  L 3449.23,  221.75  L 3449.62,  222.46  L 3449.62,  223.04  L 3450.00,  223.48  L 3450.57,  223.58  L 3451.07,  223.30  L 3451.27,  222.75  L 3451.07,  222.20  L 3450.57,  221.91  L 3450.00,  222.01  L 3450.42,  222.75 " style="stroke-width: 0.85 ;&st7; " /><path d=" M 3415.24,  221.75  L 3414.96,  222.22  L 3414.87,  222.75  L 3414.96,  223.28  L 3415.24,  223.75  L 3415.65,  224.10  L 3416.16,  224.28  L 3416.70,  224.28  L 3417.21,  224.10  L 3417.62,  223.75  L 3417.89,  223.28  L 3417.99,  222.75  L 3417.89,  222.22  L 3417.62,  221.75  L 3417.21,  221.40  L 3416.70,  221.21  L 3416.16,  221.21  L 3415.65,  221.40  L 3415.24,  221.75  L 3415.63,  222.46  L 3415.63,  223.04  L 3416.00,  223.48  L 3416.58,  223.58  L 3417.08,  223.30  L 3417.28,  222.75  L 3417.08,  222.20  L 3416.58,  221.91  L 3416.00,  222.01  L 3416.43,  222.75 " style="stroke-width: 0.85 ;&st7; " /><path d=" M 3381.24,  221.75  L 3380.97,  222.22  L 3380.88,  222.75  L 3380.97,  223.28  L 3381.24,  223.75  L 3381.65,  224.10  L 3382.16,  224.28  L 3382.70,  224.28  L 3383.21,  224.10  L 3383.63,  223.75  L 3383.90,  223.28  L 3383.99,  222.75  L 3383.90,  222.22  L 3383.63,  221.75  L 3383.21,  221.40  L 3382.70,  221.21  L 3382.16,  221.21  L 3381.65,  221.40  L 3381.24,  221.75  L 3381.63,  222.46  L 3381.63,  223.04  L 3382.01,  223.48  L 3382.58,  223.58  L 3383.08,  223.30  L 3383.28,  222.75  L 3383.08,  222.20  L 3382.58,  221.91  L 3382.01,  222.01  L 3382.43,  222.75 " style="stroke-width: 0.85 ;&st7; " /><path d=" M 3483.22,  221.75  L 3482.95,  222.22  L 3482.86,  222.75  L 3482.95,  223.28  L 3483.22,  223.75  L 3483.64,  224.10  L 3484.15,  224.28  L 3484.69,  224.28  L 3485.20,  224.10  L 3485.61,  223.75  L 3485.88,  223.28  L 3485.97,  222.75  L 3485.88,  222.22  L 3485.61,  221.75  L 3485.20,  221.40  L 3484.69,  221.21  L 3484.15,  221.21  L 3483.64,  221.40  L 3483.22,  221.75  L 3483.62,  222.46  L 3483.62,  223.04  L 3483.99,  223.48  L 3484.56,  223.58  L 3485.07,  223.30  L 3485.27,  222.75  L 3485.07,  222.20  L 3484.56,  221.91  L 3483.99,  222.01  L 3484.42,  222.75 " style="stroke-width: 0.85 ;&st7; " /><path d=" M 3450.42,  256.74  L 3450.42,  205.75 " style="stroke-width: 0.85 ;&st7; " /><path d=" M 3484.42,  256.74  L 3484.42,  205.75 " style="stroke-width: 0.85 ;&st7; " /><path d=" M 3348.44,  256.74  L 3348.44,  205.75 " style="stroke-width: 0.85 ;&st7; " /><path d=" M 3382.43,  256.74  L 3382.43,  205.75 " style="stroke-width: 0.85 ;&st7; " /><path d=" M 3416.43,  256.74  L 3416.43,  205.75 " style="stroke-width: 0.85 ;&st7; " /><path d=" M 3331.44,  205.75  L 3331.44,  180.26  L 3526.91,  180.26  L 3526.91,  205.75  L 3331.44,  205.75 " style="stroke-width: 1.42 ;&st7; " /><path d=" M 3314.44,  256.74  L 3314.44,  163.26  L 3543.91,  163.26  L 3543.91,  256.74  L 3314.44,  256.74 " style="stroke-width: 1.42 ;&st7; " /><path d=" M 3458.92,  511.70  L 3492.91,  511.70  L 3492.91,  545.69  L 3458.92,  545.69  L 3458.92,  511.70 " style="stroke-width: 1.42 ;&st7; " /><path d=" M 3144.47,  316.23  L 3144.47,  375.72  L 3535.41,  375.72  L 3535.41,  316.23  L 3144.47,  316.23 " style="stroke-width: 1.42 ;&st7; " /><path d=" M 3030.03,  380.26  C 3030.03   377.75  3028.00   375.72  3025.49   375.72 " style="stroke-width: 1.42 ;&st7; " /><path d=" M 3025.49,  375.72  C 3022.99   375.72  3020.96   377.75  3020.96   380.26 " style="stroke-width: 1.42 ;&st7; " /><path d=" M 3020.96,  380.26  C 3020.96   382.76  3022.99   384.79  3025.49   384.79 " style="stroke-width: 1.42 ;&st7; " /><path d=" M 3025.49,  384.79  C 3028.00   384.79  3030.03   382.76  3030.03   380.26 " style="stroke-width: 1.42 ;&st7; " /><path d=" M 3064.02,  380.26  C 3064.02   377.75  3061.99   375.72  3059.49   375.72 " style="stroke-width: 1.42 ;&st7; " /><path d=" M 3059.49,  375.72  C 3056.99   375.72  3054.96   377.75  3054.96   380.26 " style="stroke-width: 1.42 ;&st7; " /><path d=" M 3054.96,  380.26  C 3054.96   382.76  3056.99   384.79  3059.49   384.79 " style="stroke-width: 1.42 ;&st7; " /><path d=" M 3059.49,  384.79  C 3061.99   384.79  3064.02   382.76  3064.02   380.26 " style="stroke-width: 1.42 ;&st7; " /><path d=" M 3072.52,  311.70  C 3072.52   309.20  3070.49   307.17  3067.99   307.17 " style="stroke-width: 1.42 ;&st7; " /><path d=" M 3067.99,  307.17  C 3065.48   307.17  3063.45   309.20  3063.45   311.70 " style="stroke-width: 1.42 ;&st7; " /><path d=" M 3063.45,  311.70  C 3063.45   314.20  3065.48   316.23  3067.99   316.23 " style="stroke-width: 1.42 ;&st7; " /><path d=" M 3067.99,  316.23  C 3070.49   316.23  3072.52   314.20  3072.52   311.70 " style="stroke-width: 1.42 ;&st7; " /><path d=" M 3038.53,  311.70  C 3038.53   309.20  3036.50   307.17  3033.99   307.17 " style="stroke-width: 1.42 ;&st7; " /><path d=" M 3033.99,  307.17  C 3031.49   307.17  3029.46   309.20  3029.46   311.70 " style="stroke-width: 1.42 ;&st7; " /><path d=" M 3029.46,  311.70  C 3029.46   314.20  3031.49   316.23  3033.99   316.23 " style="stroke-width: 1.42 ;&st7; " /><path d=" M 3033.99,  316.23  C 3036.50   316.23  3038.53   314.20  3038.53   311.70 " style="stroke-width: 1.42 ;&st7; " /><path d=" M 3004.53,  311.70  C 3004.53   309.20  3002.50   307.17  3000.00   307.17 " style="stroke-width: 1.42 ;&st7; " /><path d=" M 3000.00,  307.17  C 2997.50   307.17  2995.47   309.20  2995.47   311.70 " style="stroke-width: 1.42 ;&st7; " /><path d=" M 3000.00,  316.23  C 3002.50   316.23  3004.53   314.20  3004.53   311.70 " style="stroke-width: 1.42 ;&st7; " /><path d=" M 3030.03,  473.17  C 3030.03   470.67  3028.00   468.64  3025.49   468.64 " style="stroke-width: 1.42 ;&st7; " /><path d=" M 3025.49,  468.64  C 3022.99   468.64  3020.96   470.67  3020.96   473.17 " style="stroke-width: 1.42 ;&st7; " /><path d=" M 3020.96,  473.17  C 3020.96   475.68  3022.99   477.71  3025.49   477.71 " style="stroke-width: 1.42 ;&st7; " /><path d=" M 3025.49,  477.71  C 3028.00   477.71  3030.03   475.68  3030.03   473.17 " style="stroke-width: 1.42 ;&st7; " /><path d=" M 3064.02,  473.17  C 3064.02   470.67  3061.99   468.64  3059.49   468.64 " style="stroke-width: 1.42 ;&st7; " /><path d=" M 3059.49,  468.64  C 3056.99   468.64  3054.96   470.67  3054.96   473.17 " style="stroke-width: 1.42 ;&st7; " /><path d=" M 3054.96,  473.17  C 3054.96   475.68  3056.99   477.71  3059.49   477.71 " style="stroke-width: 1.42 ;&st7; " /><path d=" M 3059.49,  477.71  C 3061.99   477.71  3064.02   475.68  3064.02   473.17 " style="stroke-width: 1.42 ;&st7; " /><path d=" M 3064.02,  516.23  C 3064.02   513.73  3061.99   511.70  3059.49   511.70 " style="stroke-width: 1.42 ;&st7; " /><path d=" M 3059.49,  511.70  C 3056.99   511.70  3054.96   513.73  3054.96   516.23 " style="stroke-width: 1.42 ;&st7; " /><path d=" M 3054.96,  516.23  C 3054.96   518.74  3056.99   520.76  3059.49   520.76 " style="stroke-width: 1.42 ;&st7; " /><path d=" M 3059.49,  520.76  C 3061.99   520.76  3064.02   518.74  3064.02   516.23 " style="stroke-width: 1.42 ;&st7; " /><path d=" M 3386.97,  311.70  C 3386.97   309.20  3384.94   307.17  3382.43   307.17 " style="stroke-width: 1.42 ;&st7; " /><path d=" M 3382.43,  307.17  C 3379.93   307.17  3377.90   309.20  3377.90   311.70 " style="stroke-width: 1.42 ;&st7; " /><path d=" M 3377.90,  311.70  C 3377.90   314.20  3379.93   316.23  3382.43   316.23 " style="stroke-width: 1.42 ;&st7; " /><path d=" M 3382.43,  316.23  C 3384.94   316.23  3386.97   314.20  3386.97   311.70 " style="stroke-width: 1.42 ;&st7; " /><path d=" M 3352.97,  380.26  C 3352.97   377.75  3350.94   375.72  3348.44   375.72 " style="stroke-width: 1.42 ;&st7; " /><path d=" M 3348.44,  375.72  C 3345.94   375.72  3343.91   377.75  3343.91   380.26 " style="stroke-width: 1.42 ;&st7; " /><path d=" M 3343.91,  380.26  C 3343.91   382.76  3345.94   384.79  3348.44   384.79 " style="stroke-width: 1.42 ;&st7; " /><path d=" M 3348.44,  384.79  C 3350.94   384.79  3352.97   382.76  3352.97   380.26 " style="stroke-width: 1.42 ;&st7; " /><path d=" M 3284.98,  380.26  C 3284.98   377.75  3282.96   375.72  3280.45   375.72 " style="stroke-width: 1.42 ;&st7; " /><path d=" M 3280.45,  375.72  C 3277.95   375.72  3275.92   377.75  3275.92   380.26 " style="stroke-width: 1.42 ;&st7; " /><path d=" M 3275.92,  380.26  C 3275.92   382.76  3277.95   384.79  3280.45   384.79 " style="stroke-width: 1.42 ;&st7; " /><path d=" M 3280.45,  384.79  C 3282.96   384.79  3284.98   382.76  3284.98   380.26 " style="stroke-width: 1.42 ;&st7; " /><path d=" M 3454.96,  311.70  C 3454.96   309.20  3452.93   307.17  3450.42   307.17 " style="stroke-width: 1.42 ;&st7; " /><path d=" M 3450.42,  307.17  C 3447.92   307.17  3445.89   309.20  3445.89   311.70 " style="stroke-width: 1.42 ;&st7; " /><path d=" M 3445.89,  311.70  C 3445.89   314.20  3447.92   316.23  3450.42   316.23 " style="stroke-width: 1.42 ;&st7; " /><path d=" M 3450.42,  316.23  C 3452.93   316.23  3454.96   314.20  3454.96   311.70 " style="stroke-width: 1.42 ;&st7; " /><path d=" M 3352.97,  311.70  C 3352.97   309.20  3350.94   307.17  3348.44   307.17 " style="stroke-width: 1.42 ;&st7; " /><path d=" M 3348.44,  307.17  C 3345.94   307.17  3343.91   309.20  3343.91   311.70 " style="stroke-width: 1.42 ;&st7; " /><path d=" M 3343.91,  311.70  C 3343.91   314.20  3345.94   316.23  3348.44   316.23 " style="stroke-width: 1.42 ;&st7; " /><path d=" M 3348.44,  316.23  C 3350.94   316.23  3352.97   314.20  3352.97   311.70 " style="stroke-width: 1.42 ;&st7; " /><path d=" M 3488.95,  311.70  C 3488.95   309.20  3486.92   307.17  3484.42   307.17 " style="stroke-width: 1.42 ;&st7; " /><path d=" M 3484.42,  307.17  C 3481.91   307.17  3479.89   309.20  3479.89   311.70 " style="stroke-width: 1.42 ;&st7; " /><path d=" M 3479.89,  311.70  C 3479.89   314.20  3481.91   316.23  3484.42   316.23 " style="stroke-width: 1.42 ;&st7; " /><path d=" M 3484.42,  316.23  C 3486.92   316.23  3488.95   314.20  3488.95   311.70 " style="stroke-width: 1.42 ;&st7; " /><path d=" M 3208.50,  380.26  C 3208.50   377.75  3206.47   375.72  3203.96   375.72 " style="stroke-width: 1.42 ;&st7; " /><path d=" M 3203.96,  375.72  C 3201.46   375.72  3199.43   377.75  3199.43   380.26 " style="stroke-width: 1.42 ;&st7; " /><path d=" M 3199.43,  380.26  C 3199.43   382.76  3201.46   384.79  3203.96   384.79 " style="stroke-width: 1.42 ;&st7; " /><path d=" M 3203.96,  384.79  C 3206.47   384.79  3208.50   382.76  3208.50   380.26 " style="stroke-width: 1.42 ;&st7; " /><path d=" M 3318.98,  380.26  C 3318.98   377.75  3316.95   375.72  3314.45   375.72 " style="stroke-width: 1.42 ;&st7; " /><path d=" M 3314.45,  375.72  C 3311.94   375.72  3309.91   377.75  3309.91   380.26 " style="stroke-width: 1.42 ;&st7; " /><path d=" M 3309.91,  380.26  C 3309.91   382.76  3311.94   384.79  3314.45   384.79 " style="stroke-width: 1.42 ;&st7; " /><path d=" M 3314.45,  384.79  C 3316.95   384.79  3318.98   382.76  3318.98   380.26 " style="stroke-width: 1.42 ;&st7; " /><path d=" M 3242.49,  380.26  C 3242.49   377.75  3240.46   375.72  3237.96   375.72 " style="stroke-width: 1.42 ;&st7; " /><path d=" M 3237.96,  375.72  C 3235.46   375.72  3233.43   377.75  3233.43   380.26 " style="stroke-width: 1.42 ;&st7; " /><path d=" M 3233.43,  380.26  C 3233.43   382.76  3235.46   384.79  3237.96   384.79 " style="stroke-width: 1.42 ;&st7; " /><path d=" M 3237.96,  384.79  C 3240.46   384.79  3242.49   382.76  3242.49   380.26 " style="stroke-width: 1.42 ;&st7; " /><path d=" M 3420.96,  311.70  C 3420.96   309.20  3418.93   307.17  3416.43   307.17 " style="stroke-width: 1.42 ;&st7; " /><path d=" M 3416.43,  307.17  C 3413.93   307.17  3411.90   309.20  3411.90   311.70 " style="stroke-width: 1.42 ;&st7; " /><path d=" M 3411.90,  311.70  C 3411.90   314.20  3413.93   316.23  3416.43   316.23 " style="stroke-width: 1.42 ;&st7; " /><path d=" M 3416.43,  316.23  C 3418.93   316.23  3420.96   314.20  3420.96   311.70 " style="stroke-width: 1.42 ;&st7; " /><path d=" M 3166.00,  380.26  C 3166.00   377.75  3163.97   375.72  3161.47   375.72 " style="stroke-width: 1.42 ;&st7; " /><path d=" M 3161.47,  375.72  C 3158.97   375.72  3156.94   377.75  3156.94   380.26 " style="stroke-width: 1.42 ;&st7; " /><path d=" M 3156.94,  380.26  C 3156.94   382.76  3158.97   384.79  3161.47   384.79 " style="stroke-width: 1.42 ;&st7; " /><path d=" M 3161.47,  384.79  C 3163.97   384.79  3166.00   382.76  3166.00   380.26 " style="stroke-width: 1.42 ;&st7; " /><path d=" M 3166.00,  456.74  C 3166.00   454.24  3163.97   452.21  3161.47   452.21 " style="stroke-width: 1.42 ;&st7; " /><path d=" M 3161.47,  452.21  C 3158.97   452.21  3156.94   454.24  3156.94   456.74 " style="stroke-width: 1.42 ;&st7; " /><path d=" M 3156.94,  456.74  C 3156.94   459.25  3158.97   461.27  3161.47   461.27 " style="stroke-width: 1.42 ;&st7; " /><path d=" M 3161.47,  461.27  C 3163.97   461.27  3166.00   459.25  3166.00   456.74 " style="stroke-width: 1.42 ;&st7; " /><path d=" M 3166.00,  430.68  C 3166.00   428.18  3163.97   426.15  3161.47   426.15 " style="stroke-width: 1.42 ;&st7; " /><path d=" M 3161.47,  426.15  C 3158.97   426.15  3156.94   428.18  3156.94   430.68 " style="stroke-width: 1.42 ;&st7; " /><path d=" M 3156.94,  430.68  C 3156.94   433.18  3158.97   435.21  3161.47   435.21 " style="stroke-width: 1.42 ;&st7; " /><path d=" M 3161.47,  435.21  C 3163.97   435.21  3166.00   433.18  3166.00   430.68 " style="stroke-width: 1.42 ;&st7; " /><path d=" M 3480.45,  380.26  C 3480.45   377.75  3478.42   375.72  3475.92   375.72 " style="stroke-width: 1.42 ;&st7; " /><path d=" M 3475.92,  375.72  C 3473.42   375.72  3471.39   377.75  3471.39   380.26 " style="stroke-width: 1.42 ;&st7; " /><path d=" M 3471.39,  380.26  C 3471.39   382.76  3473.42   384.79  3475.92   384.79 " style="stroke-width: 1.42 ;&st7; " /><path d=" M 3475.92,  384.79  C 3478.42   384.79  3480.45   382.76  3480.45   380.26 " style="stroke-width: 1.42 ;&st7; " /><path d=" M 3480.45,  507.17  C 3480.45   504.66  3478.42   502.63  3475.92   502.63 " style="stroke-width: 1.42 ;&st7; " /><path d=" M 3475.92,  502.63  C 3473.42   502.63  3471.39   504.66  3471.39   507.17 " style="stroke-width: 1.42 ;&st7; " /><path d=" M 3471.39,  507.17  C 3471.39   509.67  3473.42   511.70  3475.92   511.70 " style="stroke-width: 1.42 ;&st7; " /><path d=" M 3475.92,  511.70  C 3478.42   511.70  3480.45   509.67  3480.45   507.17 " style="stroke-width: 1.42 ;&st7; " /><path d=" M 3480.45,  550.23  C 3480.45   547.72  3478.42   545.69  3475.92   545.69 " style="stroke-width: 1.42 ;&st7; " /><path d=" M 3475.92,  545.69  C 3473.42   545.69  3471.39   547.72  3471.39   550.23 " style="stroke-width: 1.42 ;&st7; " /><path d=" M 3471.39,  550.23  C 3471.39   552.73  3473.42   554.76  3475.92   554.76 " style="stroke-width: 1.42 ;&st7; " /><path d=" M 3475.92,  554.76  C 3478.42   554.76  3480.45   552.73  3480.45   550.23 " style="stroke-width: 1.42 ;&st7; " /><path d=" M 3386.97,  380.26  C 3386.97   377.75  3384.94   375.72  3382.43   375.72 " style="stroke-width: 1.42 ;&st7; " /><path d=" M 3382.43,  375.72  C 3379.93   375.72  3377.90   377.75  3377.90   380.26 " style="stroke-width: 1.42 ;&st7; " /><path d=" M 3377.90,  380.26  C 3377.90   382.76  3379.93   384.79  3382.43   384.79 " style="stroke-width: 1.42 ;&st7; " /><path d=" M 3382.43,  384.79  C 3384.94   384.79  3386.97   382.76  3386.97   380.26 " style="stroke-width: 1.42 ;&st7; " /><path d=" M 3166.00,  311.70  C 3166.00   309.20  3163.97   307.17  3161.47   307.17 " style="stroke-width: 1.42 ;&st7; " /><path d=" M 3161.47,  307.17  C 3158.97   307.17  3156.94   309.20  3156.94   311.70 " style="stroke-width: 1.42 ;&st7; " /><path d=" M 3156.94,  311.70  C 3156.94   314.20  3158.97   316.23  3161.47   316.23 " style="stroke-width: 1.42 ;&st7; " /><path d=" M 3161.47,  316.23  C 3163.97   316.23  3166.00   314.20  3166.00   311.70 " style="stroke-width: 1.42 ;&st7; " /><path d=" M 3200.00,  311.70  C 3200.00   309.20  3197.97   307.17  3195.47   307.17 " style="stroke-width: 1.42 ;&st7; " /><path d=" M 3195.47,  307.17  C 3192.96   307.17  3190.93   309.20  3190.93   311.70 " style="stroke-width: 1.42 ;&st7; " /><path d=" M 3190.93,  311.70  C 3190.93   314.20  3192.96   316.23  3195.47   316.23 " style="stroke-width: 1.42 ;&st7; " /><path d=" M 3195.47,  316.23  C 3197.97   316.23  3200.00   314.20  3200.00   311.70 " style="stroke-width: 1.42 ;&st7; " /><text style="&st18;" transform="matrix(&st16;  3010.66  382.22 )">27</text><text style="&st18;" transform="matrix(&st16;  3023.02  382.22 )">D</text><text style="&st18;" transform="matrix(&st16;  3044.66  382.22 )">34</text><text style="&st18;" transform="matrix(&st16;  3057.02  382.22 )">D</text><text style="&st18;" transform="matrix(&st17;  3021.8  433.29 )">Y</text><text style="&st18;" transform="matrix(&st17;  3055.79  432.94 )">L</text><text ewd:textID="20" style="&st18;" transform="matrix(&st17;  3091.2  514.22 )">Crankshaft <tspan dy="6" x="0">Position Sensor</tspan></text><text style="&st18;" transform="matrix(&st17;  3084.1  514.22 )">C 5(B)</text><text style="&st18;" transform="matrix(&st17;  3030.3  300.91 )">BR-W</text><text style="&st18;" transform="matrix(&st17;  3064.29  298.08 )">W-L</text><text style="&st18;" transform="matrix(&st16;  3053.15  313.67 )">22</text><text style="&st18;" transform="matrix(&st16;  3065.66  313.67 )">A</text><text style="&st18;" transform="matrix(&st16;  3019.16  313.67 )">28</text><text style="&st18;" transform="matrix(&st16;  3031.66  313.67 )">A</text><text style="&st18;" transform="matrix(&st16;  3015.39  475.14 )">1</text><text style="&st18;" transform="matrix(&st16;  3023.16  475.14 )">B</text><text style="&st18;" transform="matrix(&st16;  3048.61  475.14 )">2</text><text style="&st18;" transform="matrix(&st16;  3057.16  475.14 )">B</text><text style="&st18;" transform="matrix(&st16;  3048.61  518.2 )">3</text><text style="&st18;" transform="matrix(&st16;  3057.16  518.2 )">B</text><text style="&st18;" transform="matrix(&st17;  3007.63  296.92 )">(*4)</text><text style="&st18;" transform="matrix(&st17;  3041.63  296.92 )">(*4)</text><text style="&st18;" transform="matrix(&st17;  3075.62  296.92 )">(*4)</text><text style="&st18;" transform="matrix(&st16;  3027.2  264.94 )">5</text><text style="&st18;" transform="matrix(&st16;  3027.0  323.87 )">EPA</text><text style="&st18;" transform="matrix(&st16;  3060.99  323.87 )">VPA</text><text style="&st18;" transform="matrix(&st16;  3061.2  264.94 )">6</text><text style="&st18;" transform="matrix(&st16;  3017.17  253.05 )">EPA</text><text style="&st18;" transform="matrix(&st16;  3051.17  253.05 )">VPA</text><text style="&st18;" transform="matrix(&st16;  3052.67  372.03 )">NE-</text><text style="&st18;" transform="matrix(&st16;  3018.68  372.03 )">NE+</text><text style="&st18;" transform="matrix(&st16;  3057.16  508.29 )">E</text><text style="&st18;" transform="matrix(&st16;  3018.68  485.34 )">NE+</text><text style="&st18;" transform="matrix(&st16;  3052.67  485.34 )">NE-</text><text style="&st18;" transform="matrix(&st17;  3288.09  458.39 )">(*5)</text><text style="&st18;" transform="matrix(&st17;  3322.08  458.39 )">(*5)</text><text style="&st18;" transform="matrix(&st17;  3356.08  415.9 )">(*5)</text><text style="&st18;" transform="matrix(&st17;  3378.74  457.01 )">BR</text><text style="&st18;" transform="matrix(&st16;  3378.13  372.03 )">E2</text><text style="&st18;" transform="matrix(&st16;  3379.96  382.22 )">C</text><text style="&st18;" transform="matrix(&st16;  3367.6  382.22 )">28</text><text style="&st18;" transform="matrix(&st17;  3390.07  458.39 )">(*5)</text><text style="&st18;" transform="matrix(&st17;  3458.06  458.39 )">(*5)</text><text style="&st18;" transform="matrix(&st17;  3483.56  458.39 )">(*5)</text><text style="&st18;" transform="matrix(&st17;  3356.08  296.92 )">(*5)</text><text style="&st18;" transform="matrix(&st17;  3390.07  296.92 )">(*5)</text><text style="&st18;" transform="matrix(&st17;  3424.07  296.92 )">(*5)</text><text style="&st18;" transform="matrix(&st17;  3458.06  296.92 )">(*5)</text><text style="&st18;" transform="matrix(&st17;  3492.05  296.92 )">(*5)</text><text style="&st18;" transform="matrix(&st16;  3151.72  323.87 )">CANH</text><text style="&st18;" transform="matrix(&st16;  3186.21  323.87 )">CANL</text><text style="&st18;" transform="matrix(&st17;  3191.77  294.09 )">W</text><text style="&st18;" transform="matrix(&st17;  3157.78  293.07 )">B</text><text style="&st18;" transform="matrix(&st16;  3159.14  313.67 )">A</text><text style="&st18;" transform="matrix(&st16;  3146.64  313.67 )">33</text><text style="&st18;" transform="matrix(&st16;  3193.13  313.67 )">A</text><text style="&st18;" transform="matrix(&st16;  3180.63  313.67 )">34</text><text style="&st18;" transform="matrix(&st17;  3169.11  296.92 )">(*5)</text><text style="&st18;" transform="matrix(&st17;  3203.1  296.92 )">(*5)</text><text style="&st18;" transform="matrix(&st16;  3277.93  37.75 )">* 5 :1GR-FE</text><text style="&st18;" transform="matrix(&st16;  3075.45  32.08 )">W(*5)</text><text style="&st18;" transform="matrix(&st16;  3076.47  49.08 )">B(*5)</text><text style="&st18;" transform="matrix(&st16;  3127.46  49.08 )">B(*5)</text><text style="&st18;" transform="matrix(&st16;  3126.44  32.08 )">W(*5)</text><text style="&st18;" transform="matrix(&st16;  3378.13  510.84 )">E2</text><text style="&st18;" transform="matrix(&st16;  3375.64  499.51 )">3</text><text style="&st18;" transform="matrix(&st16;  3027.81  544.83 )">(*4)</text><text style="&st18;" transform="matrix(&st16;  3026.29  533.5 )">W-B</text><text style="&st18;" transform="matrix(&st17;  3033.13  437.14 )">(*4)</text><text style="&st18;" transform="matrix(&st17;  3067.13  437.14 )">(*4)</text><text ewd:textID="1" style="&st18;" transform="matrix(&st17;  3081.29  446.96 )">(Shielded)</text><text style="&st18;" transform="matrix(&st17;  3092.62  437.14 )">(*4)</text><text style="&st18;" transform="matrix(&st17;  3446.73  299.96 )">LG-R</text><text style="&st18;" transform="matrix(&st16;  3346.11  313.67 )">B</text><text style="&st18;" transform="matrix(&st16;  3235.43  345.09 )">E13(A),E14(B),E15(C),E17(E)</text><text style="&st18;" transform="matrix(&st16;  3277.98  382.22 )">C</text><text style="&st18;" transform="matrix(&st16;  3201.44  544.81 )">T 1</text><text style="&st18;" transform="matrix(&st16;  3435.59  313.67 )">26</text><text style="&st18;" transform="matrix(&st16;  3470.36  313.67 )">18</text><text style="&st18;" transform="matrix(&st16;  3448.09  313.67 )">B</text><text style="&st18;" transform="matrix(&st17;  3378.74  300.73 )">GR-G</text><text style="&st18;" transform="matrix(&st17;  3480.72  298.08 )">W-L</text><text style="&st18;" transform="matrix(&st17;  3344.75  300.03 )">BR-R</text><text style="&st18;" transform="matrix(&st16;  3407.46  323.87 )">EPA2</text><text style="&st18;" transform="matrix(&st16;  3414.1  313.67 )">B</text><text style="&st18;" transform="matrix(&st16;  3402.37  313.67 )">21</text><text style="&st18;" transform="matrix(&st16;  3339.33  323.87 )">VCP2</text><text style="&st18;" transform="matrix(&st16;  3440.96  323.87 )">VCPA</text><text style="&st18;" transform="matrix(&st16;  3373.46  323.87 )">VPA2</text><text style="&st18;" transform="matrix(&st16;  3477.42  323.87 )">VPA</text><text style="&st18;" transform="matrix(&st17;  3344.75  414.52 )">BR</text><text ewd:textID="36" style="&st18;" transform="matrix(&st16;  3201.44  551.91 )">Throttle Body Assembly</text><text style="&st18;" transform="matrix(&st16;  3339.79  372.03 )">GE01</text><text style="&st18;" transform="matrix(&st16;  3309.54  372.03 )">M-</text><text style="&st18;" transform="matrix(&st16;  3275.54  372.03 )">M+</text><text style="&st18;" transform="matrix(&st16;  3229.2  372.03 )">VTA2</text><text style="&st18;" transform="matrix(&st16;  3195.59  372.03 )">VTA1</text><text style="&st18;" transform="matrix(&st16;  3309.54  510.84 )">M-</text><text style="&st18;" transform="matrix(&st16;  3275.54  510.84 )">M+</text><text style="&st18;" transform="matrix(&st16;  3229.2  510.84 )">VTA2</text><text style="&st18;" transform="matrix(&st16;  3195.59  510.84 )">VTA1</text><text style="&st18;" transform="matrix(&st16;  3156.67  510.84 )">VC</text><text style="&st18;" transform="matrix(&st16;  3269.58  382.22 )">5</text><text style="&st18;" transform="matrix(&st16;  3311.97  382.22 )">C</text><text style="&st18;" transform="matrix(&st16;  3308.43  499.51 )">1</text><text style="&st18;" transform="matrix(&st16;  3273.66  499.51 )">2</text><text style="&st18;" transform="matrix(&st16;  3189.13  382.22 )">20</text><text style="&st18;" transform="matrix(&st16;  3231.16  499.51 )">4</text><text style="&st18;" transform="matrix(&st16;  3197.17  499.51 )">6</text><text style="&st18;" transform="matrix(&st16;  3223.9  382.22 )">19</text><text style="&st18;" transform="matrix(&st17;  3276.76  454.54 )">B</text><text style="&st18;" transform="matrix(&st16;  3154.68  499.51 )">5</text><text style="&st18;" transform="matrix(&st16;  3345.97  382.22 )">C</text><text style="&st18;" transform="matrix(&st17;  3234.26  463.12 )">LG(*5)</text><text ewd:textID="21" style="&st18;" transform="matrix(&st16;  3235.43  352.2 )">Engine ECU</text><text style="&st18;" transform="matrix(&st16;  3334.38  382.22 )">17</text><text style="&st18;" transform="matrix(&st16;  3303.57  382.22 )">4</text><text style="&st18;" transform="matrix(&st17;  3412.73  299.88 )">BR-Y</text><text style="&st18;" transform="matrix(&st16;  3368.38  313.67 )">19</text><text style="&st18;" transform="matrix(&st17;  3200.27  459.03 )">B-R</text><text ewd:textID="1" style="&st18;" transform="matrix(&st17;  3251.26  468.21 )">(Shielded)</text><text style="&st18;" transform="matrix(&st16;  3380.1  313.67 )">B</text><text style="&st18;" transform="matrix(&st16;  3333.61  313.67 )">27</text><text style="&st18;" transform="matrix(&st17;  3157.78  486.78 )">LG-B</text><text style="&st18;" transform="matrix(&st16;  3201.49  382.22 )">C</text><text style="&st18;" transform="matrix(&st16;  3235.49  382.22 )">C</text><text style="&st18;" transform="matrix(&st17;  3310.75  455.56 )">W</text><text style="&st18;" transform="matrix(&st16;  3482.09  313.67 )">B</text><text style="&st18;" transform="matrix(&st17;  3472.22  455.56 )">W</text><text style="&st18;" transform="matrix(&st16;  3150.6  458.71 )">5</text><text ewd:textID="20" style="&st18;" transform="matrix(&st17;  3449.28  548.22 )">Crankshaft <tspan dy="6" x="0">Position Sensor</tspan></text><text style="&st18;" transform="matrix(&st17;  3442.17  548.22 )">C 5(A)</text><text style="&st18;" transform="matrix(&st16;  3473.59  382.22 )">E</text><text style="&st18;" transform="matrix(&st17;  3157.78  418.79 )">LG-B</text><text style="&st18;" transform="matrix(&st16;  3159.14  458.71 )">A</text><text style="&st18;" transform="matrix(&st16;  3469.1  372.03 )">NE-</text><text style="&st18;" transform="matrix(&st16;  3150.6  432.65 )">6</text><text style="&st18;" transform="matrix(&st16;  3159.14  432.65 )">A</text><text ewd:textID="1" style="&st18;" transform="matrix(&st17;  3446.73  468.21 )">(Shielded)</text><text style="&st18;" transform="matrix(&st16;  3461.09  382.22 )">20</text><text ewd:textID="22" style="&st18;" transform="matrix(&st17;  3184.69  454.73 )">Junction <tspan dy="6" x="0">Connector</tspan></text><text style="&st18;" transform="matrix(&st16;  3156.67  372.03 )">VC</text><text style="&st18;" transform="matrix(&st16;  3159.0  382.22 )">C</text><text style="&st18;" transform="matrix(&st17;  3177.58  454.73 )">J39(A)</text><text style="&st18;" transform="matrix(&st16;  3146.64  382.22 )">23</text><text style="&st18;" transform="matrix(&st16;  3469.1  542.0 )">NE+</text><text style="&st18;" transform="matrix(&st16;  3469.1  519.33 )">NE-</text><text style="&st18;" transform="matrix(&st16;  3467.58  253.05 )">VPA</text><text style="&st18;" transform="matrix(&st16;  3428.63  253.05 )">VCPA</text><text style="&st18;" transform="matrix(&st16;  3395.63  253.05 )">EPA2</text><text style="&st18;" transform="matrix(&st16;  3327.36  253.05 )">VCP2</text><text style="&st18;" transform="matrix(&st16;  3361.63  253.05 )">VPA2</text><text style="&st18;" transform="matrix(&st16;  3379.91  152.46 )">A22</text><text ewd:textID="14" style="&st18;" transform="matrix(&st16;  3379.91  159.56 )">Accelerator Position Sensor</text><text style="&st18;" transform="matrix(&st16;  3477.63  264.94 )">6</text><text style="&st18;" transform="matrix(&st16;  3443.63  264.94 )">4</text><text style="&st18;" transform="matrix(&st16;  3375.65  264.94 )">3</text><text style="&st18;" transform="matrix(&st16;  3342.43  264.94 )">1</text><text style="&st18;" transform="matrix(&st16;  3409.64  264.94 )">2</text><text style="&st18;" transform="matrix(&st16;  3473.59  509.14 )">A</text><text style="&st18;" transform="matrix(&st16;  3465.04  509.14 )">2</text><text style="&st18;" transform="matrix(&st16;  3473.59  552.2 )">A</text><text style="&st18;" transform="matrix(&st16;  3465.82  552.2 )">1</text><text style="&st18;" transform="matrix(&st17;  3169.11  415.9 )">(*5)</text><text style="&st18;" transform="matrix(&st17;  3169.11  483.89 )">(*5)</text><text style="&st18;" transform="matrix(&st17;  3211.6  458.39 )">(*5)</text><text style="&st18;" transform="matrix(&st17;  3262.59  458.39 )">(*5)</text></svg>