﻿<?xml version="1.0" encoding="utf-8"?>
<!DOCTYPE svg PUBLIC "-//W3C//DTD SVG 1.0//EN" "http://www.w3.org/TR/2001/REC-SVG-20010904/DTD/svg10.dtd"[
	<!ENTITY ns_flows "http://ns.adobe.com/Flows/1.0/">
	<!ENTITY ns_svg "http://www.w3.org/2000/svg">
	<!ENTITY ns_xlink "http://www.w3.org/1999/xlink">
	<!ENTITY st0 "font-size:7px;font-family:'MS-PGothic';adobe-font-script:japanese;">
	<!ENTITY st1 "font-size:6px;font-family:'ArialMT';">
	<!-- White fill  -->
	<!ENTITY st2 "fill:#FFFFFF;stroke:#000000; stroke-width:1.41;stroke-linecap:round;stroke-linejoin:round;">
	<!-- Yellow fill  -->
	<!ENTITY st3 "fill:#FFFFCC;stroke:#FFFFCC; stroke-width:0.1;stroke-linecap:round;stroke-linejoin:round;">
	<!-- Gray fill  -->
	<!ENTITY st4 "fill:#CCCCCC;stroke:#CCCCCC; stroke-width:0.1;stroke-linecap:round;stroke-linejoin:round;">
	<!-- Light-blue fill -->
	<!ENTITY st5 "fill:#CCECF4;stroke:#000000; stroke-width:1.133;stroke-linecap:round;stroke-linejoin:round;">
	<!ENTITY st6 "fill:none;stroke-linecap:butt; stroke-linejoin:round;">
	<!ENTITY st7 "fill:none;stroke:#000000;stroke-linecap:round;stroke-linejoin:round;">
	<!ENTITY st8 "enable-background:new    ;">
	<!-- Black fill -->
	<!ENTITY st9 "fill:#000000;stroke:#000000; stroke-linecap:round;stroke-linejoin:round;">
	<!-- SRS note   -->
	<!ENTITY st10 "font-size:9px;font-family:'ArialMT';">
	<!ENTITY st11 "font-size:9px;font-family:'Svg Symbol';">
	<!ENTITY st12 "font-size:6px;font-family:'Svg Symbol';">
	<!ENTITY st13 "fill:none;stroke:#ff0000;stroke-linecap:round;stroke-linejoin:round;">
	<!-- Yellow fill  -->
	<!ENTITY st14 "fill:#FFFF00;stroke:#FFFF00; stroke-width:0.1;stroke-linecap:round;stroke-linejoin:round;">
	<!ENTITY st15 "font-size:6px;font-family:'MS-PGothic';adobe-font-script:japanese;">
	<!ENTITY st16 "1.00 0.00 0.00 1.00">
	<!ENTITY st17 "0.00 -1.00 1.00 0.00">
	<!ENTITY st18 "font-size:6px;font-family:'Arial';">
	<!ENTITY st19 "font-size:9px;font-family:'Arial';">
	<!ENTITY st20 "font-size:6px;font-family:'MS-PGothic','MS PGothic';adobe-font-script:japanese;">
	<!ENTITY st21 "font-size:7px;font-family:'MS-PGothic','MS PGothic';adobe-font-script:japanese;">
	<!ATTLIST svg
		xmlns:ewd CDATA #FIXED "http://shcl.co.jp/ewd"
		xmlns:a CDATA #FIXED "http://ns.adobe.com/AdobeSVGViewerExtensions/3.0/"
		ewd:ver CDATA #IMPLIED
	>
	<!ATTLIST a
		ewd:lineID CDATA #IMPLIED
		ewd:groupID CDATA #IMPLIED
		ewd:figtype CDATA #IMPLIED
		ewd:code CDATA #IMPLIED
		ewd:figID CDATA #IMPLIED
		ewd:pinNo CDATA #IMPLIED
		ewd:comment CDATA #IMPLIED >
	<!ATTLIST g
		ewd:lineID CDATA #IMPLIED
		ewd:groupID CDATA #IMPLIED
		ewd:figtype CDATA #IMPLIED
		ewd:code CDATA #IMPLIED
		ewd:figID CDATA #IMPLIED
		ewd:pinNo CDATA #IMPLIED
		ewd:comment CDATA #IMPLIED >
	<!ATTLIST text
		ewd:textID CDATA #IMPLIED >
	<!ATTLIST title
		ewd:textID CDATA #IMPLIED >
]>
<!-- Generator: Shintec Hozumi YS   -->
<svg onload="call_execInitLoadProc_svg('system')" style="overflow:visible;  enable-background:new 0 0 3578.427 710.000" viewBox="0 0 3578.427 710.000" height="710.000" width="3578.427" xml:space="preserve" ewd:ver="L2.1.2.6" xmlns="&ns_svg;" xmlns:a="http://ns.adobe.com/AdobeSVGViewerExtensions/3.0/" xmlns:ewd="http://shcl.co.jp/ewd" xmlns:xlink="&ns_xlink;">
<path d=" M 1419.26,  443.71  L 1410.76,  443.71 " style="stroke-width: 1.42 ;&st7; " /><path d=" M 1215.30,   69.77  L 1215.30,   95.27 " style="stroke-width: 0.85 ;&st7; " /><path d=" M 1217.42,   95.27  L 1213.17,   95.27 " style="stroke-width: 1.42 ;&st7; " /><path d=" M 1217.42,  103.77  L 1213.17,  103.77 " style="stroke-width: 1.42 ;&st7; " /><path d=" M 1206.80,  137.76  L 1215.30,  137.76 " style="stroke-width: 1.42 ;&st7; " /><path d=" M 1206.80,  282.24  L 1198.30,  282.24 " style="stroke-width: 1.42 ;&st7; " /><path d=" M 1087.82,  273.74  L 1096.32,  273.74 " style="stroke-width: 1.42 ;&st7; " /><path d=" M 1455.38,  163.26  L 1451.13,  163.26 " style="stroke-width: 1.42 ;&st7; " /><path d=" M 1455.38,  171.76  L 1451.13,  171.76 " style="stroke-width: 1.42 ;&st7; " /><path d=" M 1444.76,  273.74  L 1453.26,  273.74 " style="stroke-width: 1.42 ;&st7; " /><path d=" M 1147.31,  513.12  L 1145.61,  489.00 " style="stroke-width: 1.42 ;&st7; " /><path d=" M 1147.31,  528.70  L 1147.31,  515.95 " style="stroke-width: 0.85 ;&st7; " /><path d=" M 1147.31,  490.45  L 1147.31,  486.20 " style="stroke-width: 0.85 ;&st7; " /><path d=" M 1334.28,   86.77  L 1334.28,  112.27 " style="stroke-width: 0.85 ;&st7; " /><path d=" M 1336.40,  112.27  L 1332.15,  112.27 " style="stroke-width: 1.42 ;&st7; " /><path d=" M 1336.40,  120.77  L 1332.15,  120.77 " style="stroke-width: 1.42 ;&st7; " /><path d=" M 1274.79,  273.74  L 1283.29,  273.74 " style="stroke-width: 1.42 ;&st7; " /><path d=" M 1495.75,  470.62  L 1501.42,  447.96 " style="stroke-width: 1.42 ;&st7; " /><path d=" M 1495.75,  477.71  L 1495.75,  473.46 " style="stroke-width: 0.85 ;&st7; " /><path d=" M 1495.75,  447.96  L 1495.75,  443.71 " style="stroke-width: 0.85 ;&st7; " /><path d=" M 1487.25,  384.22  L 1495.75,  384.22 " style="stroke-width: 1.42 ;&st7; " /><path d=" M 1504.25,  537.20  L 1495.75,  537.20 " style="stroke-width: 1.42 ;&st7; " /><path d=" M 1410.76,  521.61  L 1416.43,  498.95 " style="stroke-width: 1.42 ;&st7; " /><path d=" M 1410.76,  528.70  L 1410.76,  524.45 " style="stroke-width: 0.85 ;&st7; " /><path d=" M 1410.76,  498.95  L 1410.76,  494.70 " style="stroke-width: 0.85 ;&st7; " /><path d=" M 1011.33,  452.21  L 1002.83,  452.21 " style="stroke-width: 1.42 ;&st7; " /><path d=" M 1223.80,  555.61  L 1229.46,  532.95 " style="stroke-width: 1.42 ;&st7; " /><path d=" M 1223.80,  562.69  L 1223.80,  558.44 " style="stroke-width: 0.85 ;&st7; " /><path d=" M 1223.80,  532.95  L 1223.80,  528.70 " style="stroke-width: 0.85 ;&st7; " /><path d=" M 1283.29,  555.61  L 1288.95,  532.95 " style="stroke-width: 1.42 ;&st7; " /><path d=" M 1283.29,  562.69  L 1283.29,  558.44 " style="stroke-width: 0.85 ;&st7; " /><path d=" M 1283.29,  532.95  L 1283.29,  528.70 " style="stroke-width: 0.85 ;&st7; " /><path d=" M 1215.30,  435.21  L 1223.80,  435.21 " style="stroke-width: 1.42 ;&st7; " /><path d=" M 1274.79,  435.21  L 1283.29,  435.21 " style="stroke-width: 1.42 ;&st7; " /><path d=" M 1410.76,   86.77  L 1410.76,  163.26 " style="stroke-width: 0.85 ;&st7; " /><path d=" M 1412.89,  163.26  L 1408.64,  163.26 " style="stroke-width: 1.42 ;&st7; " /><path d=" M 1412.89,  171.76  L 1408.64,  171.76 " style="stroke-width: 1.42 ;&st7; " /><path d=" M 1181.30,  562.69  L 1181.30,  469.21  L 1138.81,  469.21  L 1138.81,  562.69  L 1181.30,  562.69 " style="stroke-width: 1.42 ;&st7; " /><path d=" M 1419.26,  528.70  L 1419.26,  494.70  L 1402.27,  494.70  L 1402.27,  528.70  L 1419.26,  528.70 " style="stroke-width: 1.42 ;&st7; " /><path d=" M 1398.02,   52.78  L 1398.02,   95.27  L 1423.51,   95.27  L 1423.51,   52.78  L 1398.02,   52.78 " style="stroke-width: 1.42 ;&st7; " /><path d=" M 1410.76,  158.36  L 1407.93,  155.53  L 1407.93,  159.78  L 1410.76,  162.61  L 1413.60,  159.78  L 1413.60,  155.53  L 1410.76,  158.36 " style="stroke-width: 0.28 ;&st9;" /><path d=" M 1087.82,  214.25  L 1104.81,  214.25 " style="stroke-width: 1.13 ;&st7;stroke-dasharray:3, 1.5;" /><path d=" M 1104.81,  697.25  L 1104.81,  701.50 " style="stroke-width: 0.85 ;&st7; " /><path d=" M 1096.32,  701.50  L 1113.31,  701.50 " style="stroke-width: 0.85 ;&st7; " /><path d=" M 1100.57,  704.33  L 1109.06,  704.33 " style="stroke-width: 0.85 ;&st7; " /><path d=" M 1101.98,  707.17  L 1107.65,  707.17 " style="stroke-width: 0.85 ;&st7; " /><path d=" M 1103.40,  710.00  L 1106.23,  710.00 " style="stroke-width: 0.85 ;&st7; " /><path d=" M 1283.29,  494.70  L 1283.29,  477.71 " style="stroke-width: 0.85 ;&st7; " /><path d=" M 1222.38,  710.00  L 1225.21,  710.00 " style="stroke-width: 0.85 ;&st7; " /><path d=" M 1220.96,  707.17  L 1226.63,  707.17 " style="stroke-width: 0.85 ;&st7; " /><path d=" M 1219.55,  704.33  L 1228.04,  704.33 " style="stroke-width: 0.85 ;&st7; " /><path d=" M 1215.30,  701.50  L 1232.29,  701.50 " style="stroke-width: 0.85 ;&st7; " /><path d=" M 1223.80,  697.25  L 1223.80,  701.50 " style="stroke-width: 0.85 ;&st7; " /><path d=" M 1287.53,  429.55  L 1283.29,  433.80  L 1279.04,  429.55 " style="stroke-width: 1.42 ;&st7; " /><path d=" M 1215.30,  605.18  L 1291.78,  605.18  L 1291.78,  622.18  L 1215.30,  622.18  L 1215.30,  605.18 " style="stroke-width: 1.42 ;&st7; " /><path d=" M 1223.80,  605.18  L 1223.80,  622.18 " style="stroke-width: 0.85 ;&st7; " /><path d=" M 1279.04,  426.15  L 1283.29,  430.40  L 1287.53,  426.15 " style="stroke-width: 1.42 ;&st7; " /><path d=" M 1228.04,  429.55  L 1223.80,  433.80  L 1219.55,  429.55 " style="stroke-width: 1.42 ;&st7; " /><path d=" M 1219.55,  426.15  L 1223.80,  430.40  L 1228.04,  426.15 " style="stroke-width: 1.42 ;&st7; " /><path d=" M 1223.80,  613.68  L 1283.29,  613.68  L 1283.29,  605.18 " style="stroke-width: 0.85 ;&st7; " /><path d=" M 1222.60,  612.68  L 1222.33,  613.15  L 1222.24,  613.68  L 1222.33,  614.22  L 1222.60,  614.69  L 1223.02,  615.03  L 1223.52,  615.22  L 1224.07,  615.22  L 1224.57,  615.03  L 1224.99,  614.69  L 1225.26,  614.22  L 1225.35,  613.68  L 1225.26,  613.15  L 1224.99,  612.68  L 1224.57,  612.33  L 1224.07,  612.15  L 1223.52,  612.15  L 1223.02,  612.33  L 1222.60,  612.68  L 1223.00,  613.39  L 1223.00,  613.97  L 1223.37,  614.42  L 1223.94,  614.52  L 1224.45,  614.23  L 1224.64,  613.68  L 1224.45,  613.14  L 1223.94,  612.85  L 1223.37,  612.95  L 1223.80,  613.68 " style="stroke-width: 0.85 ;&st7; " /><path d=" M 1232.29,  562.69  L 1232.29,  528.70  L 1215.30,  528.70  L 1215.30,  562.69  L 1232.29,  562.69 " style="stroke-width: 1.42 ;&st7; " /><path d=" M 1291.78,  562.69  L 1291.78,  528.70  L 1274.79,  528.70  L 1274.79,  562.69  L 1291.78,  562.69 " style="stroke-width: 1.42 ;&st7; " /><path d=" M 1223.80,  477.71  L 1223.80,  494.70 " style="stroke-width: 0.85 ;&st7; " /><path d=" M 1215.30,  477.71  L 1291.78,  477.71  L 1291.78,  494.70  L 1215.30,  494.70  L 1215.30,  477.71 " style="stroke-width: 1.42 ;&st7; " /><path d=" M 1410.76,  146.26  L 1759.21,  146.26 " style="stroke-width: 0.85 ;&st7; " /><path d=" M 1452.06,  145.26  L 1451.79,  145.73  L 1451.70,  146.26  L 1451.79,  146.79  L 1452.06,  147.26  L 1452.48,  147.61  L 1452.98,  147.80  L 1453.53,  147.80  L 1454.04,  147.61  L 1454.45,  147.26  L 1454.72,  146.79  L 1454.81,  146.26  L 1454.72,  145.73  L 1454.45,  145.26  L 1454.04,  144.91  L 1453.53,  144.73  L 1452.98,  144.73  L 1452.48,  144.91  L 1452.06,  145.26  L 1452.46,  145.97  L 1452.46,  146.55  L 1452.83,  147.00  L 1453.40,  147.10  L 1453.91,  146.81  L 1454.11,  146.26  L 1453.91,  145.71  L 1453.40,  145.43  L 1452.83,  145.52  L 1453.26,  146.26 " style="stroke-width: 0.85 ;&st7; " /><path d=" M 1415.01,  452.78  L 1410.76,  448.53  L 1406.51,  452.78 " style="stroke-width: 1.42 ;&st7; " /><path d=" M 1415.01,  449.38  L 1410.76,  445.13  L 1406.51,  449.38 " style="stroke-width: 1.42 ;&st7; " /><path d=" M 1172.80,  188.75  L 1223.80,  188.75  L 1223.80,  222.75  L 1172.80,  222.75  L 1172.80,  188.75 " style="stroke-width: 1.42 ;&st7; " /><path d=" M 1189.80,  188.75  L 1189.80,  222.75 " style="stroke-width: 0.85 ;&st7; " /><path d=" M 1206.80,  188.75  L 1206.80,  222.75 " style="stroke-width: 0.85 ;&st7; " /><path d=" M 1213.88,  214.25  L 1199.72,  214.25 " style="stroke-width: 0.85 ;&st7; " /><path d=" M 1172.80,  205.75  L 1223.80,  205.75 " style="stroke-width: 0.85 ;&st7; " /><path d=" M 1215.30,   90.37  L 1212.46,   87.54  L 1212.46,   91.79  L 1215.30,   94.62  L 1218.13,   91.79  L 1218.13,   87.54  L 1215.30,   90.37 " style="stroke-width: 0.28 ;&st9;" /><path d=" M 1202.55,   35.78  L 1202.55,   78.27  L 1228.04,   78.27  L 1228.04,   35.78  L 1202.55,   35.78 " style="stroke-width: 1.42 ;&st7; " /><path d=" M 1211.05,  128.70  L 1215.30,  132.95  L 1219.55,  128.70 " style="stroke-width: 1.42 ;&st7; " /><path d=" M 1219.55,  132.10  L 1215.30,  136.35  L 1211.05,  132.10 " style="stroke-width: 1.42 ;&st7; " /><path d=" M 1202.55,  291.30  L 1198.30,  287.05  L 1194.05,  291.30 " style="stroke-width: 1.42 ;&st7; " /><path d=" M 1202.55,  287.90  L 1198.30,  283.65  L 1194.05,  287.90 " style="stroke-width: 1.42 ;&st7; " /><path d=" M 1096.32,  197.25  L 1096.32,  222.75 " style="stroke-width: 0.85 ;&st7; " /><path d=" M 1087.82,  197.25  L 1104.81,  197.25  L 1104.81,  222.75  L 1087.82,  222.75  L 1087.82,  197.25 " style="stroke-width: 1.42 ;&st7; " /><path d=" M 1092.07,  264.67  L 1096.32,  268.92  L 1100.57,  264.67 " style="stroke-width: 1.42 ;&st7; " /><path d=" M 1100.57,  268.07  L 1096.32,  272.32  L 1092.07,  268.07 " style="stroke-width: 1.42 ;&st7; " /><path d=" M 1087.82,  205.75  L 1104.81,  205.75 " style="stroke-width: 1.13 ;&st7;stroke-dasharray:3, 1.5;" /><path d=" M 1453.26,  158.36  L 1450.42,  155.53  L 1450.42,  159.78  L 1453.26,  162.61  L 1456.09,  159.78  L 1456.09,  155.53  L 1453.26,  158.36 " style="stroke-width: 0.28 ;&st9;" /><path d=" M 1453.26,  163.26  L 1453.26,  146.26 " style="stroke-width: 0.85 ;&st7; " /><path d=" M 1409.57,  145.26  L 1409.30,  145.73  L 1409.21,  146.26  L 1409.30,  146.79  L 1409.57,  147.26  L 1409.98,  147.61  L 1410.49,  147.80  L 1411.04,  147.80  L 1411.54,  147.61  L 1411.96,  147.26  L 1412.23,  146.79  L 1412.32,  146.26  L 1412.23,  145.73  L 1411.96,  145.26  L 1411.54,  144.91  L 1411.04,  144.73  L 1410.49,  144.73  L 1409.98,  144.91  L 1409.57,  145.26  L 1409.96,  145.97  L 1409.96,  146.55  L 1410.34,  147.00  L 1410.91,  147.10  L 1411.42,  146.81  L 1411.61,  146.26  L 1411.42,  145.71  L 1410.91,  145.43  L 1410.34,  145.52  L 1410.76,  146.26 " style="stroke-width: 0.85 ;&st7; " /><path d=" M 1449.01,  264.67  L 1453.26,  268.92  L 1457.51,  264.67 " style="stroke-width: 1.42 ;&st7; " /><path d=" M 1457.51,  268.07  L 1453.26,  272.32  L 1449.01,  268.07 " style="stroke-width: 1.42 ;&st7; " /><path d=" M 1147.31,  562.69  L 1147.31,  554.19  L 1144.47,  552.78  L 1150.14,  549.94  L 1144.47,  547.11  L 1150.14,  544.28  L 1144.47,  541.44  L 1150.14,  538.61  L 1147.31,  537.20  L 1147.31,  528.70 " style="stroke-width: 0.85 ;&st7; " /><path d=" M 1172.80,  528.70  L 1172.80,  511.70  L 1169.97,  510.28  L 1175.64,  507.45  L 1169.97,  504.62  L 1175.64,  501.78  L 1169.97,  498.95  L 1175.64,  496.12  L 1172.80,  494.70  L 1172.80,  477.71 " style="stroke-width: 0.85 ;&st7; " /><path d=" M 1172.80,  477.71  L 1147.31,  477.71 " style="stroke-width: 0.85 ;&st7; " /><path d=" M 1147.31,  486.20  L 1147.31,  469.21 " style="stroke-width: 0.85 ;&st7; " /><path d=" M 1172.80,  528.70  L 1147.31,  528.70 " style="stroke-width: 0.85 ;&st7; " /><path d=" M 1146.12,  476.70  L 1145.84,  477.17  L 1145.75,  477.71  L 1145.84,  478.24  L 1146.12,  478.71  L 1146.53,  479.05  L 1147.04,  479.24  L 1147.58,  479.24  L 1148.09,  479.05  L 1148.50,  478.71  L 1148.77,  478.24  L 1148.87,  477.71  L 1148.77,  477.17  L 1148.50,  476.70  L 1148.09,  476.36  L 1147.58,  476.17  L 1147.04,  476.17  L 1146.53,  476.36  L 1146.12,  476.70  L 1146.51,  477.41  L 1146.51,  478.00  L 1146.88,  478.44  L 1147.46,  478.54  L 1147.96,  478.25  L 1148.16,  477.71  L 1147.96,  477.16  L 1147.46,  476.87  L 1146.88,  476.97  L 1147.31,  477.71 " style="stroke-width: 0.85 ;&st7; " /><path d=" M 1146.12,  527.69  L 1145.84,  528.16  L 1145.75,  528.70  L 1145.84,  529.23  L 1146.12,  529.70  L 1146.53,  530.05  L 1147.04,  530.23  L 1147.58,  530.23  L 1148.09,  530.05  L 1148.50,  529.70  L 1148.77,  529.23  L 1148.87,  528.70  L 1148.77,  528.16  L 1148.50,  527.69  L 1148.09,  527.35  L 1147.58,  527.16  L 1147.04,  527.16  L 1146.53,  527.35  L 1146.12,  527.69  L 1146.51,  528.41  L 1146.51,  528.99  L 1146.88,  529.43  L 1147.46,  529.53  L 1147.96,  529.24  L 1148.16,  528.70  L 1147.96,  528.15  L 1147.46,  527.86  L 1146.88,  527.96  L 1147.31,  528.70 " style="stroke-width: 0.85 ;&st7; " /><path d=" M 1334.28,  107.37  L 1331.44,  104.54  L 1331.44,  108.79  L 1334.28,  111.62  L 1337.11,  108.79  L 1337.11,  104.54  L 1334.28,  107.37 " style="stroke-width: 0.28 ;&st9;" /><path d=" M 1321.53,   52.78  L 1321.53,   95.27  L 1347.02,   95.27  L 1347.02,   52.78  L 1321.53,   52.78 " style="stroke-width: 1.42 ;&st7; " /><path d=" M 1287.53,  268.07  L 1283.29,  272.32  L 1279.04,  268.07 " style="stroke-width: 1.42 ;&st7; " /><path d=" M 1279.04,  264.67  L 1283.29,  268.92  L 1287.53,  264.67 " style="stroke-width: 1.42 ;&st7; " /><path d=" M 1504.25,  477.71  L 1504.25,  443.71  L 1487.25,  443.71  L 1487.25,  477.71  L 1504.25,  477.71 " style="stroke-width: 1.42 ;&st7; " /><path d=" M 1491.50,  375.16  L 1495.75,  379.41  L 1500.00,  375.16 " style="stroke-width: 1.42 ;&st7; " /><path d=" M 1500.00,  378.56  L 1495.75,  382.80  L 1491.50,  378.56 " style="stroke-width: 1.42 ;&st7; " /><path d=" M 1500.00,  546.26  L 1495.75,  542.01  L 1491.50,  546.26 " style="stroke-width: 1.42 ;&st7; " /><path d=" M 1500.00,  542.86  L 1495.75,  538.61  L 1491.50,  542.86 " style="stroke-width: 1.42 ;&st7; " /><path d=" M 1491.50,  704.33  L 1500.00,  704.33 " style="stroke-width: 0.85 ;&st7; " /><path d=" M 1495.75,  697.25  L 1495.75,  701.50 " style="stroke-width: 0.85 ;&st7; " /><path d=" M 1487.25,  701.50  L 1504.25,  701.50 " style="stroke-width: 0.85 ;&st7; " /><path d=" M 1487.25,  656.18  L 1487.25,  673.17  L 1504.25,  673.17  L 1504.25,  656.18  L 1487.25,  656.18 " style="stroke-width: 1.42 ;&st7; " /><path d=" M 1495.75,  656.18  L 1495.75,  681.67 " style="stroke-width: 0.85 ;&st7; " /><path d=" M 1494.33,  710.00  L 1497.17,  710.00 " style="stroke-width: 0.85 ;&st7; " /><path d=" M 1492.92,  707.17  L 1498.58,  707.17 " style="stroke-width: 0.85 ;&st7; " /><path d=" M 1487.25,  299.24  L 1504.25,  299.24  L 1504.25,  316.23  L 1487.25,  316.23  L 1487.25,  299.24 " style="stroke-width: 1.42 ;&st7; " /><path d=" M 1495.75,  299.24  L 1495.75,  316.23 " style="stroke-width: 0.85 ;&st7; " /><path d=" M 1228.33,  600.65  C 1228.33   598.15  1226.30   596.12  1223.80   596.12 " style="stroke-width: 1.42 ;&st7; " /><path d=" M 1223.80,  596.12  C 1221.29   596.12  1219.26   598.15  1219.26   600.65 " style="stroke-width: 1.42 ;&st7; " /><path d=" M 1219.26,  600.65  C 1219.26   603.15  1221.29   605.18  1223.80   605.18 " style="stroke-width: 1.42 ;&st7; " /><path d=" M 1223.80,  605.18  C 1226.30   605.18  1228.33   603.15  1228.33   600.65 " style="stroke-width: 1.42 ;&st7; " /><path d=" M 1228.33,  626.71  C 1228.33   624.21  1226.30   622.18  1223.80   622.18 " style="stroke-width: 1.42 ;&st7; " /><path d=" M 1223.80,  622.18  C 1221.29   622.18  1219.26   624.21  1219.26   626.71 " style="stroke-width: 1.42 ;&st7; " /><path d=" M 1219.26,  626.71  C 1219.26   629.22  1221.29   631.25  1223.80   631.25 " style="stroke-width: 1.42 ;&st7; " /><path d=" M 1223.80,  631.25  C 1226.30   631.25  1228.33   629.22  1228.33   626.71 " style="stroke-width: 1.42 ;&st7; " /><path d=" M 1287.82,  600.65  C 1287.82   598.15  1285.79   596.12  1283.29   596.12 " style="stroke-width: 1.42 ;&st7; " /><path d=" M 1283.29,  596.12  C 1280.78   596.12  1278.75   598.15  1278.75   600.65 " style="stroke-width: 1.42 ;&st7; " /><path d=" M 1278.75,  600.65  C 1278.75   603.15  1280.78   605.18  1283.29   605.18 " style="stroke-width: 1.42 ;&st7; " /><path d=" M 1283.29,  605.18  C 1285.79   605.18  1287.82   603.15  1287.82   600.65 " style="stroke-width: 1.42 ;&st7; " /><path d=" M 1225.21,  557.03  C 1225.21   556.24  1224.58   555.61  1223.80   555.61 " style="stroke-width: 0.85 ;&st7; " /><path d=" M 1223.80,  555.61  C 1223.01   555.61  1222.38   556.24  1222.38   557.03 " style="stroke-width: 0.85 ;&st7; " /><path d=" M 1222.38,  557.03  C 1222.38   557.81  1223.01   558.44  1223.80   558.44 " style="stroke-width: 0.85 ;&st7; " /><path d=" M 1223.80,  558.44  C 1224.58   558.44  1225.21   557.81  1225.21   557.03 " style="stroke-width: 0.85 ;&st7; " /><path d=" M 1225.21,  534.36  C 1225.21   533.58  1224.58   532.95  1223.80   532.95 " style="stroke-width: 0.85 ;&st7; " /><path d=" M 1223.80,  532.95  C 1223.01   532.95  1222.38   533.58  1222.38   534.36 " style="stroke-width: 0.85 ;&st7; " /><path d=" M 1222.38,  534.36  C 1222.38   535.14  1223.01   535.78  1223.80   535.78 " style="stroke-width: 0.85 ;&st7; " /><path d=" M 1223.80,  535.78  C 1224.58   535.78  1225.21   535.14  1225.21   534.36 " style="stroke-width: 0.85 ;&st7; " /><path d=" M 1284.70,  557.03  C 1284.70   556.24  1284.07   555.61  1283.29   555.61 " style="stroke-width: 0.85 ;&st7; " /><path d=" M 1283.29,  555.61  C 1282.50   555.61  1281.87   556.24  1281.87   557.03 " style="stroke-width: 0.85 ;&st7; " /><path d=" M 1281.87,  557.03  C 1281.87   557.81  1282.50   558.44  1283.29   558.44 " style="stroke-width: 0.85 ;&st7; " /><path d=" M 1283.29,  558.44  C 1284.07   558.44  1284.70   557.81  1284.70   557.03 " style="stroke-width: 0.85 ;&st7; " /><path d=" M 1284.70,  534.36  C 1284.70   533.58  1284.07   532.95  1283.29   532.95 " style="stroke-width: 0.85 ;&st7; " /><path d=" M 1283.29,  532.95  C 1282.50   532.95  1281.87   533.58  1281.87   534.36 " style="stroke-width: 0.85 ;&st7; " /><path d=" M 1281.87,  534.36  C 1281.87   535.14  1282.50   535.78  1283.29   535.78 " style="stroke-width: 0.85 ;&st7; " /><path d=" M 1283.29,  535.78  C 1284.07   535.78  1284.70   535.14  1284.70   534.36 " style="stroke-width: 0.85 ;&st7; " /><path d=" M 1410.76,   64.11  C 1408.03    65.72  1407.11    69.25  1408.73    71.99 " style="stroke-width: 1.42 ;&st7; " /><path d=" M 1408.73,   71.99  C 1409.25    72.87  1409.88    73.50  1410.76    74.02 " style="stroke-width: 1.42 ;&st7; " /><path d=" M 1410.76,   83.94  C 1413.50    82.32  1414.41    78.80  1412.80    76.06 " style="stroke-width: 1.42 ;&st7; " /><path d=" M 1412.80,   76.06  C 1412.28    75.18  1411.65    74.54  1410.76    74.02 " style="stroke-width: 1.42 ;&st7; " /><path d=" M 1412.18,   62.69  C 1412.18    61.91  1411.55    61.28  1410.76    61.28 " style="stroke-width: 0.85 ;&st7; " /><path d=" M 1410.76,   61.28  C 1409.98    61.28  1409.35    61.91  1409.35    62.69 " style="stroke-width: 0.85 ;&st7; " /><path d=" M 1409.35,   62.69  C 1409.35    63.47  1409.98    64.11  1410.76    64.11 " style="stroke-width: 0.85 ;&st7; " /><path d=" M 1410.76,   64.11  C 1411.55    64.11  1412.18    63.47  1412.18    62.69 " style="stroke-width: 0.85 ;&st7; " /><path d=" M 1412.18,   85.35  C 1412.18    84.57  1411.55    83.94  1410.76    83.94 " style="stroke-width: 0.85 ;&st7; " /><path d=" M 1410.76,   83.94  C 1409.98    83.94  1409.35    84.57  1409.35    85.35 " style="stroke-width: 0.85 ;&st7; " /><path d=" M 1409.35,   85.35  C 1409.35    86.14  1409.98    86.77  1410.76    86.77 " style="stroke-width: 0.85 ;&st7; " /><path d=" M 1410.76,   86.77  C 1411.55    86.77  1412.18    86.14  1412.18    85.35 " style="stroke-width: 0.85 ;&st7; " /><path d=" M 1408.64,  163.26  C 1406.29   163.26  1404.39   165.16  1404.39   167.51 " style="stroke-width: 1.42 ;&st7; " /><path d=" M 1404.39,  167.51  C 1404.39   169.85  1406.29   171.76  1408.64   171.76 " style="stroke-width: 1.42 ;&st7; " /><path d=" M 1412.89,  171.76  C 1415.24   171.76  1417.14   169.85  1417.14   167.51 " style="stroke-width: 1.42 ;&st7; " /><path d=" M 1417.14,  167.51  C 1417.14   165.16  1415.24   163.26  1412.89   163.26 " style="stroke-width: 1.42 ;&st7; " /><path d=" M 1216.71,  214.25  C 1216.71   213.47  1216.08   212.83  1215.30   212.83 " style="stroke-width: 0.85 ;&st7; " /><path d=" M 1215.30,  212.83  C 1214.51   212.83  1213.88   213.47  1213.88   214.25 " style="stroke-width: 0.85 ;&st7; " /><path d=" M 1213.88,  214.25  C 1213.88   215.03  1214.51   215.67  1215.30   215.67 " style="stroke-width: 0.85 ;&st7; " /><path d=" M 1215.30,  215.67  C 1216.08   215.67  1216.71   215.03  1216.71   214.25 " style="stroke-width: 0.85 ;&st7; " /><path d=" M 1199.72,  214.25  C 1199.72   213.47  1199.08   212.83  1198.30   212.83 " style="stroke-width: 0.85 ;&st7; " /><path d=" M 1198.30,  212.83  C 1197.52   212.83  1196.88   213.47  1196.88   214.25 " style="stroke-width: 0.85 ;&st7; " /><path d=" M 1196.88,  214.25  C 1196.88   215.03  1197.52   215.67  1198.30   215.67 " style="stroke-width: 0.85 ;&st7; " /><path d=" M 1198.30,  215.67  C 1199.08   215.67  1199.72   215.03  1199.72   214.25 " style="stroke-width: 0.85 ;&st7; " /><path d=" M 1215.30,   47.11  C 1212.56    48.72  1211.65    52.25  1213.26    54.99 " style="stroke-width: 1.42 ;&st7; " /><path d=" M 1213.26,   54.99  C 1213.78    55.87  1214.41    56.51  1215.30    57.03 " style="stroke-width: 1.42 ;&st7; " /><path d=" M 1215.30,   66.94  C 1218.03    65.33  1218.95    61.80  1217.33    59.06 " style="stroke-width: 1.42 ;&st7; " /><path d=" M 1217.33,   59.06  C 1216.81    58.18  1216.18    57.55  1215.30    57.03 " style="stroke-width: 1.42 ;&st7; " /><path d=" M 1216.71,   45.69  C 1216.71    44.91  1216.08    44.28  1215.30    44.28 " style="stroke-width: 0.85 ;&st7; " /><path d=" M 1215.30,   44.28  C 1214.51    44.28  1213.88    44.91  1213.88    45.69 " style="stroke-width: 0.85 ;&st7; " /><path d=" M 1213.88,   45.69  C 1213.88    46.48  1214.51    47.11  1215.30    47.11 " style="stroke-width: 0.85 ;&st7; " /><path d=" M 1215.30,   47.11  C 1216.08    47.11  1216.71    46.48  1216.71    45.69 " style="stroke-width: 0.85 ;&st7; " /><path d=" M 1216.71,   68.36  C 1216.71    67.57  1216.08    66.94  1215.30    66.94 " style="stroke-width: 0.85 ;&st7; " /><path d=" M 1215.30,   66.94  C 1214.51    66.94  1213.88    67.57  1213.88    68.36 " style="stroke-width: 0.85 ;&st7; " /><path d=" M 1213.88,   68.36  C 1213.88    69.14  1214.51    69.77  1215.30    69.77 " style="stroke-width: 0.85 ;&st7; " /><path d=" M 1215.30,   69.77  C 1216.08    69.77  1216.71    69.14  1216.71    68.36 " style="stroke-width: 0.85 ;&st7; " /><path d=" M 1213.17,   95.27  C 1210.83    95.27  1208.92    97.17  1208.92    99.52 " style="stroke-width: 1.42 ;&st7; " /><path d=" M 1208.92,   99.52  C 1208.92   101.87  1210.83   103.77  1213.17   103.77 " style="stroke-width: 1.42 ;&st7; " /><path d=" M 1217.42,  103.77  C 1219.77   103.77  1221.67   101.87  1221.67    99.52 " style="stroke-width: 1.42 ;&st7; " /><path d=" M 1221.67,   99.52  C 1221.67    97.17  1219.77    95.27  1217.42    95.27 " style="stroke-width: 1.42 ;&st7; " /><path d=" M 1100.85,  192.72  C 1100.85   190.22  1098.82   188.19  1096.32   188.19 " style="stroke-width: 1.42 ;&st7; " /><path d=" M 1096.32,  188.19  C 1093.81   188.19  1091.78   190.22  1091.78   192.72 " style="stroke-width: 1.42 ;&st7; " /><path d=" M 1091.78,  192.72  C 1091.78   195.22  1093.81   197.25  1096.32   197.25 " style="stroke-width: 1.42 ;&st7; " /><path d=" M 1096.32,  197.25  C 1098.82   197.25  1100.85   195.22  1100.85   192.72 " style="stroke-width: 1.42 ;&st7; " /><path d=" M 1100.85,  227.28  C 1100.85   224.78  1098.82   222.75  1096.32   222.75 " style="stroke-width: 1.42 ;&st7; " /><path d=" M 1096.32,  222.75  C 1093.81   222.75  1091.78   224.78  1091.78   227.28 " style="stroke-width: 1.42 ;&st7; " /><path d=" M 1091.78,  227.28  C 1091.78   229.78  1093.81   231.81  1096.32   231.81 " style="stroke-width: 1.42 ;&st7; " /><path d=" M 1096.32,  231.81  C 1098.82   231.81  1100.85   229.78  1100.85   227.28 " style="stroke-width: 1.42 ;&st7; " /><path d=" M 1451.13,  163.26  C 1448.79   163.26  1446.88   165.16  1446.88   167.51 " style="stroke-width: 1.42 ;&st7; " /><path d=" M 1446.88,  167.51  C 1446.88   169.85  1448.79   171.76  1451.13   171.76 " style="stroke-width: 1.42 ;&st7; " /><path d=" M 1455.38,  171.76  C 1457.73   171.76  1459.63   169.85  1459.63   167.51 " style="stroke-width: 1.42 ;&st7; " /><path d=" M 1459.63,  167.51  C 1459.63   165.16  1457.73   163.26  1455.38   163.26 " style="stroke-width: 1.42 ;&st7; " /><path d=" M 1148.72,  514.53  C 1148.72   513.75  1148.09   513.12  1147.31   513.12 " style="stroke-width: 0.85 ;&st7; " /><path d=" M 1147.31,  513.12  C 1146.53   513.12  1145.89   513.75  1145.89   514.53 " style="stroke-width: 0.85 ;&st7; " /><path d=" M 1145.89,  514.53  C 1145.89   515.31  1146.53   515.95  1147.31   515.95 " style="stroke-width: 0.85 ;&st7; " /><path d=" M 1147.31,  515.95  C 1148.09   515.95  1148.72   515.31  1148.72   514.53 " style="stroke-width: 0.85 ;&st7; " /><path d=" M 1148.72,  491.87  C 1148.72   491.09  1148.09   490.45  1147.31   490.45 " style="stroke-width: 0.85 ;&st7; " /><path d=" M 1147.31,  490.45  C 1146.53   490.45  1145.89   491.09  1145.89   491.87 " style="stroke-width: 0.85 ;&st7; " /><path d=" M 1145.89,  491.87  C 1145.89   492.65  1146.53   493.29  1147.31   493.29 " style="stroke-width: 0.85 ;&st7; " /><path d=" M 1147.31,  493.29  C 1148.09   493.29  1148.72   492.65  1148.72   491.87 " style="stroke-width: 0.85 ;&st7; " /><path d=" M 1334.28,   64.11  C 1331.54    65.72  1330.63    69.25  1332.24    71.99 " style="stroke-width: 1.42 ;&st7; " /><path d=" M 1332.24,   71.99  C 1332.76    72.87  1333.40    73.50  1334.28    74.02 " style="stroke-width: 1.42 ;&st7; " /><path d=" M 1334.28,   83.94  C 1337.01    82.32  1337.93    78.80  1336.31    76.06 " style="stroke-width: 1.42 ;&st7; " /><path d=" M 1336.31,   76.06  C 1335.79    75.18  1335.16    74.54  1334.28    74.02 " style="stroke-width: 1.42 ;&st7; " /><path d=" M 1335.69,   62.69  C 1335.69    61.91  1335.06    61.28  1334.28    61.28 " style="stroke-width: 0.85 ;&st7; " /><path d=" M 1334.28,   61.28  C 1333.49    61.28  1332.86    61.91  1332.86    62.69 " style="stroke-width: 0.85 ;&st7; " /><path d=" M 1332.86,   62.69  C 1332.86    63.47  1333.49    64.11  1334.28    64.11 " style="stroke-width: 0.85 ;&st7; " /><path d=" M 1334.28,   64.11  C 1335.06    64.11  1335.69    63.47  1335.69    62.69 " style="stroke-width: 0.85 ;&st7; " /><path d=" M 1335.69,   85.35  C 1335.69    84.57  1335.06    83.94  1334.28    83.94 " style="stroke-width: 0.85 ;&st7; " /><path d=" M 1334.28,   83.94  C 1333.49    83.94  1332.86    84.57  1332.86    85.35 " style="stroke-width: 0.85 ;&st7; " /><path d=" M 1332.86,   85.35  C 1332.86    86.14  1333.49    86.77  1334.28    86.77 " style="stroke-width: 0.85 ;&st7; " /><path d=" M 1334.28,   86.77  C 1335.06    86.77  1335.69    86.14  1335.69    85.35 " style="stroke-width: 0.85 ;&st7; " /><path d=" M 1332.15,  112.27  C 1329.81   112.27  1327.90   114.17  1327.90   116.52 " style="stroke-width: 1.42 ;&st7; " /><path d=" M 1327.90,  116.52  C 1327.90   118.86  1329.81   120.77  1332.15   120.77 " style="stroke-width: 1.42 ;&st7; " /><path d=" M 1336.40,  120.77  C 1338.75   120.77  1340.65   118.86  1340.65   116.52 " style="stroke-width: 1.42 ;&st7; " /><path d=" M 1340.65,  116.52  C 1340.65   114.17  1338.75   112.27  1336.40   112.27 " style="stroke-width: 1.42 ;&st7; " /><path d=" M 1497.17,  472.04  C 1497.17   471.26  1496.53   470.62  1495.75   470.62 " style="stroke-width: 0.85 ;&st7; " /><path d=" M 1495.75,  470.62  C 1494.97   470.62  1494.33   471.26  1494.33   472.04 " style="stroke-width: 0.85 ;&st7; " /><path d=" M 1494.33,  472.04  C 1494.33   472.82  1494.97   473.46  1495.75   473.46 " style="stroke-width: 0.85 ;&st7; " /><path d=" M 1495.75,  473.46  C 1496.53   473.46  1497.17   472.82  1497.17   472.04 " style="stroke-width: 0.85 ;&st7; " /><path d=" M 1497.17,  449.38  C 1497.17   448.59  1496.53   447.96  1495.75   447.96 " style="stroke-width: 0.85 ;&st7; " /><path d=" M 1495.75,  447.96  C 1494.97   447.96  1494.33   448.59  1494.33   449.38 " style="stroke-width: 0.85 ;&st7; " /><path d=" M 1494.33,  449.38  C 1494.33   450.16  1494.97   450.79  1495.75   450.79 " style="stroke-width: 0.85 ;&st7; " /><path d=" M 1495.75,  450.79  C 1496.53   450.79  1497.17   450.16  1497.17   449.38 " style="stroke-width: 0.85 ;&st7; " /><path d=" M 1495.75,  290.17  C 1493.25   290.17  1491.22   292.20  1491.22   294.70 " style="stroke-width: 1.42 ;&st7; " /><path d=" M 1491.22,  294.70  C 1491.22   297.21  1493.25   299.24  1495.75   299.24 " style="stroke-width: 1.42 ;&st7; " /><path d=" M 1495.75,  299.24  C 1498.25   299.24  1500.28   297.21  1500.28   294.70 " style="stroke-width: 1.42 ;&st7; " /><path d=" M 1495.75,  316.23  C 1493.25   316.23  1491.22   318.26  1491.22   320.77 " style="stroke-width: 1.42 ;&st7; " /><path d=" M 1491.22,  320.77  C 1491.22   323.27  1493.25   325.30  1495.75   325.30 " style="stroke-width: 1.42 ;&st7; " /><path d=" M 1495.75,  325.30  C 1498.25   325.30  1500.28   323.27  1500.28   320.77 " style="stroke-width: 1.42 ;&st7; " /><path d=" M 1219.83,  184.22  C 1219.83   181.72  1217.80   179.69  1215.30   179.69 " style="stroke-width: 1.42 ;&st7; " /><path d=" M 1215.30,  179.69  C 1212.79   179.69  1210.76   181.72  1210.76   184.22 " style="stroke-width: 1.42 ;&st7; " /><path d=" M 1210.76,  184.22  C 1210.76   186.72  1212.79   188.75  1215.30   188.75 " style="stroke-width: 1.42 ;&st7; " /><path d=" M 1215.30,  188.75  C 1217.80   188.75  1219.83   186.72  1219.83   184.22 " style="stroke-width: 1.42 ;&st7; " /><path d=" M 1219.83,  175.16  C 1219.83   172.65  1217.80   170.62  1215.30   170.62 " style="stroke-width: 1.42 ;&st7; " /><path d=" M 1215.30,  170.62  C 1212.79   170.62  1210.76   172.65  1210.76   175.16 " style="stroke-width: 1.42 ;&st7; " /><path d=" M 1210.76,  175.16  C 1210.76   177.66  1212.79   179.69  1215.30   179.69 " style="stroke-width: 1.42 ;&st7; " /><path d=" M 1215.30,  179.69  C 1217.80   179.69  1219.83   177.66  1219.83   175.16 " style="stroke-width: 1.42 ;&st7; " /><path d=" M 1202.83,  236.35  C 1202.83   233.84  1200.80   231.81  1198.30   231.81 " style="stroke-width: 1.42 ;&st7; " /><path d=" M 1198.30,  231.81  C 1195.80   231.81  1193.77   233.84  1193.77   236.35 " style="stroke-width: 1.42 ;&st7; " /><path d=" M 1193.77,  236.35  C 1193.77   238.85  1195.80   240.88  1198.30   240.88 " style="stroke-width: 1.42 ;&st7; " /><path d=" M 1198.30,  240.88  C 1200.80   240.88  1202.83   238.85  1202.83   236.35 " style="stroke-width: 1.42 ;&st7; " /><path d=" M 1202.83,  227.28  C 1202.83   224.78  1200.80   222.75  1198.30   222.75 " style="stroke-width: 1.42 ;&st7; " /><path d=" M 1198.30,  222.75  C 1195.80   222.75  1193.77   224.78  1193.77   227.28 " style="stroke-width: 1.42 ;&st7; " /><path d=" M 1193.77,  227.28  C 1193.77   229.78  1195.80   231.81  1198.30   231.81 " style="stroke-width: 1.42 ;&st7; " /><path d=" M 1198.30,  231.81  C 1200.80   231.81  1202.83   229.78  1202.83   227.28 " style="stroke-width: 1.42 ;&st7; " /><path d=" M 1412.18,  523.03  C 1412.18   522.25  1411.55   521.61  1410.76   521.61 " style="stroke-width: 0.85 ;&st7; " /><path d=" M 1410.76,  521.61  C 1409.98   521.61  1409.35   522.25  1409.35   523.03 " style="stroke-width: 0.85 ;&st7; " /><path d=" M 1409.35,  523.03  C 1409.35   523.81  1409.98   524.45  1410.76   524.45 " style="stroke-width: 0.85 ;&st7; " /><path d=" M 1410.76,  524.45  C 1411.55   524.45  1412.18   523.81  1412.18   523.03 " style="stroke-width: 0.85 ;&st7; " /><path d=" M 1412.18,  500.37  C 1412.18   499.59  1411.55   498.95  1410.76   498.95 " style="stroke-width: 0.85 ;&st7; " /><path d=" M 1410.76,  498.95  C 1409.98   498.95  1409.35   499.59  1409.35   500.37 " style="stroke-width: 0.85 ;&st7; " /><path d=" M 1409.35,  500.37  C 1409.35   501.15  1409.98   501.78  1410.76   501.78 " style="stroke-width: 0.85 ;&st7; " /><path d=" M 1410.76,  501.78  C 1411.55   501.78  1412.18   501.15  1412.18   500.37 " style="stroke-width: 0.85 ;&st7; " /><text style="&st18;" transform="matrix(&st16;  1064.81  400.91 )">1</text><text style="&st18;" transform="matrix(&st16;  1094.85  400.91 )">13</text><text style="&st18;" transform="matrix(&st16;  1061.53  389.02 )">GND1</text><text style="&st18;" transform="matrix(&st16;  1095.14  389.02 )">GND2</text><text style="&st18;" transform="matrix(&st17;  1067.13  425.92 )">W-B</text><text style="&st18;" transform="matrix(&st17;  1101.12  425.92 )">W-B</text><text style="&st18;" transform="matrix(&st16;  1272.41  602.62 )">4</text><text style="&st18;" transform="matrix(&st16;  1280.95  602.62 )">A</text><text style="&st18;" transform="matrix(&st16;  1217.78  570.88 )">1</text><text style="&st18;" transform="matrix(&st16;  1217.01  525.01 )">2</text><text style="&st18;" transform="matrix(&st16;  1276.5  570.88 )">2</text><text style="&st18;" transform="matrix(&st16;  1277.27  525.01 )">1</text><text ewd:textID="38" style="&st18;" transform="matrix(&st17;  1247.01  565.22 )">Transfer <tspan dy="6" x="-0.01">Indicator SW </tspan><tspan dy="6" x="-0.01">(Center Diff. </tspan><tspan dy="6" x="-0.01">Lock Position)</tspan></text><text style="&st18;" transform="matrix(&st17;  1239.91  565.22 )">T 4</text><text ewd:textID="39" style="&st18;" transform="matrix(&st17;  1306.5  565.22 )">Transfer <tspan dy="6" x="-0.01">Indicator SW </tspan><tspan dy="6" x="-0.01">(L4 Position)</tspan></text><text style="&st18;" transform="matrix(&st17;  1299.4  565.22 )">T 5</text><text style="&st18;" transform="matrix(&st16;  1208.98  441.43 )">5</text><text style="&st18;" transform="matrix(&st16;  1268.47  441.43 )">6</text><text style="&st18;" transform="matrix(&st16;  1218.14  389.02 )">EXI</text><text style="&st18;" transform="matrix(&st16;  1213.05  400.91 )">20</text><text style="&st18;" transform="matrix(&st16;  1276.5  400.91 )">9</text><text style="&st18;" transform="matrix(&st16;  1275.66  389.02 )">EXI4</text><text style="&st18;" transform="matrix(&st17;  1220.1  420.78 )">R-B</text><text style="&st18;" transform="matrix(&st17;  1279.59  422.09 )">G-W</text><text style="&st18;" transform="matrix(&st17;  1220.1  463.28 )">R-B</text><text style="&st18;" transform="matrix(&st17;  1279.59  464.58 )">G-W</text><text style="&st18;" transform="matrix(&st17;  1220.1  514.03 )">B</text><text style="&st18;" transform="matrix(&st17;  1279.59  519.82 )">G-W</text><text style="&st18;" transform="matrix(&st17;  1220.1  591.64 )">W-B</text><text style="&st18;" transform="matrix(&st17;  1279.59  591.64 )">W-B</text><text style="&st18;" transform="matrix(&st17;  1220.1  672.37 )">W-B</text><text ewd:textID="22" style="&st18;" transform="matrix(&st17;  1306.5  497.23 )">Junction <tspan dy="6" x="0">Connector</tspan></text><text style="&st18;" transform="matrix(&st17;  1299.4  497.23 )">J 7</text><text style="&st18;" transform="matrix(&st16;  1213.83  502.9 )">12</text><text style="&st18;" transform="matrix(&st16;  1276.5  502.9 )">8</text><text style="&st18;" transform="matrix(&st16;  1213.83  474.02 )">13</text><text style="&st18;" transform="matrix(&st16;  1273.32  474.02 )">10</text><text ewd:textID="22" style="&st18;" transform="matrix(&st16;  1238.27  636.9 )">Junction <tspan dy="6" x="0">Connector</tspan></text><text style="&st18;" transform="matrix(&st16;  1238.27  629.79 )">J 9(A)</text><text style="&st18;" transform="matrix(&st16;  1428.07  73.17 )">10A <tspan dy="6" x="0">ECU-IG&amp;GAUGE</tspan></text><text style="&st18;" transform="matrix(&st16;  1406.81  169.48 )">2L</text><text style="&st18;" transform="matrix(&st16;  1398.07  169.48 )">8</text><text style="&st18;" transform="matrix(&st16;  1404.69  49.08 )">(IG)</text><text style="&st18;" transform="matrix(&st17;  1407.07  233.58 )">B</text><text style="&st18;" transform="matrix(&st17;  1143.61  591.64 )">W-B</text><text style="&st18;" transform="matrix(&st17;  1143.61  420.19 )">L</text><text style="&st18;" transform="matrix(&st16;  1201.44  360.67 )">S25</text><text ewd:textID="28" style="&st18;" transform="matrix(&st16;  1201.44  367.78 )">Skid Control ECU with Actuator</text><text ewd:textID="17" style="&st18;" transform="matrix(&st17;  1196.02  565.22 )">Brake Pedal Load <tspan dy="6" x="-0.01">Sensing Switch</tspan></text><text style="&st18;" transform="matrix(&st17;  1188.91  565.22 )">B13</text><text style="&st18;" transform="matrix(&st16;  1213.7  602.62 )">1</text><text style="&st18;" transform="matrix(&st16;  1221.46  602.62 )">A</text><text style="&st18;" transform="matrix(&st16;  1212.92  628.68 )">3</text><text style="&st18;" transform="matrix(&st16;  1221.46  628.68 )">A</text><text style="&st18;" transform="matrix(&st16;  1278.83  340.86 )">TS</text><text style="&st18;" transform="matrix(&st16;  1272.54  329.54 )">33</text><text style="&st18;" transform="matrix(&st16;  1403.98  536.89 )">4</text><text style="&st18;" transform="matrix(&st16;  1403.98  491.01 )">3</text><text style="&st18;" transform="matrix(&st16;  1136.56  400.91 )">27</text><text style="&st18;" transform="matrix(&st16;  1137.49  389.02 )">FSW+</text><text style="&st18;" transform="matrix(&st16;  1141.3  570.88 )">1</text><text style="&st18;" transform="matrix(&st16;  1140.52  465.52 )">2</text><text style="&st18;" transform="matrix(&st16;  1448.95  169.48 )">2K</text><text style="&st18;" transform="matrix(&st16;  1440.57  169.48 )">4</text><text style="&st18;" transform="matrix(&st16;  1435.26  279.96 )">10</text><text style="&st18;" transform="matrix(&st16;  1442.51  329.54 )">28</text><text style="&st18;" transform="matrix(&st16;  1445.63  340.86 )">EXI3</text><text style="&st18;" transform="matrix(&st17;  1449.56  237.71 )">R-L</text><text style="&st18;" transform="matrix(&st17;  1449.56  310.06 )">V</text><text style="&st18;" transform="matrix(&st17;  1222.93  124.32 )">(A/T)</text><text style="&st18;" transform="matrix(&st17;  1222.93  166.81 )">(A/T)</text><text style="&st18;" transform="matrix(&st17;  1205.94  264.55 )">(A/T)</text><text style="&st18;" transform="matrix(&st17;  1146.45  256.05 )">(A/T)</text><text style="&st18;" transform="matrix(&st17;  1103.95  256.05 )">(A/T)</text><text style="&st18;" transform="matrix(&st17;  1103.95  315.54 )">(A/T)</text><text style="&st18;" transform="matrix(&st17;  1231.43  419.76 )">(*1)</text><text style="&st18;" transform="matrix(&st17;  1290.92  419.76 )">(*1)</text><text style="&st18;" transform="matrix(&st17;  1231.43  462.25 )">(*1)</text><text style="&st18;" transform="matrix(&st17;  1290.92  462.25 )">(*1)</text><text style="&st18;" transform="matrix(&st17;  1231.43  517.49 )">(*1)</text><text style="&st18;" transform="matrix(&st17;  1290.92  517.49 )">(*1)</text><text style="&st18;" transform="matrix(&st17;  1231.43  589.73 )">(*1)</text><text style="&st18;" transform="matrix(&st17;  1290.92  589.73 )">(*1)</text><text style="&st18;" transform="matrix(&st17;  1231.43  670.47 )">(*1)</text><text style="&st18;" transform="matrix(&st17;  1460.89  420.15 )">(*6)</text><text style="&st18;" transform="matrix(&st16;  1405.43  340.86 )">IG1</text><text style="&st18;" transform="matrix(&st16;  1400.02  329.54 )">34</text><text style="&st18;" transform="matrix(&st16;  1448.81  389.02 )">BZ</text><text style="&st18;" transform="matrix(&st16;  1402.6  389.02 )">CSW</text><text style="&st18;" transform="matrix(&st16;  1359.02  389.02 )">CANL</text><text style="&st18;" transform="matrix(&st16;  1324.53  389.02 )">CANH</text><text style="&st18;" transform="matrix(&st16;  1443.29  400.91 )">21</text><text style="&st18;" transform="matrix(&st16;  1400.02  400.91 )">30</text><text style="&st18;" transform="matrix(&st16;  1358.3  400.91 )">14</text><text style="&st18;" transform="matrix(&st16;  1323.53  400.91 )">25</text><text style="&st18;" transform="matrix(&st17;  1449.56  420.64 )">B-Y</text><text style="&st18;" transform="matrix(&st17;  1407.07  420.43 )">R-L</text><text style="&st18;" transform="matrix(&st17;  1364.58  417.32 )">W</text><text style="&st18;" transform="matrix(&st17;  1330.58  416.3 )">B</text><text style="&st18;" transform="matrix(&st16;  1393.55  441.43 )">11</text><text style="&st18;" transform="matrix(&st17;  1407.07  471.42 )">R-L</text><text ewd:textID="41" style="&st18;" transform="matrix(&st17;  1433.98  531.22 )">VSC OFF Switch</text><text style="&st18;" transform="matrix(&st17;  1426.87  531.22 )">V 5</text><text style="&st18;" transform="matrix(&st17;  1279.59  311.09 )">W</text><text style="&st18;" transform="matrix(&st17;  1279.59  234.6 )">W</text><text style="&st18;" transform="matrix(&st16;  1178.97  216.22 )">P</text><text style="&st18;" transform="matrix(&st16;  1193.98  199.22 )">PL</text><text style="&st18;" transform="matrix(&st16;  1210.49  199.22 )">RB</text><text style="&st18;" transform="matrix(&st16;  1232.6  53.34 )">10A <tspan dy="6" x="0">ECU-IG&amp; </tspan><tspan dy="6" x="0">GAUGE</tspan></text><text style="&st18;" transform="matrix(&st16;  1210.99  101.49 )">2S</text><text style="&st18;" transform="matrix(&st16;  1198.65  101.49 )">25</text><text style="&st18;" transform="matrix(&st16;  1209.22  32.08 )">(IG)</text><text style="&st18;" transform="matrix(&st16;  1200.48  143.98 )">2</text><text style="&st18;" transform="matrix(&st16;  1183.49  279.96 )">5</text><text style="&st18;" transform="matrix(&st16;  1081.5  279.96 )">7</text><text style="&st18;" transform="matrix(&st16;  1093.99  340.86 )">P</text><text style="&st18;" transform="matrix(&st16;  1085.57  329.54 )">32</text><text style="&st18;" transform="matrix(&st17;  1092.62  314.83 )">G-B</text><text style="&st18;" transform="matrix(&st17;  1092.62  255.34 )">G-B</text><text style="&st18;" transform="matrix(&st17;  1135.11  255.34 )">G-B</text><text style="&st18;" transform="matrix(&st17;  1211.6  122.98 )">R-L</text><text style="&st18;" transform="matrix(&st17;  1211.6  165.47 )">R-L</text><text style="&st18;" transform="matrix(&st17;  1194.6  263.84 )">G-B</text><text ewd:textID="22" style="&st18;" transform="matrix(&st17;  1119.53  225.27 )">Junction <tspan dy="6" x="0">Connector</tspan></text><text style="&st18;" transform="matrix(&st17;  1112.43  225.27 )">J49(A),J50(B)</text><text style="&st18;" transform="matrix(&st16;  1082.26  194.69 )">17</text><text style="&st18;" transform="matrix(&st16;  1093.99  194.69 )">A</text><text style="&st18;" transform="matrix(&st16;  1082.26  229.25 )">17</text><text style="&st18;" transform="matrix(&st16;  1093.99  229.25 )">B</text><text style="&st18;" transform="matrix(&st16;  1351.58  61.86 )">7.5A <tspan dy="6" x="0">ECU-IG </tspan><tspan dy="6" x="0">NO.2 (*19) </tspan><tspan dy="6" x="0">10A </tspan><tspan dy="6" x="0">ECU-IG </tspan><tspan dy="6" x="0">NO.2 (*20)</tspan></text><text style="&st18;" transform="matrix(&st16;  1332.69  118.49 )">1</text><text style="&st18;" transform="matrix(&st16;  1327.49  103.46 )">2</text><text style="&st18;" transform="matrix(&st16;  1328.2  49.08 )">(IG)</text><text style="&st18;" transform="matrix(&st16;  1293.2  288.46 )">(*8)</text><text style="&st18;" transform="matrix(&st16;  1293.2  279.96 )">(*7)</text><text style="&st18;" transform="matrix(&st16;  1265.29  288.46 )">10</text><text style="&st18;" transform="matrix(&st16;  1268.47  279.96 )">4</text><text style="&st18;" transform="matrix(&st17;  1418.4  237.43 )">(*7)</text><text style="&st18;" transform="matrix(&st17;  1330.58  237.71 )">R-L</text><text style="&st18;" transform="matrix(&st17;  1341.91  237.43 )">(*8)</text><text style="&st18;" transform="matrix(&st16;  1489.74  485.9 )">1</text><text style="&st18;" transform="matrix(&st16;  1488.96  440.02 )">2</text><text style="&st18;" transform="matrix(&st16;  1480.94  390.44 )">5</text><text style="&st18;" transform="matrix(&st16;  1480.94  534.92 )">9</text><text style="&st18;" transform="matrix(&st16;  1488.96  652.49 )">5</text><text style="&st18;" transform="matrix(&st17;  1492.05  276.07 )">V</text><text style="&st18;" transform="matrix(&st17;  1492.05  352.56 )">B</text><text style="&st18;" transform="matrix(&st17;  1492.05  420.55 )">B</text><text style="&st18;" transform="matrix(&st17;  1492.06  510.9 )">W-B</text><text style="&st18;" transform="matrix(&st17;  1492.06  642.63 )">W-B</text><text style="&st18;" transform="matrix(&st16;  1493.42  296.67 )">B</text><text style="&st18;" transform="matrix(&st16;  1484.87  296.67 )">4</text><text style="&st18;" transform="matrix(&st16;  1493.42  322.73 )">B</text><text style="&st18;" transform="matrix(&st16;  1484.87  322.73 )">3</text><text style="&st18;" transform="matrix(&st17;  1460.89  239.02 )">(*10)</text><text style="&st18;" transform="matrix(&st16;  1221.27  186.19 )">(*18)</text><text style="&st18;" transform="matrix(&st16;  1212.97  186.19 )">B</text><text style="&st18;" transform="matrix(&st16;  1204.42  186.19 )">2</text><text style="&st18;" transform="matrix(&st16;  1221.27  177.13 )">(*17)</text><text style="&st18;" transform="matrix(&st16;  1212.97  177.13 )">A</text><text style="&st18;" transform="matrix(&st16;  1204.42  177.13 )">2</text><text style="&st18;" transform="matrix(&st16;  1204.27  238.32 )">(*18)</text><text style="&st18;" transform="matrix(&st16;  1195.97  238.32 )">B</text><text style="&st18;" transform="matrix(&st16;  1187.42  238.32 )">6</text><text style="&st18;" transform="matrix(&st16;  1204.27  229.25 )">(*17)</text><text style="&st18;" transform="matrix(&st16;  1195.97  229.25 )">A</text><text style="&st18;" transform="matrix(&st16;  1187.42  229.25 )">6</text><text ewd:textID="24" style="&st18;" transform="matrix(&st17;  1163.44  225.27 )">Park/Neutral <tspan dy="6" x="0">Position SW</tspan></text><text style="&st18;" transform="matrix(&st17;  1156.34  225.27 )">N 1(A),N 4(B)</text></svg>