﻿<?xml version="1.0" encoding="utf-8"?>
<!DOCTYPE svg PUBLIC "-//W3C//DTD SVG 1.0//EN" "http://www.w3.org/TR/2001/REC-SVG-20010904/DTD/svg10.dtd"[
	<!ENTITY ns_flows "http://ns.adobe.com/Flows/1.0/">
	<!ENTITY ns_svg "http://www.w3.org/2000/svg">
	<!ENTITY ns_xlink "http://www.w3.org/1999/xlink">
	<!ENTITY st0 "font-size:7px;font-family:'MS-PGothic';adobe-font-script:japanese;">
	<!ENTITY st1 "font-size:6px;font-family:'ArialMT';">
	<!-- White fill  -->
	<!ENTITY st2 "fill:#FFFFFF;stroke:#000000; stroke-width:1.41;stroke-linecap:round;stroke-linejoin:round;">
	<!-- Yellow fill  -->
	<!ENTITY st3 "fill:#FFFFCC;stroke:#FFFFCC; stroke-width:0.1;stroke-linecap:round;stroke-linejoin:round;">
	<!-- Gray fill  -->
	<!ENTITY st4 "fill:#CCCCCC;stroke:#CCCCCC; stroke-width:0.1;stroke-linecap:round;stroke-linejoin:round;">
	<!-- Light-blue fill -->
	<!ENTITY st5 "fill:#CCECF4;stroke:#000000; stroke-width:1.133;stroke-linecap:round;stroke-linejoin:round;">
	<!ENTITY st6 "fill:none;stroke-linecap:butt; stroke-linejoin:round;">
	<!ENTITY st7 "fill:none;stroke:#000000;stroke-linecap:round;stroke-linejoin:round;">
	<!ENTITY st8 "enable-background:new    ;">
	<!-- Black fill -->
	<!ENTITY st9 "fill:#000000;stroke:#000000; stroke-linecap:round;stroke-linejoin:round;">
	<!-- SRS note   -->
	<!ENTITY st10 "font-size:9px;font-family:'ArialMT';">
	<!ENTITY st11 "font-size:9px;font-family:'Svg Symbol';">
	<!ENTITY st12 "font-size:6px;font-family:'Svg Symbol';">
	<!ENTITY st13 "fill:none;stroke:#ff0000;stroke-linecap:round;stroke-linejoin:round;">
	<!-- Yellow fill  -->
	<!ENTITY st14 "fill:#FFFF00;stroke:#FFFF00; stroke-width:0.1;stroke-linecap:round;stroke-linejoin:round;">
	<!ENTITY st15 "font-size:6px;font-family:'MS-PGothic';adobe-font-script:japanese;">
	<!ENTITY st16 "1.00 0.00 0.00 1.00">
	<!ENTITY st17 "0.00 -1.00 1.00 0.00">
	<!ENTITY st18 "font-size:6px;font-family:'Arial';">
	<!ENTITY st19 "font-size:9px;font-family:'Arial';">
	<!ENTITY st20 "font-size:6px;font-family:'MS-PGothic','MS PGothic';adobe-font-script:japanese;">
	<!ENTITY st21 "font-size:7px;font-family:'MS-PGothic','MS PGothic';adobe-font-script:japanese;">
	<!ATTLIST svg
		xmlns:ewd CDATA #FIXED "http://shcl.co.jp/ewd"
		xmlns:a CDATA #FIXED "http://ns.adobe.com/AdobeSVGViewerExtensions/3.0/"
		ewd:ver CDATA #IMPLIED
	>
	<!ATTLIST a
		ewd:lineID CDATA #IMPLIED
		ewd:groupID CDATA #IMPLIED
		ewd:figtype CDATA #IMPLIED
		ewd:code CDATA #IMPLIED
		ewd:figID CDATA #IMPLIED
		ewd:pinNo CDATA #IMPLIED
		ewd:comment CDATA #IMPLIED >
	<!ATTLIST g
		ewd:lineID CDATA #IMPLIED
		ewd:groupID CDATA #IMPLIED
		ewd:figtype CDATA #IMPLIED
		ewd:code CDATA #IMPLIED
		ewd:figID CDATA #IMPLIED
		ewd:pinNo CDATA #IMPLIED
		ewd:comment CDATA #IMPLIED >
	<!ATTLIST text
		ewd:textID CDATA #IMPLIED >
	<!ATTLIST title
		ewd:textID CDATA #IMPLIED >
]>
<!-- Generator: Shintec Hozumi YS   -->
<svg onload="call_execInitLoadProc_svg('system')" style="overflow:visible;  enable-background:new 0 0 3578.427 710.000" viewBox="0 0 3578.427 710.000" height="710.000" width="3578.427" xml:space="preserve" ewd:ver="L2.1.2.6" xmlns="&ns_svg;" xmlns:a="http://ns.adobe.com/AdobeSVGViewerExtensions/3.0/" xmlns:ewd="http://shcl.co.jp/ewd" xmlns:xlink="&ns_xlink;">
<path d=" M 1863.31,  163.26  L 1859.06,  163.26 " style="stroke-width: 1.42 ;&st7; " /><path d=" M 1863.31,  188.75  L 1859.06,  188.75 " style="stroke-width: 1.42 ;&st7; " /><path d=" M 1863.31,  197.25  L 1859.06,  197.25 " style="stroke-width: 1.42 ;&st7; " /><path d=" M 1761.33,  163.26  L 1757.08,  163.26 " style="stroke-width: 1.42 ;&st7; " /><path d=" M 1761.33,  171.76  L 1757.08,  171.76 " style="stroke-width: 1.42 ;&st7; " /><path d=" M 1761.33,  120.77  L 1757.08,  120.77 " style="stroke-width: 1.42 ;&st7; " /><path d=" M 1761.33,  129.26  L 1757.08,  129.26 " style="stroke-width: 1.42 ;&st7; " /><path d=" M 1597.73,  452.21  L 1606.23,  452.21 " style="stroke-width: 1.42 ;&st7; " /><path d=" M 1963.17,  443.71  L 1971.67,  443.71 " style="stroke-width: 1.42 ;&st7; " /><path d=" M 1861.19,  103.77  L 1861.19,  129.26 " style="stroke-width: 0.85 ;&st7; " /><path d=" M 1863.31,  129.26  L 1859.06,  129.26 " style="stroke-width: 1.42 ;&st7; " /><path d=" M 1863.31,  137.76  L 1859.06,  137.76 " style="stroke-width: 1.42 ;&st7; " /><path d=" M 1608.36,  163.26  L 1604.11,  163.26 " style="stroke-width: 1.42 ;&st7; " /><path d=" M 1608.36,  171.76  L 1604.11,  171.76 " style="stroke-width: 1.42 ;&st7; " /><path d=" M 1863.31,  154.76  L 1859.06,  154.76 " style="stroke-width: 1.42 ;&st7; " /><path d=" M 1920.68,  656.18  L 1920.68,  673.17  L 1937.68,  673.17  L 1937.68,  656.18  L 1920.68,  656.18 " style="stroke-width: 1.42 ;&st7; " /><path d=" M 1929.18,  656.18  L 1929.18,  681.67 " style="stroke-width: 0.85 ;&st7; " /><path d=" M 1895.18,  333.23  L 1895.18,  384.22  L 2031.16,  384.22  L 2031.16,  333.23  L 1895.18,  333.23 " style="stroke-width: 1.42 ;&st7; " /><path d=" M 1861.19,  282.24  L 1861.19,  256.74 " style="stroke-width: 0.85 ;&st7; " /><path d=" M 1869.69,  273.74  L 1852.69,  273.74 " style="stroke-width: 1.13 ;&st7;stroke-dasharray:3, 1.5;" /><path d=" M 1869.69,  265.24  L 1852.69,  265.24 " style="stroke-width: 1.13 ;&st7;stroke-dasharray:3, 1.5;" /><path d=" M 1852.69,  256.74  L 1869.69,  256.74  L 1869.69,  282.24  L 1852.69,  282.24  L 1852.69,  256.74 " style="stroke-width: 1.42 ;&st7; " /><path d=" M 1716.71,  697.25  L 1716.71,  701.50 " style="stroke-width: 0.85 ;&st7; " /><path d=" M 1716.71,  571.19  L 1716.71,  545.69 " style="stroke-width: 0.85 ;&st7; " /><path d=" M 1725.21,  562.69  L 1708.21,  562.69 " style="stroke-width: 1.13 ;&st7;stroke-dasharray:3, 1.5;" /><path d=" M 1725.21,  554.19  L 1708.21,  554.19 " style="stroke-width: 1.13 ;&st7;stroke-dasharray:3, 1.5;" /><path d=" M 1708.21,  545.69  L 1725.21,  545.69  L 1725.21,  571.19  L 1708.21,  571.19  L 1708.21,  545.69 " style="stroke-width: 1.42 ;&st7; " /><path d=" M 1708.21,  469.21  L 1767.70,  469.21 " style="stroke-width: 1.13 ;&st7;stroke-dasharray:3, 1.5;" /><path d=" M 1708.21,  452.21  L 1767.70,  452.21 " style="stroke-width: 1.13 ;&st7;stroke-dasharray:3, 1.5;" /><path d=" M 1716.71,  477.71  L 1716.71,  460.71  L 1759.21,  460.71 " style="stroke-width: 0.85 ;&st7; " /><path d=" M 1759.21,  443.71  L 1759.21,  477.71 " style="stroke-width: 0.85 ;&st7; " /><path d=" M 1606.23,  158.36  L 1603.40,  155.53  L 1603.40,  159.78  L 1606.23,  162.61  L 1609.06,  159.78  L 1609.06,  155.53  L 1606.23,  158.36 " style="stroke-width: 0.28 ;&st9;" /><path d=" M 1742.21,  333.23  L 1742.21,  384.22  L 1878.19,  384.22  L 1878.19,  333.23  L 1742.21,  333.23 " style="stroke-width: 1.42 ;&st7; " /><path d=" M 1708.21,  443.71  L 1708.21,  477.71  L 1767.70,  477.71  L 1767.70,  443.71  L 1708.21,  443.71 " style="stroke-width: 1.42 ;&st7; " /><path d=" M 1623.23,  367.22  L 1623.23,  333.23  L 1589.23,  333.23  L 1589.23,  367.22  L 1623.23,  367.22 " style="stroke-width: 1.42 ;&st7; " /><path d=" M 1848.44,   69.77  L 1848.44,  112.27  L 1873.94,  112.27  L 1873.94,   69.77  L 1848.44,   69.77 " style="stroke-width: 1.42 ;&st7; " /><path d=" M 1861.19,  168.15  L 1864.02,  170.99  L 1864.02,  166.74  L 1861.19,  163.90  L 1858.36,  166.74  L 1858.36,  170.99  L 1861.19,  168.15 " style="stroke-width: 0.28 ;&st9;" /><path d=" M 1708.21,  701.50  L 1725.21,  701.50 " style="stroke-width: 0.85 ;&st7; " /><path d=" M 1861.19,  124.37  L 1858.36,  121.54  L 1858.36,  125.79  L 1861.19,  128.62  L 1864.02,  125.79  L 1864.02,  121.54  L 1861.19,  124.37 " style="stroke-width: 0.28 ;&st9;" /><path d=" M 1861.19,  183.86  L 1858.36,  181.03  L 1858.36,  185.28  L 1861.19,  188.11  L 1864.02,  185.28  L 1864.02,  181.03  L 1861.19,  183.86 " style="stroke-width: 0.28 ;&st9;" /><path d=" M 1861.19,  188.75  L 1861.19,  163.26 " style="stroke-width: 0.85 ;&st7; " /><path d=" M 1712.46,  704.33  L 1720.96,  704.33 " style="stroke-width: 0.85 ;&st7; " /><path d=" M 1713.88,  707.17  L 1719.55,  707.17 " style="stroke-width: 0.85 ;&st7; " /><path d=" M 1715.30,  710.00  L 1718.13,  710.00 " style="stroke-width: 0.85 ;&st7; " /><path d=" M 1929.18,  697.25  L 1929.18,  701.50 " style="stroke-width: 0.85 ;&st7; " /><path d=" M 1920.68,  701.50  L 1937.68,  701.50 " style="stroke-width: 0.85 ;&st7; " /><path d=" M 1924.93,  704.33  L 1933.43,  704.33 " style="stroke-width: 0.85 ;&st7; " /><path d=" M 1926.34,  707.17  L 1932.01,  707.17 " style="stroke-width: 0.85 ;&st7; " /><path d=" M 1927.76,  710.00  L 1930.59,  710.00 " style="stroke-width: 0.85 ;&st7; " /><path d=" M 1759.21,  158.36  L 1756.37,  155.53  L 1756.37,  159.78  L 1759.21,  162.61  L 1762.04,  159.78  L 1762.04,  155.53  L 1759.21,  158.36 " style="stroke-width: 0.28 ;&st9;" /><path d=" M 1606.23,  163.26  L 1606.23,  146.26 " style="stroke-width: 0.85 ;&st7; " /><path d=" M 1759.21,  134.16  L 1762.04,  136.99  L 1762.04,  132.74  L 1759.21,  129.91  L 1756.37,  132.74  L 1756.37,  136.99  L 1759.21,  134.16 " style="stroke-width: 0.28 ;&st9;" /><path d=" M 1759.21,  163.26  L 1759.21,  129.26 " style="stroke-width: 0.85 ;&st7; " /><path d=" M 1605.04,  145.26  L 1604.77,  145.73  L 1604.67,  146.26  L 1604.77,  146.79  L 1605.04,  147.26  L 1605.45,  147.61  L 1605.96,  147.80  L 1606.50,  147.80  L 1607.01,  147.61  L 1607.42,  147.26  L 1607.70,  146.79  L 1607.79,  146.26  L 1607.70,  145.73  L 1607.42,  145.26  L 1607.01,  144.91  L 1606.50,  144.73  L 1605.96,  144.73  L 1605.45,  144.91  L 1605.04,  145.26  L 1605.43,  145.97  L 1605.43,  146.55  L 1605.81,  147.00  L 1606.38,  147.10  L 1606.88,  146.81  L 1607.08,  146.26  L 1606.88,  145.71  L 1606.38,  145.43  L 1605.81,  145.52  L 1606.23,  146.26 " style="stroke-width: 0.85 ;&st7; " /><path d=" M 1758.01,  145.26  L 1757.74,  145.73  L 1757.65,  146.26  L 1757.74,  146.79  L 1758.01,  147.26  L 1758.43,  147.61  L 1758.93,  147.80  L 1759.48,  147.80  L 1759.98,  147.61  L 1760.40,  147.26  L 1760.67,  146.79  L 1760.76,  146.26  L 1760.67,  145.73  L 1760.40,  145.26  L 1759.98,  144.91  L 1759.48,  144.73  L 1758.93,  144.73  L 1758.43,  144.91  L 1758.01,  145.26  L 1758.41,  145.97  L 1758.41,  146.55  L 1758.78,  147.00  L 1759.35,  147.10  L 1759.86,  146.81  L 1760.06,  146.26  L 1759.86,  145.71  L 1759.35,  145.43  L 1758.78,  145.52  L 1759.21,  146.26 " style="stroke-width: 0.85 ;&st7; " /><path d=" M 1601.98,  443.14  L 1606.23,  447.39  L 1610.48,  443.14 " style="stroke-width: 1.42 ;&st7; " /><path d=" M 1610.48,  446.54  L 1606.23,  450.79  L 1601.98,  446.54 " style="stroke-width: 1.42 ;&st7; " /><path d=" M 1758.01,  459.71  L 1757.74,  460.18  L 1757.65,  460.71  L 1757.74,  461.24  L 1758.01,  461.71  L 1758.43,  462.06  L 1758.93,  462.24  L 1759.48,  462.24  L 1759.98,  462.06  L 1760.40,  461.71  L 1760.67,  461.24  L 1760.76,  460.71  L 1760.67,  460.18  L 1760.40,  459.71  L 1759.98,  459.36  L 1759.48,  459.17  L 1758.93,  459.17  L 1758.43,  459.36  L 1758.01,  459.71  L 1758.41,  460.42  L 1758.41,  461.00  L 1758.78,  461.44  L 1759.35,  461.54  L 1759.86,  461.26  L 1760.06,  460.71  L 1759.86,  460.16  L 1759.35,  459.87  L 1758.78,  459.97  L 1759.21,  460.71 " style="stroke-width: 0.85 ;&st7; " /><path d=" M 1631.73,  469.21  L 1674.22,  469.21 " style="stroke-width: 1.13 ;&st7;stroke-dasharray:3, 1.5;" /><path d=" M 1631.73,  452.21  L 1674.22,  452.21 " style="stroke-width: 1.13 ;&st7;stroke-dasharray:3, 1.5;" /><path d=" M 1640.23,  477.71  L 1640.23,  460.71  L 1665.72,  460.71 " style="stroke-width: 0.85 ;&st7; " /><path d=" M 1665.72,  443.71  L 1665.72,  477.71 " style="stroke-width: 0.85 ;&st7; " /><path d=" M 1631.73,  443.71  L 1631.73,  477.71  L 1674.22,  477.71  L 1674.22,  443.71  L 1631.73,  443.71 " style="stroke-width: 1.42 ;&st7; " /><path d=" M 1664.53,  459.71  L 1664.26,  460.18  L 1664.16,  460.71  L 1664.26,  461.24  L 1664.53,  461.71  L 1664.94,  462.06  L 1665.45,  462.24  L 1665.99,  462.24  L 1666.50,  462.06  L 1666.91,  461.71  L 1667.19,  461.24  L 1667.28,  460.71  L 1667.19,  460.18  L 1666.91,  459.71  L 1666.50,  459.36  L 1665.99,  459.17  L 1665.45,  459.17  L 1664.94,  459.36  L 1664.53,  459.71  L 1664.92,  460.42  L 1664.92,  461.00  L 1665.30,  461.44  L 1665.87,  461.54  L 1666.37,  461.26  L 1666.57,  460.71  L 1666.37,  460.16  L 1665.87,  459.87  L 1665.30,  459.97  L 1665.72,  460.71 " style="stroke-width: 0.85 ;&st7; " /><path d=" M 1967.42,  434.65  L 1971.67,  438.90  L 1975.92,  434.65 " style="stroke-width: 1.42 ;&st7; " /><path d=" M 1975.92,  438.05  L 1971.67,  442.29  L 1967.42,  438.05 " style="stroke-width: 1.42 ;&st7; " /><path d=" M 1861.19,   81.11  C 1858.45    82.72  1857.54    86.25  1859.15    88.98 " style="stroke-width: 1.42 ;&st7; " /><path d=" M 1859.15,   88.98  C 1859.67    89.87  1860.31    90.50  1861.19    91.02 " style="stroke-width: 1.42 ;&st7; " /><path d=" M 1861.19,  100.94  C 1863.93    99.32  1864.84    95.79  1863.23    93.06 " style="stroke-width: 1.42 ;&st7; " /><path d=" M 1863.23,   93.06  C 1862.71    92.17  1862.07    91.54  1861.19    91.02 " style="stroke-width: 1.42 ;&st7; " /><path d=" M 1862.61,   79.69  C 1862.61    78.91  1861.97    78.27  1861.19    78.27 " style="stroke-width: 0.85 ;&st7; " /><path d=" M 1861.19,   78.27  C 1860.41    78.27  1859.77    78.91  1859.77    79.69 " style="stroke-width: 0.85 ;&st7; " /><path d=" M 1859.77,   79.69  C 1859.77    80.47  1860.41    81.11  1861.19    81.11 " style="stroke-width: 0.85 ;&st7; " /><path d=" M 1861.19,   81.11  C 1861.97    81.11  1862.61    80.47  1862.61    79.69 " style="stroke-width: 0.85 ;&st7; " /><path d=" M 1862.61,  102.35  C 1862.61   101.57  1861.97   100.94  1861.19   100.94 " style="stroke-width: 0.85 ;&st7; " /><path d=" M 1861.19,  100.94  C 1860.41   100.94  1859.77   101.57  1859.77   102.35 " style="stroke-width: 0.85 ;&st7; " /><path d=" M 1859.77,  102.35  C 1859.77   103.13  1860.41   103.77  1861.19   103.77 " style="stroke-width: 0.85 ;&st7; " /><path d=" M 1861.19,  103.77  C 1861.97   103.77  1862.61   103.13  1862.61   102.35 " style="stroke-width: 0.85 ;&st7; " /><path d=" M 1859.06,  129.26  C 1856.72   129.26  1854.82   131.17  1854.82   133.51 " style="stroke-width: 1.42 ;&st7; " /><path d=" M 1854.82,  133.51  C 1854.82   135.86  1856.72   137.76  1859.06   137.76 " style="stroke-width: 1.42 ;&st7; " /><path d=" M 1863.31,  137.76  C 1865.66   137.76  1867.56   135.86  1867.56   133.51 " style="stroke-width: 1.42 ;&st7; " /><path d=" M 1867.56,  133.51  C 1867.56   131.17  1865.66   129.26  1863.31   129.26 " style="stroke-width: 1.42 ;&st7; " /><path d=" M 1604.11,  163.26  C 1601.76   163.26  1599.86   165.16  1599.86   167.51 " style="stroke-width: 1.42 ;&st7; " /><path d=" M 1599.86,  167.51  C 1599.86   169.85  1601.76   171.76  1604.11   171.76 " style="stroke-width: 1.42 ;&st7; " /><path d=" M 1608.36,  171.76  C 1610.70   171.76  1612.61   169.85  1612.61   167.51 " style="stroke-width: 1.42 ;&st7; " /><path d=" M 1612.61,  167.51  C 1612.61   165.16  1610.70   163.26  1608.36   163.26 " style="stroke-width: 1.42 ;&st7; " /><path d=" M 1859.06,  154.76  C 1856.72   154.76  1854.82   156.66  1854.82   159.01 " style="stroke-width: 1.42 ;&st7; " /><path d=" M 1854.82,  159.01  C 1854.82   161.36  1856.72   163.26  1859.06   163.26 " style="stroke-width: 1.42 ;&st7; " /><path d=" M 1863.31,  163.26  C 1865.66   163.26  1867.56   161.36  1867.56   159.01 " style="stroke-width: 1.42 ;&st7; " /><path d=" M 1867.56,  159.01  C 1867.56   156.66  1865.66   154.76  1863.31   154.76 " style="stroke-width: 1.42 ;&st7; " /><path d=" M 1859.06,  188.75  C 1856.72   188.75  1854.82   190.66  1854.82   193.00 " style="stroke-width: 1.42 ;&st7; " /><path d=" M 1854.82,  193.00  C 1854.82   195.35  1856.72   197.25  1859.06   197.25 " style="stroke-width: 1.42 ;&st7; " /><path d=" M 1863.31,  197.25  C 1865.66   197.25  1867.56   195.35  1867.56   193.00 " style="stroke-width: 1.42 ;&st7; " /><path d=" M 1867.56,  193.00  C 1867.56   190.66  1865.66   188.75  1863.31   188.75 " style="stroke-width: 1.42 ;&st7; " /><path d=" M 1757.08,  163.26  C 1754.73   163.26  1752.83   165.16  1752.83   167.51 " style="stroke-width: 1.42 ;&st7; " /><path d=" M 1752.83,  167.51  C 1752.83   169.85  1754.73   171.76  1757.08   171.76 " style="stroke-width: 1.42 ;&st7; " /><path d=" M 1761.33,  171.76  C 1763.68   171.76  1765.58   169.85  1765.58   167.51 " style="stroke-width: 1.42 ;&st7; " /><path d=" M 1765.58,  167.51  C 1765.58   165.16  1763.68   163.26  1761.33   163.26 " style="stroke-width: 1.42 ;&st7; " /><path d=" M 1757.08,  120.77  C 1754.73   120.77  1752.83   122.67  1752.83   125.01 " style="stroke-width: 1.42 ;&st7; " /><path d=" M 1752.83,  125.01  C 1752.83   127.36  1754.73   129.26  1757.08   129.26 " style="stroke-width: 1.42 ;&st7; " /><path d=" M 1761.33,  129.26  C 1763.68   129.26  1765.58   127.36  1765.58   125.01 " style="stroke-width: 1.42 ;&st7; " /><path d=" M 1765.58,  125.01  C 1765.58   122.67  1763.68   120.77  1761.33   120.77 " style="stroke-width: 1.42 ;&st7; " /><path d=" M 1721.25,  541.16  C 1721.25   538.66  1719.22   536.63  1716.71   536.63 " style="stroke-width: 1.42 ;&st7; " /><path d=" M 1716.71,  536.63  C 1714.21   536.63  1712.18   538.66  1712.18   541.16 " style="stroke-width: 1.42 ;&st7; " /><path d=" M 1712.18,  541.16  C 1712.18   543.66  1714.21   545.69  1716.71   545.69 " style="stroke-width: 1.42 ;&st7; " /><path d=" M 1716.71,  545.69  C 1719.22   545.69  1721.25   543.66  1721.25   541.16 " style="stroke-width: 1.42 ;&st7; " /><path d=" M 1721.25,  575.72  C 1721.25   573.22  1719.22   571.19  1716.71   571.19 " style="stroke-width: 1.42 ;&st7; " /><path d=" M 1716.71,  571.19  C 1714.21   571.19  1712.18   573.22  1712.18   575.72 " style="stroke-width: 1.42 ;&st7; " /><path d=" M 1712.18,  575.72  C 1712.18   578.23  1714.21   580.26  1716.71   580.26 " style="stroke-width: 1.42 ;&st7; " /><path d=" M 1716.71,  580.26  C 1719.22   580.26  1721.25   578.23  1721.25   575.72 " style="stroke-width: 1.42 ;&st7; " /><path d=" M 1721.25,  482.24  C 1721.25   479.73  1719.22   477.71  1716.71   477.71 " style="stroke-width: 1.42 ;&st7; " /><path d=" M 1716.71,  477.71  C 1714.21   477.71  1712.18   479.73  1712.18   482.24 " style="stroke-width: 1.42 ;&st7; " /><path d=" M 1712.18,  482.24  C 1712.18   484.74  1714.21   486.77  1716.71   486.77 " style="stroke-width: 1.42 ;&st7; " /><path d=" M 1716.71,  486.77  C 1719.22   486.77  1721.25   484.74  1721.25   482.24 " style="stroke-width: 1.42 ;&st7; " /><path d=" M 1763.74,  482.24  C 1763.74   479.73  1761.71   477.71  1759.21   477.71 " style="stroke-width: 1.42 ;&st7; " /><path d=" M 1759.21,  477.71  C 1756.70   477.71  1754.67   479.73  1754.67   482.24 " style="stroke-width: 1.42 ;&st7; " /><path d=" M 1754.67,  482.24  C 1754.67   484.74  1756.70   486.77  1759.21   486.77 " style="stroke-width: 1.42 ;&st7; " /><path d=" M 1759.21,  486.77  C 1761.71   486.77  1763.74   484.74  1763.74   482.24 " style="stroke-width: 1.42 ;&st7; " /><path d=" M 1763.74,  439.18  C 1763.74   436.68  1761.71   434.65  1759.21   434.65 " style="stroke-width: 1.42 ;&st7; " /><path d=" M 1759.21,  434.65  C 1756.70   434.65  1754.67   436.68  1754.67   439.18 " style="stroke-width: 1.42 ;&st7; " /><path d=" M 1754.67,  439.18  C 1754.67   441.68  1756.70   443.71  1759.21   443.71 " style="stroke-width: 1.42 ;&st7; " /><path d=" M 1759.21,  443.71  C 1761.71   443.71  1763.74   441.68  1763.74   439.18 " style="stroke-width: 1.42 ;&st7; " /><path d=" M 1865.72,  252.21  C 1865.72   249.71  1863.69   247.68  1861.19   247.68 " style="stroke-width: 1.42 ;&st7; " /><path d=" M 1861.19,  247.68  C 1858.69   247.68  1856.66   249.71  1856.66   252.21 " style="stroke-width: 1.42 ;&st7; " /><path d=" M 1856.66,  252.21  C 1856.66   254.71  1858.69   256.74  1861.19   256.74 " style="stroke-width: 1.42 ;&st7; " /><path d=" M 1861.19,  256.74  C 1863.69   256.74  1865.72   254.71  1865.72   252.21 " style="stroke-width: 1.42 ;&st7; " /><path d=" M 1865.72,  286.77  C 1865.72   284.27  1863.69   282.24  1861.19   282.24 " style="stroke-width: 1.42 ;&st7; " /><path d=" M 1861.19,  282.24  C 1858.69   282.24  1856.66   284.27  1856.66   286.77 " style="stroke-width: 1.42 ;&st7; " /><path d=" M 1856.66,  286.77  C 1856.66   289.27  1858.69   291.30  1861.19   291.30 " style="stroke-width: 1.42 ;&st7; " /><path d=" M 1861.19,  291.30  C 1863.69   291.30  1865.72   289.27  1865.72   286.77 " style="stroke-width: 1.42 ;&st7; " /><path d=" M 1500.28,  294.70  C 1500.28   292.20  1498.25   290.17  1495.75   290.17 " style="stroke-width: 1.42 ;&st7; " /><path d=" M 1500.28,  320.77  C 1500.28   318.26  1498.25   316.23  1495.75   316.23 " style="stroke-width: 1.42 ;&st7; " /><path d=" M 1670.25,  482.24  C 1670.25   479.73  1668.22   477.71  1665.72   477.71 " style="stroke-width: 1.42 ;&st7; " /><path d=" M 1665.72,  477.71  C 1663.22   477.71  1661.19   479.73  1661.19   482.24 " style="stroke-width: 1.42 ;&st7; " /><path d=" M 1661.19,  482.24  C 1661.19   484.74  1663.22   486.77  1665.72   486.77 " style="stroke-width: 1.42 ;&st7; " /><path d=" M 1665.72,  486.77  C 1668.22   486.77  1670.25   484.74  1670.25   482.24 " style="stroke-width: 1.42 ;&st7; " /><path d=" M 1670.25,  439.18  C 1670.25   436.68  1668.22   434.65  1665.72   434.65 " style="stroke-width: 1.42 ;&st7; " /><path d=" M 1665.72,  434.65  C 1663.22   434.65  1661.19   436.68  1661.19   439.18 " style="stroke-width: 1.42 ;&st7; " /><path d=" M 1661.19,  439.18  C 1661.19   441.68  1663.22   443.71  1665.72   443.71 " style="stroke-width: 1.42 ;&st7; " /><path d=" M 1665.72,  443.71  C 1668.22   443.71  1670.25   441.68  1670.25   439.18 " style="stroke-width: 1.42 ;&st7; " /><path d=" M 1644.76,  482.24  C 1644.76   479.73  1642.73   477.71  1640.23   477.71 " style="stroke-width: 1.42 ;&st7; " /><path d=" M 1640.23,  477.71  C 1637.72   477.71  1635.69   479.73  1635.69   482.24 " style="stroke-width: 1.42 ;&st7; " /><path d=" M 1635.69,  482.24  C 1635.69   484.74  1637.72   486.77  1640.23   486.77 " style="stroke-width: 1.42 ;&st7; " /><path d=" M 1640.23,  486.77  C 1642.73   486.77  1644.76   484.74  1644.76   482.24 " style="stroke-width: 1.42 ;&st7; " /><text style="&st18;" transform="matrix(&st16;  1878.49  90.16 )">10A <tspan dy="6" x="0">ECU-B</tspan></text><text style="&st18;" transform="matrix(&st16;  1859.6  135.48 )">1</text><text style="&st18;" transform="matrix(&st16;  1854.4  120.46 )">2</text><text style="&st18;" transform="matrix(&st16;  1852.08  66.08 )">(BAT)</text><text style="&st18;" transform="matrix(&st16;  1601.78  169.48 )">2R</text><text style="&st18;" transform="matrix(&st16;  1593.54  169.48 )">9</text><text style="&st18;" transform="matrix(&st16;  1857.23  160.98 )">2L</text><text style="&st18;" transform="matrix(&st16;  1845.32  160.98 )">12</text><text style="&st18;" transform="matrix(&st16;  1856.88  194.97 )">2S</text><text style="&st18;" transform="matrix(&st16;  1844.54  194.97 )">29</text><text style="&st18;" transform="matrix(&st16;  1754.76  169.48 )">2R</text><text style="&st18;" transform="matrix(&st16;  1743.34  169.48 )">16</text><text style="&st18;" transform="matrix(&st16;  1754.9  126.98 )">2K</text><text style="&st18;" transform="matrix(&st16;  1743.34  126.98 )">14</text><text style="&st18;" transform="matrix(&st16;  1752.42  392.41 )">2</text><text style="&st18;" transform="matrix(&st16;  1820.41  392.41 )">3</text><text style="&st18;" transform="matrix(&st16;  1854.4  392.41 )">4</text><text style="&st18;" transform="matrix(&st16;  1854.4  329.54 )">6</text><text style="&st18;" transform="matrix(&st16;  1854.41  340.86 )">BAT</text><text style="&st18;" transform="matrix(&st16;  1923.17  392.41 )">1</text><text style="&st18;" transform="matrix(&st16;  1964.88  392.41 )">2</text><text style="&st18;" transform="matrix(&st16;  1905.39  329.54 )">4</text><text style="&st18;" transform="matrix(&st16;  1921.48  380.52 )">GND</text><text style="&st18;" transform="matrix(&st16;  1962.42  380.52 )">CANL</text><text style="&st18;" transform="matrix(&st16;  1908.44  340.86 )">IG</text><text style="&st18;" transform="matrix(&st16;  1940.82  659.54 )">J34</text><text ewd:textID="22" style="&st18;" transform="matrix(&st16;  1940.82  666.64 )">Junction <tspan dy="6" x="0">Connector</tspan></text><text style="&st18;" transform="matrix(&st16;  1922.39  652.49 )">5</text><text ewd:textID="2" style="&st18;" transform="matrix(&st16;  1918.15  37.75 )">* 1 :w/ Center Differential Lock System</text><text ewd:textID="4" style="&st18;" transform="matrix(&st16;  1918.15  54.75 )">* 3 :From Aug. 2009 Production</text><text ewd:textID="3" style="&st18;" transform="matrix(&st16;  1918.15  46.25 )">* 2 :Before Aug. 2009 Production</text><text style="&st18;" transform="matrix(&st17;  1857.49  310.06 )">B</text><text style="&st18;" transform="matrix(&st17;  1868.83  313.91 )">(*2)</text><text style="&st18;" transform="matrix(&st17;  1857.49  233.32 )">L-Y</text><text style="&st18;" transform="matrix(&st17;  1868.83  233.18 )">(*2)</text><text style="&st18;" transform="matrix(&st17;  1823.5  250.57 )">B</text><text style="&st18;" transform="matrix(&st17;  1834.83  254.42 )">(*3)</text><text ewd:textID="5" style="&st18;" transform="matrix(&st16;  1918.15  63.24 )">* 6 :Before Aug. 2010 Production</text><text style="&st18;" transform="matrix(&st17;  1613.87  424.4 )">(*6)</text><text style="&st18;" transform="matrix(&st17;  1613.87  509.38 )">(*6)</text><text style="&st18;" transform="matrix(&st17;  1602.54  250.72 )">R</text><text style="&st18;" transform="matrix(&st17;  1755.51  254.92 )">B-Y</text><text style="&st18;" transform="matrix(&st16;  1755.46  340.86 )">IG</text><text style="&st18;" transform="matrix(&st16;  1600.9  340.86 )">IG1</text><text style="&st18;" transform="matrix(&st16;  1752.42  329.54 )">5</text><text style="&st18;" transform="matrix(&st16;  1599.44  329.54 )">2</text><text ewd:textID="27" style="&st18;" transform="matrix(&st17;  1637.95  369.75 )">Skid Control <tspan dy="6" x="0">Buzzer Assembly</tspan></text><text style="&st18;" transform="matrix(&st17;  1630.84  369.75 )">S26</text><text style="&st18;" transform="matrix(&st16;  1600.22  375.42 )">1</text><text style="&st18;" transform="matrix(&st16;  1601.78  363.53 )">BZ</text><text style="&st18;" transform="matrix(&st17;  1602.54  424.89 )">B-Y</text><text style="&st18;" transform="matrix(&st17;  1602.54  509.88 )">B-Y</text><text style="&st18;" transform="matrix(&st16;  1587.46  458.43 )">22</text><text style="&st18;" transform="matrix(&st17;  1755.51  510.9 )">W-B</text><text style="&st18;" transform="matrix(&st17;  1713.02  510.9 )">W-B</text><text style="&st18;" transform="matrix(&st17;  1713.02  668.12 )">W-B</text><text style="&st18;" transform="matrix(&st16;  1705.84  543.13 )">7</text><text style="&st18;" transform="matrix(&st16;  1714.38  543.13 )">A</text><text style="&st18;" transform="matrix(&st16;  1702.66  577.69 )">12</text><text style="&st18;" transform="matrix(&st16;  1714.38  577.69 )">B</text><text ewd:textID="22" style="&st18;" transform="matrix(&st17;  1739.93  573.71 )">Junction <tspan dy="6" x="0">Connector</tspan></text><text style="&st18;" transform="matrix(&st17;  1732.82  573.71 )">J26(A),J27(B)</text><text style="&st18;" transform="matrix(&st16;  1705.84  484.21 )">9</text><text style="&st18;" transform="matrix(&st16;  1714.38  484.21 )">A</text><text style="&st18;" transform="matrix(&st16;  1748.33  484.21 )">8</text><text style="&st18;" transform="matrix(&st16;  1756.87  484.21 )">A</text><text style="&st18;" transform="matrix(&st16;  1745.93  441.15 )">11</text><text style="&st18;" transform="matrix(&st16;  1756.87  441.15 )">B</text><text style="&st18;" transform="matrix(&st17;  1823.5  420.69 )">R</text><text style="&st18;" transform="matrix(&st17;  1857.49  421.57 )">W</text><text style="&st18;" transform="matrix(&st17;  1755.51  425.92 )">W-B</text><text ewd:textID="22" style="&st18;" transform="matrix(&st17;  1782.42  480.23 )">Junction <tspan dy="6" x="0">Connector</tspan></text><text style="&st18;" transform="matrix(&st17;  1775.32  480.23 )">J47(A),J48(B)</text><text style="&st18;" transform="matrix(&st16;  1851.44  380.52 )">CANH</text><text style="&st18;" transform="matrix(&st16;  1817.94  380.52 )">CANL</text><text style="&st18;" transform="matrix(&st16;  1752.21  380.52 )">ESS</text><text style="&st18;" transform="matrix(&st17;  1857.49  148.24 )">L</text><text style="&st18;" transform="matrix(&st16;  1847.13  254.18 )">10</text><text style="&st18;" transform="matrix(&st16;  1858.86  254.18 )">A</text><text style="&st18;" transform="matrix(&st16;  1850.31  288.74 )">2</text><text style="&st18;" transform="matrix(&st16;  1858.86  288.74 )">B</text><text ewd:textID="22" style="&st18;" transform="matrix(&st17;  1884.41  284.76 )">Junction <tspan dy="6" x="0">Connector</tspan></text><text style="&st18;" transform="matrix(&st17;  1877.3  284.76 )">J49(A),J50(B)</text><text style="&st18;" transform="matrix(&st17;  1908.48  310.06 )">B</text><text ewd:textID="34" style="&st18;" transform="matrix(&st16;  1773.68  329.53 )">Steering Sensor</text><text style="&st18;" transform="matrix(&st16;  1773.68  322.43 )">S23</text><text ewd:textID="42" style="&st18;" transform="matrix(&st16;  1952.15  323.58 )">Yaw Rate Sensor <tspan dy="6" x="0">Assembly</tspan></text><text style="&st18;" transform="matrix(&st16;  1952.15  316.48 )">Y 1</text><text style="&st18;" transform="matrix(&st17;  1925.48  425.92 )">W-B</text><text style="&st18;" transform="matrix(&st17;  1967.97  421.57 )">W</text><text style="&st18;" transform="matrix(&st17;  1755.51  89.1 )">B</text><text style="&st18;" transform="matrix(&st16;  1516.89  550.5 )">B-Y(*6)</text><text style="&st18;" transform="matrix(&st16;  1515.86  584.49 )">W-B(*7)</text><text style="&st18;" transform="matrix(&st16;  1526.39  601.49 )">W</text><text style="&st18;" transform="matrix(&st16;  1527.41  618.48 )">B</text><text style="&st18;" transform="matrix(&st16;  1567.88  550.5 )">B-Y(*6)</text><text style="&st18;" transform="matrix(&st16;  1566.85  584.49 )">W-B(*7)</text><text style="&st18;" transform="matrix(&st16;  1577.38  601.49 )">W</text><text style="&st18;" transform="matrix(&st16;  1578.4  618.48 )">B</text><text style="&st18;" transform="matrix(&st16;  1526.39  15.09 )">W</text><text style="&st18;" transform="matrix(&st16;  1577.38  15.09 )">W</text><text style="&st18;" transform="matrix(&st17;  1613.87  254.42 )">(*6)</text><text ewd:textID="12" style="&st18;" transform="matrix(&st16;  1918.15  122.73 )">*19 :Before Aug. 2013 Production</text><text ewd:textID="13" style="&st18;" transform="matrix(&st16;  1918.15  131.23 )">*20 :From Aug. 2013 Production</text><text ewd:textID="6" style="&st18;" transform="matrix(&st16;  1918.15  71.74 )">* 7 :Before Jun. 2011 Production</text><text ewd:textID="7" style="&st18;" transform="matrix(&st16;  1918.15  80.24 )">* 8 :From Jun. 2011 Production</text><text style="&st18;" transform="matrix(&st17;  1882.99  420.69 )">R</text><text style="&st18;" transform="matrix(&st17;  1798.0  421.57 )">W</text><text style="&st18;" transform="matrix(&st17;  1868.83  424.4 )">(*7)</text><text style="&st18;" transform="matrix(&st17;  1894.32  424.4 )">(*8)</text><text style="&st18;" transform="matrix(&st17;  1834.83  424.4 )">(*7)</text><text style="&st18;" transform="matrix(&st17;  1809.34  424.4 )">(*8)</text><text ewd:textID="40" style="&st18;" transform="matrix(&st17;  1518.97  480.23 )">Transfer Indicator SW <tspan dy="6" x="0">(Rear Diff.)</tspan></text><text style="&st18;" transform="matrix(&st17;  1511.86  480.23 )">T29</text><text ewd:textID="22" style="&st18;" transform="matrix(&st17;  1518.97  675.7 )">Junction <tspan dy="6" x="0">Connector</tspan></text><text style="&st18;" transform="matrix(&st17;  1511.86  675.7 )">J21</text><text style="&st18;" transform="matrix(&st17;  1511.86  318.76 )">J23(B)</text><text ewd:textID="22" style="&st18;" transform="matrix(&st17;  1518.97  318.76 )">Junction Connector</text><text style="&st18;" transform="matrix(&st17;  1503.39  279.92 )">(*9)</text><text style="&st18;" transform="matrix(&st17;  1503.39  356.41 )">(*9)</text><text style="&st18;" transform="matrix(&st17;  1503.39  424.4 )">(*9)</text><text style="&st18;" transform="matrix(&st17;  1503.39  509.38 )">(*9)</text><text style="&st18;" transform="matrix(&st17;  1503.39  641.11 )">(*9)</text><text ewd:textID="8" style="&st18;" transform="matrix(&st16;  1918.15  88.74 )">* 9 :w/ Rear Differential Lock System</text><text ewd:textID="9" style="&st18;" transform="matrix(&st16;  1918.15  97.24 )">*10 :w/o Rear Differential Lock System</text><text style="&st18;" transform="matrix(&st16;  1652.44  441.15 )">11</text><text style="&st18;" transform="matrix(&st16;  1663.39  441.15 )">B</text><text style="&st18;" transform="matrix(&st16;  1654.85  484.21 )">9</text><text style="&st18;" transform="matrix(&st16;  1663.39  484.21 )">A</text><text style="&st18;" transform="matrix(&st17;  1636.53  510.9 )">W-B</text><text ewd:textID="22" style="&st18;" transform="matrix(&st17;  1688.94  480.23 )">Junction <tspan dy="6" x="0">Connector</tspan></text><text style="&st18;" transform="matrix(&st17;  1681.83  480.23 )">J65(A),J66(B)</text><text style="&st18;" transform="matrix(&st16;  1637.89  484.21 )">A</text><text style="&st18;" transform="matrix(&st16;  1629.35  484.21 )">8</text><text style="&st18;" transform="matrix(&st17;  1662.03  510.9 )">W-B</text><text style="&st18;" transform="matrix(&st17;  1662.03  425.92 )">W-B</text><text style="&st18;" transform="matrix(&st17;  1766.84  424.4 )">(*7)</text><text style="&st18;" transform="matrix(&st17;  1766.84  509.38 )">(*7)</text><text style="&st18;" transform="matrix(&st17;  1724.35  509.38 )">(*7)</text><text style="&st18;" transform="matrix(&st17;  1673.36  424.4 )">(*8)</text><text style="&st18;" transform="matrix(&st17;  1673.36  509.38 )">(*8)</text><text style="&st18;" transform="matrix(&st17;  1647.86  509.38 )">(*8)</text><text style="&st18;" transform="matrix(&st16;  1515.86  567.49 )">W-B(*8)</text><text style="&st18;" transform="matrix(&st16;  1566.85  567.49 )">W-B(*8)</text><text style="&st18;" transform="matrix(&st16;  1953.68  449.93 )">10</text><text style="&st18;" transform="matrix(&st16;  1999.35  449.93 )">5</text><text style="&st18;" transform="matrix(&st17;  1967.97  481.06 )">W</text><text ewd:textID="10" style="&st18;" transform="matrix(&st16;  1918.15  105.74 )">*17 :Before Oct. 2012 Production</text><text ewd:textID="11" style="&st18;" transform="matrix(&st16;  1918.15  114.24 )">*18 :From Oct. 2012 Production</text></svg>