﻿<?xml version="1.0" encoding="UTF-8"?>
<!DOCTYPE svg PUBLIC "-//W3C//DTD SVG 1.0//EN" "http://www.w3.org/TR/2001/REC-SVG-20010904/DTD/svg10.dtd"[
	<!ENTITY ns_flows "http://ns.adobe.com/Flows/1.0/">
	<!ENTITY ns_svg "http://www.w3.org/2000/svg">
	<!ENTITY ns_xlink "http://www.w3.org/1999/xlink">
	<!ENTITY st0 "font-size:7px;font-family:'MS-PGothic';adobe-font-script:japanese;">
	<!ENTITY st1 "font-size:6px;font-family:'ArialMT';">
	<!-- White fill  -->
	<!ENTITY st2 "fill:#FFFFFF;stroke:#000000; stroke-width:1.41;stroke-linecap:round;stroke-linejoin:round;">
	<!-- Yellow fill  -->
	<!ENTITY st3 "fill:#FFFFCC;stroke:#FFFFCC; stroke-width:0.1;stroke-linecap:round;stroke-linejoin:round;">
	<!-- Gray fill  -->
	<!ENTITY st4 "fill:#CCCCCC;stroke:#CCCCCC; stroke-width:0.1;stroke-linecap:round;stroke-linejoin:round;">
	<!-- Light-blue fill -->
	<!ENTITY st5 "fill:#CCECF4;stroke:#000000; stroke-width:1.133;stroke-linecap:round;stroke-linejoin:round;">
	<!ENTITY st6 "fill:none;stroke-linecap:butt; stroke-linejoin:round;">
	<!ENTITY st7 "fill:none;stroke:#000000;stroke-linecap:round;stroke-linejoin:round;">
	<!ENTITY st8 "enable-background:new    ;">
	<!-- Black fill -->
	<!ENTITY st9 "fill:#000000;stroke:#000000; stroke-linecap:round;stroke-linejoin:round;">
	<!-- SRS note   -->
	<!ENTITY st10 "font-size:9px;font-family:'ArialMT';">
	<!ENTITY st11 "font-size:9px;font-family:'Svg Symbol';">
	<!ENTITY st12 "font-size:6px;font-family:'Svg Symbol';">
	<!ENTITY st13 "fill:none;stroke:#ff0000;stroke-linecap:round;stroke-linejoin:round;">
	<!-- Yellow fill  -->
	<!ENTITY st14 "fill:#FFFF00;stroke:#FFFF00; stroke-width:0.1;stroke-linecap:round;stroke-linejoin:round;">
	<!ENTITY st15 "font-size:6px;font-family:'MS-PGothic';adobe-font-script:japanese;">
	<!ENTITY st16 "1.00 0.00 0.00 1.00">
	<!ENTITY st17 "0.00 -1.00 1.00 0.00">
	<!ENTITY st18 "font-size:6px;font-family:'Arial';">
	<!ENTITY st19 "font-size:9px;font-family:'Arial';">
	<!ENTITY st20 "font-size:6px;font-family:'MS-PGothic','MS PGothic';adobe-font-script:japanese;">
	<!ENTITY st21 "font-size:7px;font-family:'MS-PGothic','MS PGothic';adobe-font-script:japanese;">
	<!ATTLIST svg
		xmlns:ewd CDATA #FIXED "http://shcl.co.jp/ewd"
		xmlns:a CDATA #FIXED "http://ns.adobe.com/AdobeSVGViewerExtensions/3.0/"
		ewd:ver CDATA #IMPLIED
	>
	<!ATTLIST a
		ewd:lineID CDATA #IMPLIED
		ewd:groupID CDATA #IMPLIED
		ewd:figtype CDATA #IMPLIED
		ewd:code CDATA #IMPLIED
		ewd:figID CDATA #IMPLIED
		ewd:pinNo CDATA #IMPLIED
		ewd:comment CDATA #IMPLIED >
	<!ATTLIST g
		ewd:lineID CDATA #IMPLIED
		ewd:groupID CDATA #IMPLIED
		ewd:figtype CDATA #IMPLIED
		ewd:code CDATA #IMPLIED
		ewd:figID CDATA #IMPLIED
		ewd:pinNo CDATA #IMPLIED
		ewd:comment CDATA #IMPLIED >
	<!ATTLIST text
		ewd:textID CDATA #IMPLIED >
	<!ATTLIST title
		ewd:textID CDATA #IMPLIED >
]>
<!-- Generator: Shintec Hozumi YS   -->
<svg onload="call_execInitLoadProc_svg('system')" style="overflow:visible;  enable-background:new 0 0 518.938 710.000" viewBox="0 0 518.938 710.000" height="710.000" width="518.938" xml:space="preserve" ewd:ver="L2.1.2.6" xmlns="&ns_svg;" xmlns:a="http://ns.adobe.com/AdobeSVGViewerExtensions/3.0/" xmlns:ewd="http://shcl.co.jp/ewd" xmlns:xlink="&ns_xlink;">
	<script type="text/javascript" xlink:href="../../../../../system/js/ewd/fig/svgfig.js"/>
	<defs>
		<font horiz-adv-x="1229">
			<font-face font-family="Svg Symbol" units-per-em="2048" panose-1="5 5 1 2 1 7 6 2 5 7" ascent="2059" descent="450" alphabetic="0"/>
			<missing-glyph d="M 103,0 l 0,1280 1024,0 0,-1280 -1024,0 z m 32,32 l 960,0 0,1216 -960,0 0,-1216 z"/>
			<glyph unicode="&#xF057;" horiz-adv-x="1573" d="M 1517,0 l -567,0 24,279 q 141,59 207.5,168 66.5,109 66.5,306    0,272 -132.5,417.5 -132.5,145.5 -333.5,145.5 -194,0 -328,-147.5 -134,-147.5 -134,-401.5 0,-200 68.5,-319 68.5,-119     206.5,-169 l 25,-279 -564,0 0,279 35,0 q 3,-61 32,-83 45,-35 137,-35 l 270,0 0,70 q -210,61 -324.5,209 -114.5,148     -114.5,349 0,252 186.5,425 186.5,173 504.5,173 195,0 358.5,-73.5 163.5,-73.5 252,-214.5 88.5,-141 88.5,-310 0,-207     -121.5,-360.5 -121.5,-153.5 -317.5,-197.5 l -8,-70 275,0 q 92,0 128,28 36,28 42,90 l 38,0 0,-279 z"/>
		</font>
	</defs>
<g id="ewd_top">
	<a ewd:code="B14" ewd:figID="1" ewd:figtype="conn" style="cursor:pointer;">
		<path d=" M  297.45,  528.70  L  297.45,  613.68  L  454.67,  613.68  L  454.67,  528.70  L  297.45,  528.70 " style="&st5;"/>
		<title ewd:textID="9">Blower SW (Rear)</title>
	</a>
	<a ewd:code="B11" ewd:figID="2" ewd:figtype="conn" style="cursor:pointer;">
		<path d=" M  280.45,  375.72  L  280.45,  469.21  L  161.47,  469.21  L  161.47,  375.72  L  280.45,  375.72 " style="&st5;"/>
		<title ewd:textID="8">Blower Resistor (Rear)</title>
	</a>
	<a ewd:code="J22" ewd:figID="3" ewd:figtype="conn" style="cursor:pointer;">
		<path d=" M   93.48,  154.76  L  110.48,  154.76  L  110.48,  171.76  L   93.48,  171.76  L   93.48,  154.76 " style="&st5;"/>
		<title ewd:textID="11">Junction Connector</title>
	</a>
	<a ewd:code="B12" ewd:figID="4" ewd:figtype="conn" style="cursor:pointer;">
		<path d=" M  135.98,  545.69  L  135.98,  613.68  L  237.96,  613.68  L  237.96,  545.69  L  135.98,  545.69 " style="&st5;"/>
		<title ewd:textID="9">Blower SW (Rear)</title>
	</a>
	<a ewd:code="R10" ewd:figID="5" ewd:figtype="conn" style="cursor:pointer;">
		<path d=" M  135.98,  231.25  L  135.98,  265.24  L   93.48,  265.24  L   93.48,  231.25  L  135.98,  231.25 " style="&st5;"/>
		<title ewd:textID="13">Rear Cooler Relay</title>
	</a>
	<a ewd:code="J34" ewd:figID="6" ewd:figtype="conn" style="cursor:pointer;">
		<path d=" M  475.92,  656.18  L  475.92,  673.17  L  492.92,  673.17  L  492.92,  656.18  L  475.92,  656.18 " style="&st5;"/>
		<title ewd:textID="11">Junction Connector</title>
	</a>
	<a ewd:code="1" ewd:figID="7" ewd:figtype="rb" style="cursor:pointer;">
		<path d=" M  208.22,   35.78  L  208.22,   78.27  L  233.71,   78.27  L  233.71,   35.78  L  208.22,   35.78 " style="&st5;"/>
	</a>
	<a ewd:code="B10" ewd:figID="8" ewd:figtype="conn" style="cursor:pointer;">
		<path d=" M  335.69,  291.88  L  335.69,  291.88  L  335.69,  287.90  L  344.19,  287.90  L  344.20,  291.88  C  345.55   292.66   346.52   293.63   347.30   294.98  L  347.30,  294.98  C  349.65   299.05   348.26   304.25   344.20   306.60  L  344.19,  306.60  L  344.19,  310.57  L  335.69,  310.57  L  335.70,  306.60  C  334.34   305.81   333.37   304.84   332.58   303.48  L  332.58,  303.48  C  330.24   299.42   331.63   294.22   335.70   291.87 " style="&st5;"/>
		<title ewd:textID="7">Blower Motor (Rear)</title>
	</a>
	<a ewd:code="C15" ewd:figID="9" ewd:figtype="conn" style="cursor:pointer;">
		<path d=" M  118.98,  477.71  L   25.50,  477.71  L   25.50,  392.72  L  118.98,  392.72  L  118.98,  477.71 " style="&st5;"/>
		<title ewd:textID="10">Cooler Control SW (Rear)</title>
	</a>
	<a ewd:code="1" ewd:figID="10" ewd:figtype="jb" style="cursor:pointer;">
		<path d=" M  203.97,   95.27  L  203.97,  112.27  L  246.46,  112.27  L  246.46,   95.27  L  203.97,   95.27 " style="&st4;"/>
	</a>
	<a ewd:code="2" ewd:figID="11" ewd:figtype="jb" style="cursor:pointer;">
		<path d=" M   25.50,   35.78  L   25.50,  112.27  L  118.98,  112.27  L  118.98,   35.78  L   25.50,   35.78 " style="&st4;"/>
	</a>
	<a ewd:code="FUSE44" ewd:figID="12" ewd:figtype="fuse" style="cursor:pointer;">
		<path d=" M  114.73,   78.27  L  114.73,   35.78  L   89.24,   35.78  L   89.24,   78.27  L  114.73,   78.27 " style="&st7;"/>
	</a>
	<a ewd:code="FUSE31" ewd:figID="13" ewd:figtype="fuse" style="cursor:pointer;">
		<path d=" M  233.71,   78.27  L  233.71,   35.78  L  208.22,   35.78  L  208.22,   78.27  L  233.71,   78.27 " style="&st7;"/>
	</a>
	<a ewd:lineID="1" style="cursor:pointer;">
		<path d=" M   42.49,  577.42  L   42.49,  630.68  L  212.46,  630.68  L  212.46,  613.68 " style="stroke:#992903;stroke-width: 5.10 ;&st6;"/>
	</a>
	<a ewd:lineID="2" style="cursor:pointer;">
		<path d=" M  416.43,  613.68  L  416.43,  647.68  L   25.50,  647.68  L   25.50,  596.69  L   42.49,  579.69  L   42.49,  577.42 " style="stroke:#992903;stroke-width: 5.10 ;&st6;"/>
	</a>
	<a ewd:lineID="3" style="cursor:pointer;">
		<path d=" M   42.49,  477.71  L   42.49,  554.19 " style="stroke:#992903;stroke-width: 5.10 ;&st6;"/>
	</a>
	<a ewd:lineID="4" style="cursor:pointer;">
		<path d=" M   42.49,  112.27  L   42.49,  392.72 " style="stroke:#FF0000;stroke-width: 5.10 ;&st6;"/>
		<path d=" M   42.49,  112.27  L   42.49,  392.72 " style="stroke:#FFFFFF;stroke-width: 2.27 ;&st6;"/>
		<path d=" M   42.49,  112.27  L   42.49,  392.72 " style="stroke:#00A0C6;stroke-width: 1.13 ;&st6;"/>
	</a>
	<a ewd:lineID="5" style="cursor:pointer;">
		<path d=" M  101.98,  341.73  L  101.98,  392.72 " style="stroke:#00A0C6;stroke-width: 5.10 ;&st6;"/>
		<path d=" M  101.98,  341.73  L  101.98,  392.72 " style="stroke:#FFFFFF;stroke-width: 2.27 ;&st6;"/>
		<path d=" M  101.98,  341.73  L  101.98,  392.72 " style="stroke:#000000;stroke-width: 1.13 ;&st6;"/>
	</a>
	<a ewd:lineID="6" style="cursor:pointer;">
		<path d=" M  101.98,  265.24  L  101.98,  318.22 " style="stroke:#00A0C6;stroke-width: 5.10 ;&st6;"/>
		<path d=" M  101.98,  265.24  L  101.98,  318.22 " style="stroke:#FFFFFF;stroke-width: 2.27 ;&st6;"/>
		<path d=" M  101.98,  265.24  L  101.98,  318.22 " style="stroke:#000000;stroke-width: 1.13 ;&st6;"/>
	</a>
	<a ewd:lineID="7" style="cursor:pointer;">
		<path d=" M  101.98,  189.89  L  101.98,  231.25 " style="stroke:#FF0000;stroke-width: 5.10 ;&st6;"/>
		<path d=" M  101.98,  189.89  L  101.98,  231.25 " style="stroke:#FFFFFF;stroke-width: 2.27 ;&st6;"/>
		<path d=" M  101.98,  189.89  L  101.98,  231.25 " style="stroke:#00A0C6;stroke-width: 1.13 ;&st6;"/>
	</a>
	<a ewd:lineID="8" style="cursor:pointer;">
		<path d=" M  101.98,  112.27  L  101.98,  136.63 " style="stroke:#FF0000;stroke-width: 5.10 ;&st6;"/>
		<path d=" M  101.98,  112.27  L  101.98,  136.63 " style="stroke:#FFFFFF;stroke-width: 2.27 ;&st6;"/>
		<path d=" M  101.98,  112.27  L  101.98,  136.63 " style="stroke:#00A0C6;stroke-width: 1.13 ;&st6;"/>
	</a>
	<a ewd:lineID="9" style="cursor:pointer;">
		<path d=" M  339.94,  287.90  L  339.94,  265.24  L  288.95,  265.24  L  288.95,  307.73  L  127.48,  307.73  L  127.48,  265.24 " style="stroke:#00A0C6;stroke-width: 5.10 ;&st6;"/>
	</a>
	<a ewd:lineID="10" style="cursor:pointer;">
		<path d=" M  220.96,  186.49  L  220.96,  205.75  L  127.48,  205.75  L  127.48,  231.25 " style="stroke:#FF0000;stroke-width: 5.10 ;&st6;"/>
	</a>
	<a ewd:lineID="11" style="cursor:pointer;">
		<path d=" M  135.98,  248.24  L  484.42,  248.24  L  484.42,  656.18 " style="stroke:#000000;stroke-width: 5.10 ;&st6;"/>
		<path d=" M  135.98,  248.24  L  484.42,  248.24  L  484.42,  656.18 " style="stroke:#FFFFFF;stroke-width: 4.53 ;&st6;"/>
		<path d=" M  135.98,  248.24  L  484.42,  248.24  L  484.42,  656.18 " style="stroke:#000000;stroke-width: 1.13 ;&st6;"/>
	</a>
	<a ewd:lineID="12" style="cursor:pointer;">
		<path d=" M  178.47,  469.21  L  178.47,  545.69 " style="stroke:#F668B2;stroke-width: 5.10 ;&st6;"/>
	</a>
	<a ewd:lineID="13" style="cursor:pointer;">
		<path d=" M  365.44,  528.70  L  365.44,  511.70  L  195.47,  511.70  L  195.47,  494.70  L  178.47,  477.71  L  178.47,  469.21 " style="stroke:#FFE600;stroke-width: 5.10 ;&st6;"/>
		<path d=" M  365.44,  528.70  L  365.44,  511.70  L  195.47,  511.70  L  195.47,  494.70  L  178.47,  477.71  L  178.47,  469.21 " style="stroke:#FFFFFF;stroke-width: 2.27 ;&st6;"/>
		<path d=" M  365.44,  528.70  L  365.44,  511.70  L  195.47,  511.70  L  195.47,  494.70  L  178.47,  477.71  L  178.47,  469.21 " style="stroke:#FF0000;stroke-width: 1.13 ;&st6;"/>
	</a>
	<a ewd:lineID="14" style="cursor:pointer;">
		<path d=" M  178.47,  375.72  L  178.47,  350.23  L  331.44,  350.23 " style="stroke:#FF0000;stroke-width: 5.10 ;&st6;"/>
		<path d=" M  178.47,  375.72  L  178.47,  350.23  L  331.44,  350.23 " style="stroke:#FFFFFF;stroke-width: 2.27 ;&st6;"/>
		<path d=" M  178.47,  375.72  L  178.47,  350.23  L  331.44,  350.23 " style="stroke:#000000;stroke-width: 1.13 ;&st6;"/>
	</a>
	<a ewd:lineID="15" style="cursor:pointer;">
		<path d=" M  212.46,  469.21  L  212.46,  528.70  L  195.47,  528.70  L  195.47,  545.69 " style="stroke:#FFE600;stroke-width: 5.10 ;&st6;"/>
		<path d=" M  212.46,  469.21  L  212.46,  528.70  L  195.47,  528.70  L  195.47,  545.69 " style="stroke:#FFFFFF;stroke-width: 2.27 ;&st6;"/>
		<path d=" M  212.46,  469.21  L  212.46,  528.70  L  195.47,  528.70  L  195.47,  545.69 " style="stroke:#FF0000;stroke-width: 1.13 ;&st6;"/>
	</a>
	<a ewd:lineID="16" style="cursor:pointer;">
		<path d=" M  212.46,  469.21  L  212.46,  477.71  L  220.96,  486.20  L  390.93,  486.20  L  390.93,  528.70 " style="stroke:#56077D;stroke-width: 5.10 ;&st6;"/>
	</a>
	<a ewd:lineID="17" style="cursor:pointer;">
		<path d=" M  220.96,  112.27  L  220.96,  171.76 " style="stroke:#FF0000;stroke-width: 5.10 ;&st6;"/>
	</a>
	<a ewd:lineID="18" style="cursor:pointer;">
		<path d=" M  229.46,  613.68  L  229.46,  681.67 " style="stroke:#000000;stroke-width: 5.10 ;&st6;"/>
		<path d=" M  229.46,  613.68  L  229.46,  681.67 " style="stroke:#FFFFFF;stroke-width: 4.53 ;&st6;"/>
		<path d=" M  229.46,  613.68  L  229.46,  681.67 " style="stroke:#000000;stroke-width: 1.13 ;&st6;"/>
	</a>
	<a ewd:lineID="19" style="cursor:pointer;">
		<path d=" M  229.46,  681.67  L  229.46,  673.17  L  237.96,  664.67  L  263.46,  664.67  L  263.46,  469.21 " style="stroke:#000000;stroke-width: 5.10 ;&st6;"/>
		<path d=" M  229.46,  681.67  L  229.46,  673.17  L  237.96,  664.67  L  263.46,  664.67  L  263.46,  469.21 " style="stroke:#FFFFFF;stroke-width: 4.53 ;&st6;"/>
		<path d=" M  229.46,  681.67  L  229.46,  673.17  L  237.96,  664.67  L  263.46,  664.67  L  263.46,  469.21 " style="stroke:#000000;stroke-width: 1.13 ;&st6;"/>
	</a>
	<a ewd:lineID="20" style="cursor:pointer;">
		<path d=" M  339.94,  528.70  L  339.94,  358.73 " style="stroke:#FF0000;stroke-width: 5.10 ;&st6;"/>
		<path d=" M  339.94,  528.70  L  339.94,  358.73 " style="stroke:#FFFFFF;stroke-width: 2.27 ;&st6;"/>
		<path d=" M  339.94,  528.70  L  339.94,  358.73 " style="stroke:#000000;stroke-width: 1.13 ;&st6;"/>
	</a>
	<a ewd:lineID="21" style="cursor:pointer;">
		<path d=" M  339.94,  310.57  L  339.94,  341.73 " style="stroke:#FF0000;stroke-width: 5.10 ;&st6;"/>
		<path d=" M  339.94,  310.57  L  339.94,  341.73 " style="stroke:#FFFFFF;stroke-width: 2.27 ;&st6;"/>
		<path d=" M  339.94,  310.57  L  339.94,  341.73 " style="stroke:#000000;stroke-width: 1.13 ;&st6;"/>
	</a>
	<a ewd:lineID="22" style="cursor:pointer;">
		<path d=" M  441.93,  613.68  L  441.93,  664.67  L  475.92,  664.67 " style="stroke:#000000;stroke-width: 5.10 ;&st6;"/>
		<path d=" M  441.93,  613.68  L  441.93,  664.67  L  475.92,  664.67 " style="stroke:#FFFFFF;stroke-width: 4.53 ;&st6;"/>
		<path d=" M  441.93,  613.68  L  441.93,  664.67  L  475.92,  664.67 " style="stroke:#000000;stroke-width: 1.13 ;&st6;"/>
	</a>
	<path d=" M  101.98,  256.74  L  101.98,  265.24 " style="stroke-width: 0.85 ;&st7; "/>
	<path d=" M  101.98,  231.25  L  101.98,  239.75 " style="stroke-width: 0.85 ;&st7; "/>
	<path d=" M  127.48,  231.25  L  127.48,  235.50 " style="stroke-width: 0.85 ;&st7; "/>
	<path d=" M  135.98,  248.24  L  133.14,  248.24 " style="stroke-width: 0.85 ;&st7; "/>
	<path d=" M  127.48,  260.99  L  127.48,  265.24 " style="stroke-width: 0.85 ;&st7; "/>
	<path d=" M  127.48,  258.16  L  133.14,  235.50 " style="stroke-width: 1.42 ;&st7; "/>
	<path d=" M  101.98,   69.77  L  101.98,  103.77 " style="stroke-width: 0.85 ;&st7; "/>
	<path d=" M  104.11,  103.77  L   99.86,  103.77 " style="stroke-width: 1.42 ;&st7; "/>
	<path d=" M  104.11,  112.27  L   99.86,  112.27 " style="stroke-width: 1.42 ;&st7; "/>
	<path d=" M  220.96,   69.77  L  220.96,   95.27 " style="stroke-width: 0.85 ;&st7; "/>
	<path d=" M  229.46,  180.26  L  220.96,  180.26 " style="stroke-width: 1.42 ;&st7; "/>
	<path d=" M   42.49,  462.12  L   48.16,  439.46 " style="stroke-width: 1.42 ;&st7; "/>
	<path d=" M   42.49,  469.21  L   42.49,  464.96 " style="stroke-width: 0.85 ;&st7; "/>
	<path d=" M   42.49,  439.46  L   42.49,  435.21 " style="stroke-width: 0.85 ;&st7; "/>
	<path d=" M   42.49,  401.22  L   42.49,  405.47 " style="stroke-width: 0.85 ;&st7; "/>
	<path d=" M   42.49,  413.97  L   42.49,  418.22 " style="stroke-width: 0.85 ;&st7; "/>
	<path d=" M   44.62,  103.77  L   40.37,  103.77 " style="stroke-width: 1.42 ;&st7; "/>
	<path d=" M   44.62,  112.27  L   40.37,  112.27 " style="stroke-width: 1.42 ;&st7; "/>
	<path d=" M  348.44,  346.70  L  343.47,  341.73 " style="stroke-width: 1.42 ;&st7; "/>
	<path d=" M  331.44,  353.76  L  336.41,  358.73 " style="stroke-width: 1.42 ;&st7; "/>
	<path d=" M  343.47,  358.73  L  348.44,  353.76 " style="stroke-width: 1.42 ;&st7; "/>
	<path d=" M  336.41,  341.73  L  331.44,  346.70 " style="stroke-width: 1.42 ;&st7; "/>
	<path d=" M   50.99,  571.19  L   42.49,  571.19 " style="stroke-width: 1.42 ;&st7; "/>
	<path d=" M  223.09,   95.27  L  218.84,   95.27 " style="stroke-width: 1.42 ;&st7; "/>
	<path d=" M  223.09,  112.27  L  218.84,  112.27 " style="stroke-width: 1.42 ;&st7; "/>
	<path d=" M  223.09,  103.77  L  218.84,  103.77 " style="stroke-width: 1.42 ;&st7; "/>
	<path d=" M   93.48,  324.73  L  101.98,  324.73 " style="stroke-width: 1.42 ;&st7; "/>
	<path d=" M   41.30,  425.71  L   41.03,  426.18  L   40.93,  426.71  L   41.03,  427.25  L   41.30,  427.72  L   41.71,  428.06  L   42.22,  428.25  L   42.76,  428.25  L   43.27,  428.06  L   43.69,  427.72  L   43.96,  427.25  L   44.05,  426.71  L   43.96,  426.18  L   43.69,  425.71  L   43.27,  425.37  L   42.76,  425.18  L   42.22,  425.18  L   41.71,  425.37  L   41.30,  425.71  L   41.69,  426.42  L   41.69,  427.01  L   42.07,  427.45  L   42.64,  427.55  L   43.14,  427.26  L   43.34,  426.71  L   43.14,  426.17  L   42.64,  425.88  L   42.07,  425.98  L   42.49,  426.71 " style="stroke-width: 0.85 ;&st7; "/>
	<path d=" M  211.27,  451.21  L  211.00,  451.68  L  210.91,  452.21  L  211.00,  452.74  L  211.27,  453.21  L  211.69,  453.56  L  212.19,  453.75  L  212.74,  453.75  L  213.24,  453.56  L  213.66,  453.21  L  213.93,  452.74  L  214.02,  452.21  L  213.93,  451.68  L  213.66,  451.21  L  213.24,  450.86  L  212.74,  450.67  L  212.19,  450.67  L  211.69,  450.86  L  211.27,  451.21  L  211.67,  451.92  L  211.67,  452.50  L  212.04,  452.95  L  212.61,  453.05  L  213.12,  452.76  L  213.31,  452.21  L  213.12,  451.66  L  212.61,  451.37  L  212.04,  451.47  L  212.46,  452.21 " style="stroke-width: 0.85 ;&st7; "/>
	<path d=" M  177.28,  451.21  L  177.01,  451.68  L  176.91,  452.21  L  177.01,  452.74  L  177.28,  453.21  L  177.69,  453.56  L  178.20,  453.75  L  178.74,  453.75  L  179.25,  453.56  L  179.66,  453.21  L  179.93,  452.74  L  180.03,  452.21  L  179.93,  451.68  L  179.66,  451.21  L  179.25,  450.86  L  178.74,  450.67  L  178.20,  450.67  L  177.69,  450.86  L  177.28,  451.21  L  177.67,  451.92  L  177.67,  452.50  L  178.05,  452.95  L  178.62,  453.05  L  179.12,  452.76  L  179.32,  452.21  L  179.12,  451.66  L  178.62,  451.37  L  178.05,  451.47  L  178.47,  452.21 " style="stroke-width: 0.85 ;&st7; "/>
	<path d=" M  226.63,  707.17  L  232.29,  707.17 " style="stroke-width: 0.85 ;&st7; "/>
	<path d=" M  220.96,  701.50  L  237.96,  701.50 " style="stroke-width: 0.85 ;&st7; "/>
	<path d=" M  225.21,  704.33  L  233.71,  704.33 " style="stroke-width: 0.85 ;&st7; "/>
	<path d=" M  179.89,  605.18  L  211.05,  605.18 " style="stroke-width: 0.85 ;&st7; "/>
	<path d=" M  229.46,  697.25  L  229.46,  701.50 " style="stroke-width: 0.85 ;&st7; "/>
	<path d=" M  213.88,  605.18  L  228.05,  605.18 " style="stroke-width: 0.85 ;&st7; "/>
	<path d=" M  135.98,  596.69  L  237.96,  596.69 " style="stroke-width: 0.85 ;&st7; "/>
	<path d=" M  203.97,  613.68  L  203.97,  545.69 " style="stroke-width: 0.85 ;&st7; "/>
	<path d=" M  186.97,  613.68  L  186.97,  545.69 " style="stroke-width: 0.85 ;&st7; "/>
	<path d=" M  213.88,  588.19  L  228.05,  588.19 " style="stroke-width: 0.85 ;&st7; "/>
	<path d=" M  135.98,  579.69  L  237.96,  579.69 " style="stroke-width: 0.85 ;&st7; "/>
	<path d=" M  213.88,  571.19  L  228.05,  571.19 " style="stroke-width: 0.85 ;&st7; "/>
	<path d=" M  169.97,  613.68  L  169.97,  545.69 " style="stroke-width: 0.85 ;&st7; "/>
	<path d=" M  135.98,  545.69  L  135.98,  613.68  L  237.96,  613.68  L  237.96,  545.69  L  135.98,  545.69 " style="stroke-width: 1.42 ;&st7; "/>
	<path d=" M  135.98,  562.69  L  237.96,  562.69 " style="stroke-width: 0.85 ;&st7; "/>
	<path d=" M  220.96,  613.68  L  220.96,  545.69 " style="stroke-width: 0.85 ;&st7; "/>
	<path d=" M  475.92,  656.18  L  475.92,  673.17  L  492.92,  673.17  L  492.92,  656.18  L  475.92,  656.18 " style="stroke-width: 1.42 ;&st7; "/>
	<path d=" M  484.42,  681.67  L  484.42,  656.18 " style="stroke-width: 0.85 ;&st7; "/>
	<path d=" M  196.88,  588.19  L  211.05,  588.19 " style="stroke-width: 0.85 ;&st7; "/>
	<path d=" M  135.98,  231.25  L  135.98,  265.24  L   93.48,  265.24  L   93.48,  231.25  L  135.98,  231.25 " style="stroke-width: 1.42 ;&st7; "/>
	<path d=" M  114.73,   78.27  L  114.73,   35.78  L   89.24,   35.78  L   89.24,   78.27  L  114.73,   78.27 " style="stroke-width: 1.42 ;&st7; "/>
	<path d=" M  101.98,   98.87  L   99.15,   96.04  L   99.15,  100.29  L  101.98,  103.12  L  104.82,  100.29  L  104.82,   96.04  L  101.98,   98.87 " style="stroke-width: 0.28 ;&st9;"/>
	<path d=" M  233.71,   78.27  L  233.71,   35.78  L  208.22,   35.78  L  208.22,   78.27  L  233.71,   78.27 " style="stroke-width: 1.42 ;&st7; "/>
	<path d=" M   93.48,  154.76  L  110.48,  154.76  L  110.48,  171.76  L   93.48,  171.76  L   93.48,  154.76 " style="stroke-width: 1.42 ;&st7; "/>
	<path d=" M  101.98,  154.76  L  101.98,  171.76 " style="stroke-width: 0.85 ;&st7; "/>
	<path d=" M  225.21,  189.32  L  220.96,  185.07  L  216.71,  189.32 " style="stroke-width: 1.42 ;&st7; "/>
	<path d=" M  225.21,  185.92  L  220.96,  181.67  L  216.71,  185.92 " style="stroke-width: 1.42 ;&st7; "/>
	<path d=" M  484.42,  697.25  L  484.42,  701.50 " style="stroke-width: 0.85 ;&st7; "/>
	<path d=" M  475.92,  701.50  L  492.92,  701.50 " style="stroke-width: 0.85 ;&st7; "/>
	<path d=" M  480.17,  704.33  L  488.67,  704.33 " style="stroke-width: 0.85 ;&st7; "/>
	<path d=" M  481.59,  707.17  L  487.25,  707.17 " style="stroke-width: 0.85 ;&st7; "/>
	<path d=" M  483.00,  710.00  L  485.84,  710.00 " style="stroke-width: 0.85 ;&st7; "/>
	<path d=" M  228.05,  710.00  L  230.88,  710.00 " style="stroke-width: 0.85 ;&st7; "/>
	<path d=" M  118.98,  477.71  L   25.50,  477.71  L   25.50,  392.72  L  118.98,  392.72  L  118.98,  477.71 " style="stroke-width: 1.42 ;&st7; "/>
	<path d=" M   42.49,  426.71  L  101.98,  426.71  L  101.98,  392.72 " style="stroke-width: 0.85 ;&st7; "/>
	<path d=" M   42.49,  477.71  L   42.49,  469.21 " style="stroke-width: 0.85 ;&st7; "/>
	<path d=" M   42.49,  418.22  L   42.49,  435.21 " style="stroke-width: 0.85 ;&st7; "/>
	<path d=" M   42.49,  392.72  L   42.49,  401.22 " style="stroke-width: 0.85 ;&st7; "/>
	<path d=" M   42.49,   98.87  L   39.66,   96.04  L   39.66,  100.29  L   42.49,  103.12  L   45.33,  100.29  L   45.33,   96.04  L   42.49,   98.87 " style="stroke-width: 0.28 ;&st9;"/>
	<path d=" M  101.98,   86.77  L   42.49,   86.77  L   42.49,  103.77 " style="stroke-width: 0.85 ;&st7; "/>
	<path d=" M  280.45,  375.72  L  280.45,  469.21  L  161.47,  469.21  L  161.47,  375.72  L  280.45,  375.72 " style="stroke-width: 1.42 ;&st7; "/>
	<path d=" M  212.46,  452.21  L  212.46,  469.21 " style="stroke-width: 0.85 ;&st7; "/>
	<path d=" M  178.47,  452.21  L  178.47,  443.71  L  175.64,  442.29  L  181.30,  439.46  L  175.64,  436.63  L  181.30,  433.80  L  175.64,  430.96  L  181.30,  428.13  L  178.47,  426.71  L  178.47,  418.22 " style="stroke-width: 0.85 ;&st7; "/>
	<path d=" M  178.47,  452.21  L  186.97,  452.21  L  188.39,  449.38  L  191.22,  455.04  L  194.05,  449.38  L  196.88,  455.04  L  199.72,  449.38  L  202.55,  455.04  L  203.97,  452.21  L  212.46,  452.21 " style="stroke-width: 0.85 ;&st7; "/>
	<path d=" M  220.96,  452.21  L  229.46,  452.21  L  230.88,  449.38  L  233.71,  455.04  L  236.54,  449.38  L  239.38,  455.04  L  242.21,  449.38  L  245.04,  455.04  L  246.46,  452.21  L  254.96,  452.21 " style="stroke-width: 0.85 ;&st7; "/>
	<path d=" M  178.47,  375.72  L  178.47,  392.72 " style="stroke-width: 0.85 ;&st7; "/>
	<path d=" M  178.47,  452.21  L  178.47,  469.21 " style="stroke-width: 0.85 ;&st7; "/>
	<path d=" M  212.46,  452.21  L  220.96,  452.21 " style="stroke-width: 0.85 ;&st7; "/>
	<path d=" M  254.96,  452.21  L  263.46,  452.21  L  263.46,  469.21 " style="stroke-width: 0.85 ;&st7; "/>
	<path d=" M  483.23,  663.67  L  482.95,  664.14  L  482.86,  664.67  L  482.95,  665.21  L  483.23,  665.68  L  483.64,  666.02  L  484.15,  666.21  L  484.69,  666.21  L  485.20,  666.02  L  485.61,  665.68  L  485.88,  665.21  L  485.98,  664.67  L  485.88,  664.14  L  485.61,  663.67  L  485.20,  663.33  L  484.69,  663.14  L  484.15,  663.14  L  483.64,  663.33  L  483.23,  663.67  L  483.62,  664.38  L  483.62,  664.97  L  483.99,  665.41  L  484.57,  665.51  L  485.07,  665.22  L  485.27,  664.67  L  485.07,  664.13  L  484.57,  663.84  L  483.99,  663.94  L  484.42,  664.67 " style="stroke-width: 0.85 ;&st7; "/>
	<path d=" M  335.69,  291.88  L  335.69,  287.90  L  344.19,  287.90  L  344.19,  291.88 " style="stroke-width: 1.42 ;&st7; "/>
	<path d=" M  335.69,  306.60  L  335.69,  310.57  L  344.19,  310.57  L  344.19,  306.60 " style="stroke-width: 1.42 ;&st7; "/>
	<path d=" M  475.92,  664.67  L  484.42,  664.67 " style="stroke-width: 0.85 ;&st7; "/>
	<path d=" M  417.85,  605.18  L  440.51,  605.18 " style="stroke-width: 0.85 ;&st7; "/>
	<path d=" M  341.36,  605.18  L  415.01,  605.18 " style="stroke-width: 0.85 ;&st7; "/>
	<path d=" M  429.18,  528.70  L  429.18,  613.68 " style="stroke-width: 0.85 ;&st7; "/>
	<path d=" M  378.19,  613.68  L  378.19,  528.70 " style="stroke-width: 0.85 ;&st7; "/>
	<path d=" M  392.35,  571.19  L  415.01,  571.19 " style="stroke-width: 0.85 ;&st7; "/>
	<path d=" M  403.68,  613.68  L  403.68,  528.70 " style="stroke-width: 0.85 ;&st7; "/>
	<path d=" M  297.45,  545.69  L  454.67,  545.69 " style="stroke-width: 0.85 ;&st7; "/>
	<path d=" M  297.45,  528.70  L  297.45,  613.68  L  454.67,  613.68  L  454.67,  528.70  L  297.45,  528.70 " style="stroke-width: 1.42 ;&st7; "/>
	<path d=" M  327.20,  613.68  L  327.20,  528.70 " style="stroke-width: 0.85 ;&st7; "/>
	<path d=" M  417.85,  554.19  L  440.51,  554.19 " style="stroke-width: 0.85 ;&st7; "/>
	<path d=" M  297.45,  562.69  L  454.67,  562.69 " style="stroke-width: 0.85 ;&st7; "/>
	<path d=" M  417.85,  571.19  L  440.51,  571.19 " style="stroke-width: 0.85 ;&st7; "/>
	<path d=" M  352.69,  613.68  L  352.69,  528.70 " style="stroke-width: 0.85 ;&st7; "/>
	<path d=" M  297.45,  579.69  L  454.67,  579.69 " style="stroke-width: 0.85 ;&st7; "/>
	<path d=" M  417.85,  588.19  L  440.51,  588.19 " style="stroke-width: 0.85 ;&st7; "/>
	<path d=" M  366.86,  588.19  L  415.01,  588.19 " style="stroke-width: 0.85 ;&st7; "/>
	<path d=" M  297.45,  596.69  L  454.67,  596.69 " style="stroke-width: 0.85 ;&st7; "/>
	<path d=" M   46.74,  576.86  L   42.49,  572.61  L   38.24,  576.86 " style="stroke-width: 1.42 ;&st7; "/>
	<path d=" M   46.74,  580.26  L   42.49,  576.01  L   38.24,  580.26 " style="stroke-width: 1.42 ;&st7; "/>
	<path d=" M  220.96,   90.37  L  218.13,   87.54  L  218.13,   91.79  L  220.96,   94.62  L  223.80,   91.79  L  223.80,   87.54  L  220.96,   90.37 " style="stroke-width: 0.28 ;&st9;"/>
	<path d=" M  106.23,  319.07  L  101.98,  323.31  L   97.73,  319.07 " style="stroke-width: 1.42 ;&st7; "/>
	<path d=" M   97.73,  315.67  L  101.98,  319.92  L  106.23,  315.67 " style="stroke-width: 1.42 ;&st7; "/>
	<path d=" M  100.79,   85.77  L  100.52,   86.24  L  100.42,   86.77  L  100.52,   87.30  L  100.79,   87.77  L  101.20,   88.12  L  101.71,   88.31  L  102.25,   88.31  L  102.76,   88.12  L  103.18,   87.77  L  103.45,   87.30  L  103.54,   86.77  L  103.45,   86.24  L  103.18,   85.77  L  102.76,   85.42  L  102.25,   85.24  L  101.71,   85.24  L  101.20,   85.42  L  100.79,   85.77  L  101.18,   86.48  L  101.18,   87.06  L  101.56,   87.51  L  102.13,   87.61  L  102.63,   87.32  L  102.83,   86.77  L  102.63,   86.22  L  102.13,   85.94  L  101.56,   86.03  L  101.98,   86.77 " style="stroke-width: 0.85 ;&st7; "/>
	<path d=" M  179.89,  605.18  C  179.89   604.40   179.25   603.77   178.47   603.77 " style="stroke-width: 0.85 ;&st7; "/>
	<path d=" M  178.47,  603.77  C  177.69   603.77   177.05   604.40   177.05   605.18 " style="stroke-width: 0.85 ;&st7; "/>
	<path d=" M  177.05,  605.18  C  177.05   605.97   177.69   606.60   178.47   606.60 " style="stroke-width: 0.85 ;&st7; "/>
	<path d=" M  178.47,  606.60  C  179.25   606.60   179.89   605.97   179.89   605.18 " style="stroke-width: 0.85 ;&st7; "/>
	<path d=" M  213.88,  605.18  C  213.88   604.40   213.25   603.77   212.46   603.77 " style="stroke-width: 0.85 ;&st7; "/>
	<path d=" M  212.46,  603.77  C  211.68   603.77   211.05   604.40   211.05   605.18 " style="stroke-width: 0.85 ;&st7; "/>
	<path d=" M  211.05,  605.18  C  211.05   605.97   211.68   606.60   212.46   606.60 " style="stroke-width: 0.85 ;&st7; "/>
	<path d=" M  212.46,  606.60  C  213.25   606.60   213.88   605.97   213.88   605.18 " style="stroke-width: 0.85 ;&st7; "/>
	<path d=" M  230.88,  605.18  C  230.88   604.40   230.24   603.77   229.46   603.77 " style="stroke-width: 0.85 ;&st7; "/>
	<path d=" M  229.46,  603.77  C  228.68   603.77   228.05   604.40   228.05   605.18 " style="stroke-width: 0.85 ;&st7; "/>
	<path d=" M  228.05,  605.18  C  228.05   605.97   228.68   606.60   229.46   606.60 " style="stroke-width: 0.85 ;&st7; "/>
	<path d=" M  229.46,  606.60  C  230.24   606.60   230.88   605.97   230.88   605.18 " style="stroke-width: 0.85 ;&st7; "/>
	<path d=" M  213.88,  588.19  C  213.88   587.40   213.25   586.77   212.46   586.77 " style="stroke-width: 0.85 ;&st7; "/>
	<path d=" M  212.46,  586.77  C  211.68   586.77   211.05   587.40   211.05   588.19 " style="stroke-width: 0.85 ;&st7; "/>
	<path d=" M  211.05,  588.19  C  211.05   588.97   211.68   589.60   212.46   589.60 " style="stroke-width: 0.85 ;&st7; "/>
	<path d=" M  212.46,  589.60  C  213.25   589.60   213.88   588.97   213.88   588.19 " style="stroke-width: 0.85 ;&st7; "/>
	<path d=" M  230.88,  588.19  C  230.88   587.40   230.24   586.77   229.46   586.77 " style="stroke-width: 0.85 ;&st7; "/>
	<path d=" M  229.46,  586.77  C  228.68   586.77   228.05   587.40   228.05   588.19 " style="stroke-width: 0.85 ;&st7; "/>
	<path d=" M  228.05,  588.19  C  228.05   588.97   228.68   589.60   229.46   589.60 " style="stroke-width: 0.85 ;&st7; "/>
	<path d=" M  229.46,  589.60  C  230.24   589.60   230.88   588.97   230.88   588.19 " style="stroke-width: 0.85 ;&st7; "/>
	<path d=" M  213.88,  571.19  C  213.88   570.41   213.25   569.77   212.46   569.77 " style="stroke-width: 0.85 ;&st7; "/>
	<path d=" M  212.46,  569.77  C  211.68   569.77   211.05   570.41   211.05   571.19 " style="stroke-width: 0.85 ;&st7; "/>
	<path d=" M  211.05,  571.19  C  211.05   571.97   211.68   572.61   212.46   572.61 " style="stroke-width: 0.85 ;&st7; "/>
	<path d=" M  212.46,  572.61  C  213.25   572.61   213.88   571.97   213.88   571.19 " style="stroke-width: 0.85 ;&st7; "/>
	<path d=" M  230.88,  571.19  C  230.88   570.41   230.24   569.77   229.46   569.77 " style="stroke-width: 0.85 ;&st7; "/>
	<path d=" M  229.46,  569.77  C  228.68   569.77   228.05   570.41   228.05   571.19 " style="stroke-width: 0.85 ;&st7; "/>
	<path d=" M  228.05,  571.19  C  228.05   571.97   228.68   572.61   229.46   572.61 " style="stroke-width: 0.85 ;&st7; "/>
	<path d=" M  229.46,  572.61  C  230.24   572.61   230.88   571.97   230.88   571.19 " style="stroke-width: 0.85 ;&st7; "/>
	<path d=" M  196.88,  588.19  C  196.88   587.40   196.25   586.77   195.47   586.77 " style="stroke-width: 0.85 ;&st7; "/>
	<path d=" M  195.47,  586.77  C  194.69   586.77   194.05   587.40   194.05   588.19 " style="stroke-width: 0.85 ;&st7; "/>
	<path d=" M  194.05,  588.19  C  194.05   588.97   194.69   589.60   195.47   589.60 " style="stroke-width: 0.85 ;&st7; "/>
	<path d=" M  195.47,  589.60  C  196.25   589.60   196.88   588.97   196.88   588.19 " style="stroke-width: 0.85 ;&st7; "/>
	<path d=" M  101.98,  256.74  C  103.94   256.74   105.52   255.16   105.52   253.20 " style="stroke-width: 0.85 ;&st7; "/>
	<path d=" M  105.52,  253.20  C  105.52   251.25   103.94   249.66   101.98   249.66 " style="stroke-width: 0.85 ;&st7; "/>
	<path d=" M  101.98,  249.66  C  100.99   249.66   100.15   250.02    99.45   250.72 " style="stroke-width: 0.85 ;&st7; "/>
	<path d=" M   99.45,  250.72  C  100.82   252.12   103.06   252.14   104.46   250.77 " style="stroke-width: 0.85 ;&st7; "/>
	<path d=" M  104.46,  250.77  C  105.86   249.40   105.88   247.16   104.51   245.77 " style="stroke-width: 0.85 ;&st7; "/>
	<path d=" M  104.51,  245.77  C  103.14   244.37   100.90   244.35    99.50   245.71 " style="stroke-width: 0.85 ;&st7; "/>
	<path d=" M   99.50,  245.71  C   99.49   245.73    99.47   245.75    99.45   245.77 " style="stroke-width: 0.85 ;&st7; "/>
	<path d=" M   99.45,  245.77  C  100.82   247.16   103.06   247.19   104.46   245.82 " style="stroke-width: 0.85 ;&st7; "/>
	<path d=" M  104.46,  245.82  C  105.86   244.45   105.88   242.20   104.51   240.81 " style="stroke-width: 0.85 ;&st7; "/>
	<path d=" M  104.51,  240.81  C  103.82   240.10   102.97   239.74   101.98   239.74 " style="stroke-width: 0.85 ;&st7; "/>
	<path d=" M  128.90,  236.91  C  128.90   236.13   128.26   235.50   127.48   235.50 " style="stroke-width: 0.85 ;&st7; "/>
	<path d=" M  127.48,  235.50  C  126.70   235.50   126.06   236.13   126.06   236.91 " style="stroke-width: 0.85 ;&st7; "/>
	<path d=" M  126.06,  236.91  C  126.06   237.69   126.70   238.33   127.48   238.33 " style="stroke-width: 0.85 ;&st7; "/>
	<path d=" M  127.48,  238.33  C  128.26   238.33   128.90   237.69   128.90   236.91 " style="stroke-width: 0.85 ;&st7; "/>
	<path d=" M  128.90,  259.58  C  128.90   258.79   128.26   258.16   127.48   258.16 " style="stroke-width: 0.85 ;&st7; "/>
	<path d=" M  127.48,  258.16  C  126.70   258.16   126.06   258.79   126.06   259.58 " style="stroke-width: 0.85 ;&st7; "/>
	<path d=" M  126.06,  259.58  C  126.06   260.36   126.70   260.99   127.48   260.99 " style="stroke-width: 0.85 ;&st7; "/>
	<path d=" M  127.48,  260.99  C  128.26   260.99   128.90   260.36   128.90   259.58 " style="stroke-width: 0.85 ;&st7; "/>
	<path d=" M  133.14,  248.24  C  133.14   247.46   132.51   246.83   131.73   246.83 " style="stroke-width: 0.85 ;&st7; "/>
	<path d=" M  131.73,  246.83  C  130.95   246.83   130.31   247.46   130.31   248.24 " style="stroke-width: 0.85 ;&st7; "/>
	<path d=" M  130.31,  248.24  C  130.31   249.03   130.95   249.66   131.73   249.66 " style="stroke-width: 0.85 ;&st7; "/>
	<path d=" M  131.73,  249.66  C  132.51   249.66   133.14   249.03   133.14   248.24 " style="stroke-width: 0.85 ;&st7; "/>
	<path d=" M  101.98,   47.11  C   99.25    48.72    98.33    52.25    99.95    54.99 " style="stroke-width: 1.42 ;&st7; "/>
	<path d=" M   99.95,   54.99  C  100.47    55.87   101.10    56.51   101.98    57.03 " style="stroke-width: 1.42 ;&st7; "/>
	<path d=" M  101.98,   66.94  C  104.72    65.33   105.63    61.80   104.02    59.06 " style="stroke-width: 1.42 ;&st7; "/>
	<path d=" M  104.02,   59.06  C  103.50    58.18   102.86    57.55   101.98    57.03 " style="stroke-width: 1.42 ;&st7; "/>
	<path d=" M  103.40,   45.69  C  103.40    44.91   102.77    44.28   101.98    44.28 " style="stroke-width: 0.85 ;&st7; "/>
	<path d=" M  101.98,   44.28  C  101.20    44.28   100.57    44.91   100.57    45.69 " style="stroke-width: 0.85 ;&st7; "/>
	<path d=" M  100.57,   45.69  C  100.57    46.48   101.20    47.11   101.98    47.11 " style="stroke-width: 0.85 ;&st7; "/>
	<path d=" M  101.98,   47.11  C  102.77    47.11   103.40    46.48   103.40    45.69 " style="stroke-width: 0.85 ;&st7; "/>
	<path d=" M  103.40,   68.36  C  103.40    67.57   102.77    66.94   101.98    66.94 " style="stroke-width: 0.85 ;&st7; "/>
	<path d=" M  101.98,   66.94  C  101.20    66.94   100.57    67.57   100.57    68.36 " style="stroke-width: 0.85 ;&st7; "/>
	<path d=" M  100.57,   68.36  C  100.57    69.14   101.20    69.77   101.98    69.77 " style="stroke-width: 0.85 ;&st7; "/>
	<path d=" M  101.98,   69.77  C  102.77    69.77   103.40    69.14   103.40    68.36 " style="stroke-width: 0.85 ;&st7; "/>
	<path d=" M   99.86,  103.77  C   97.51   103.77    95.61   105.67    95.61   108.02 " style="stroke-width: 1.42 ;&st7; "/>
	<path d=" M   95.61,  108.02  C   95.61   110.36    97.51   112.27    99.86   112.27 " style="stroke-width: 1.42 ;&st7; "/>
	<path d=" M  104.11,  112.27  C  106.45   112.27   108.36   110.36   108.36   108.02 " style="stroke-width: 1.42 ;&st7; "/>
	<path d=" M  108.36,  108.02  C  108.36   105.67   106.45   103.77   104.11   103.77 " style="stroke-width: 1.42 ;&st7; "/>
	<path d=" M  222.38,   68.36  C  222.38    67.57   221.75    66.94   220.96    66.94 " style="stroke-width: 0.85 ;&st7; "/>
	<path d=" M  220.96,   66.94  C  220.18    66.94   219.55    67.57   219.55    68.36 " style="stroke-width: 0.85 ;&st7; "/>
	<path d=" M  219.55,   68.36  C  219.55    69.14   220.18    69.77   220.96    69.77 " style="stroke-width: 0.85 ;&st7; "/>
	<path d=" M  220.96,   69.77  C  221.75    69.77   222.38    69.14   222.38    68.36 " style="stroke-width: 0.85 ;&st7; "/>
	<path d=" M  222.38,   45.69  C  222.38    44.91   221.75    44.28   220.96    44.28 " style="stroke-width: 0.85 ;&st7; "/>
	<path d=" M  220.96,   44.28  C  220.18    44.28   219.55    44.91   219.55    45.69 " style="stroke-width: 0.85 ;&st7; "/>
	<path d=" M  219.55,   45.69  C  219.55    46.48   220.18    47.11   220.96    47.11 " style="stroke-width: 0.85 ;&st7; "/>
	<path d=" M  220.96,   47.11  C  221.75    47.11   222.38    46.48   222.38    45.69 " style="stroke-width: 0.85 ;&st7; "/>
	<path d=" M  220.96,   66.94  C  221.82    64.02   221.16    61.13   219.12    58.87 " style="stroke-width: 1.42 ;&st7; "/>
	<path d=" M  220.96,   66.94  C  223.13    63.92   223.13    60.05   220.96    57.03 " style="stroke-width: 1.42 ;&st7; "/>
	<path d=" M  220.96,   66.94  C  224.68    64.17   225.50    58.96   222.80    55.19 " style="stroke-width: 1.42 ;&st7; "/>
	<path d=" M  220.96,   47.11  C  217.25    49.88   216.43    55.10   219.12    58.87 " style="stroke-width: 1.42 ;&st7; "/>
	<path d=" M  220.96,   47.11  C  218.79    50.13   218.79    54.00   220.96    57.03 " style="stroke-width: 1.42 ;&st7; "/>
	<path d=" M  220.96,   47.11  C  220.11    50.03   220.77    52.92   222.81    55.18 " style="stroke-width: 1.42 ;&st7; "/>
	<path d=" M   43.91,  440.88  C   43.91   440.10    43.28   439.46    42.49   439.46 " style="stroke-width: 0.85 ;&st7; "/>
	<path d=" M   42.49,  439.46  C   41.71   439.46    41.08   440.10    41.08   440.88 " style="stroke-width: 0.85 ;&st7; "/>
	<path d=" M   41.08,  440.88  C   41.08   441.66    41.71   442.29    42.49   442.29 " style="stroke-width: 0.85 ;&st7; "/>
	<path d=" M   42.49,  442.29  C   43.28   442.29    43.91   441.66    43.91   440.88 " style="stroke-width: 0.85 ;&st7; "/>
	<path d=" M   42.49,  413.97  C   44.05   413.98    45.32   412.72    45.33   411.17 " style="stroke-width: 0.85 ;&st7; "/>
	<path d=" M   45.33,  411.17  C   45.34   409.61    44.08   408.34    42.53   408.33 " style="stroke-width: 0.85 ;&st7; "/>
	<path d=" M   42.53,  408.33  C   41.49   408.33    40.61   408.83    40.09   409.72 " style="stroke-width: 0.85 ;&st7; "/>
	<path d=" M   40.08,  409.72  C   40.88   411.06    42.60   411.50    43.94   410.71 " style="stroke-width: 0.85 ;&st7; "/>
	<path d=" M   43.94,  410.71  C   45.28   409.92    45.73   408.19    44.93   406.85 " style="stroke-width: 0.85 ;&st7; "/>
	<path d=" M   44.93,  406.85  C   44.41   405.96    43.53   405.46    42.49   405.47 " style="stroke-width: 0.85 ;&st7; "/>
	<path d=" M   50.99,  409.72  C   50.99   405.02    47.19   401.22    42.49   401.22 " style="stroke-width: 1.42 ;&st7; "/>
	<path d=" M   42.49,  401.22  C   37.80   401.22    33.99   405.02    33.99   409.72 " style="stroke-width: 1.42 ;&st7; "/>
	<path d=" M   33.99,  409.72  C   33.99   414.41    37.80   418.22    42.49   418.22 " style="stroke-width: 1.42 ;&st7; "/>
	<path d=" M   42.49,  418.22  C   47.19   418.22    50.99   414.41    50.99   409.72 " style="stroke-width: 1.42 ;&st7; "/>
	<path d=" M   43.91,  463.54  C   43.91   462.76    43.28   462.12    42.49   462.12 " style="stroke-width: 0.85 ;&st7; "/>
	<path d=" M   42.49,  462.12  C   41.71   462.12    41.08   462.76    41.08   463.54 " style="stroke-width: 0.85 ;&st7; "/>
	<path d=" M   41.08,  463.54  C   41.08   464.32    41.71   464.96    42.49   464.96 " style="stroke-width: 0.85 ;&st7; "/>
	<path d=" M   42.49,  464.96  C   43.28   464.96    43.91   464.32    43.91   463.54 " style="stroke-width: 0.85 ;&st7; "/>
	<path d=" M   40.37,  103.77  C   38.02   103.77    36.12   105.67    36.12   108.02 " style="stroke-width: 1.42 ;&st7; "/>
	<path d=" M   36.12,  108.02  C   36.12   110.36    38.02   112.27    40.37   112.27 " style="stroke-width: 1.42 ;&st7; "/>
	<path d=" M   44.62,  112.27  C   46.96   112.27    48.87   110.36    48.87   108.02 " style="stroke-width: 1.42 ;&st7; "/>
	<path d=" M   48.87,  108.02  C   48.87   105.67    46.96   103.77    44.62   103.77 " style="stroke-width: 1.42 ;&st7; "/>
	<path d=" M  179.89,  416.80  C  179.89   416.02   179.25   415.38   178.47   415.38 " style="stroke-width: 0.85 ;&st7; "/>
	<path d=" M  178.47,  415.38  C  177.69   415.38   177.05   416.02   177.05   416.80 " style="stroke-width: 0.85 ;&st7; "/>
	<path d=" M  177.05,  416.80  C  177.05   417.58   177.69   418.22   178.47   418.22 " style="stroke-width: 0.85 ;&st7; "/>
	<path d=" M  178.47,  418.22  C  179.25   418.22   179.89   417.58   179.89   416.80 " style="stroke-width: 0.85 ;&st7; "/>
	<path d=" M  179.89,  394.14  C  179.89   393.35   179.25   392.72   178.47   392.72 " style="stroke-width: 0.85 ;&st7; "/>
	<path d=" M  178.47,  392.72  C  177.69   392.72   177.05   393.35   177.05   394.14 " style="stroke-width: 0.85 ;&st7; "/>
	<path d=" M  177.05,  394.14  C  177.05   394.92   177.69   395.55   178.47   395.55 " style="stroke-width: 0.85 ;&st7; "/>
	<path d=" M  178.47,  395.55  C  179.25   395.55   179.89   394.92   179.89   394.14 " style="stroke-width: 0.85 ;&st7; "/>
	<path d=" M  178.47,  415.38  C  181.21   413.77   182.12   410.24   180.51   407.50 " style="stroke-width: 1.42 ;&st7; "/>
	<path d=" M  180.51,  407.50  C  179.99   406.62   179.35   405.99   178.47   405.47 " style="stroke-width: 1.42 ;&st7; "/>
	<path d=" M  178.47,  395.55  C  175.73   397.17   174.82   400.69   176.43   403.43 " style="stroke-width: 1.42 ;&st7; "/>
	<path d=" M  176.43,  403.43  C  176.95   404.31   177.59   404.95   178.47   405.47 " style="stroke-width: 1.42 ;&st7; "/>
	<path d=" M  335.69,  291.88  C  331.63   294.22   330.24   299.42   332.58   303.48 " style="stroke-width: 1.42 ;&st7; "/>
	<path d=" M  332.58,  303.48  C  333.37   304.84   334.34   305.81   335.69   306.60 " style="stroke-width: 1.42 ;&st7; "/>
	<path d=" M  344.19,  306.60  C  348.26   304.25   349.65   299.05   347.30   294.99 " style="stroke-width: 1.42 ;&st7; "/>
	<path d=" M  347.30,  294.99  C  346.52   293.63   345.55   292.66   344.19   291.88 " style="stroke-width: 1.42 ;&st7; "/>
	<path d=" M  344.19,  291.88  C  341.48   290.31   338.40   290.31   335.69   291.88 " style="stroke-width: 1.42 ;&st7; "/>
	<path d=" M  335.69,  306.60  C  338.40   308.16   341.48   308.16   344.19   306.60 " style="stroke-width: 1.42 ;&st7; "/>
	<path d=" M  417.85,  605.18  C  417.85   604.40   417.21   603.77   416.43   603.77 " style="stroke-width: 0.85 ;&st7; "/>
	<path d=" M  416.43,  603.77  C  415.65   603.77   415.01   604.40   415.01   605.18 " style="stroke-width: 0.85 ;&st7; "/>
	<path d=" M  415.01,  605.18  C  415.01   605.97   415.65   606.60   416.43   606.60 " style="stroke-width: 0.85 ;&st7; "/>
	<path d=" M  416.43,  606.60  C  417.21   606.60   417.85   605.97   417.85   605.18 " style="stroke-width: 0.85 ;&st7; "/>
	<path d=" M  392.35,  571.19  C  392.35   570.41   391.72   569.77   390.93   569.77 " style="stroke-width: 0.85 ;&st7; "/>
	<path d=" M  390.93,  569.77  C  390.15   569.77   389.52   570.41   389.52   571.19 " style="stroke-width: 0.85 ;&st7; "/>
	<path d=" M  389.52,  571.19  C  389.52   571.97   390.15   572.61   390.93   572.61 " style="stroke-width: 0.85 ;&st7; "/>
	<path d=" M  390.93,  572.61  C  391.72   572.61   392.35   571.97   392.35   571.19 " style="stroke-width: 0.85 ;&st7; "/>
	<path d=" M  443.34,  554.19  C  443.34   553.41   442.71   552.78   441.93   552.78 " style="stroke-width: 0.85 ;&st7; "/>
	<path d=" M  441.93,  552.78  C  441.14   552.78   440.51   553.41   440.51   554.19 " style="stroke-width: 0.85 ;&st7; "/>
	<path d=" M  440.51,  554.19  C  440.51   554.97   441.14   555.61   441.93   555.61 " style="stroke-width: 0.85 ;&st7; "/>
	<path d=" M  441.93,  555.61  C  442.71   555.61   443.34   554.97   443.34   554.19 " style="stroke-width: 0.85 ;&st7; "/>
	<path d=" M  417.85,  554.19  C  417.85   553.41   417.21   552.78   416.43   552.78 " style="stroke-width: 0.85 ;&st7; "/>
	<path d=" M  416.43,  552.78  C  415.65   552.78   415.01   553.41   415.01   554.19 " style="stroke-width: 0.85 ;&st7; "/>
	<path d=" M  415.01,  554.19  C  415.01   554.97   415.65   555.61   416.43   555.61 " style="stroke-width: 0.85 ;&st7; "/>
	<path d=" M  416.43,  555.61  C  417.21   555.61   417.85   554.97   417.85   554.19 " style="stroke-width: 0.85 ;&st7; "/>
	<path d=" M  443.34,  571.19  C  443.34   570.41   442.71   569.77   441.93   569.77 " style="stroke-width: 0.85 ;&st7; "/>
	<path d=" M  441.93,  569.77  C  441.14   569.77   440.51   570.41   440.51   571.19 " style="stroke-width: 0.85 ;&st7; "/>
	<path d=" M  440.51,  571.19  C  440.51   571.97   441.14   572.61   441.93   572.61 " style="stroke-width: 0.85 ;&st7; "/>
	<path d=" M  441.93,  572.61  C  442.71   572.61   443.34   571.97   443.34   571.19 " style="stroke-width: 0.85 ;&st7; "/>
	<path d=" M  417.85,  571.19  C  417.85   570.41   417.21   569.77   416.43   569.77 " style="stroke-width: 0.85 ;&st7; "/>
	<path d=" M  416.43,  569.77  C  415.65   569.77   415.01   570.41   415.01   571.19 " style="stroke-width: 0.85 ;&st7; "/>
	<path d=" M  415.01,  571.19  C  415.01   571.97   415.65   572.61   416.43   572.61 " style="stroke-width: 0.85 ;&st7; "/>
	<path d=" M  416.43,  572.61  C  417.21   572.61   417.85   571.97   417.85   571.19 " style="stroke-width: 0.85 ;&st7; "/>
	<path d=" M  443.34,  588.19  C  443.34   587.40   442.71   586.77   441.93   586.77 " style="stroke-width: 0.85 ;&st7; "/>
	<path d=" M  441.93,  586.77  C  441.14   586.77   440.51   587.40   440.51   588.19 " style="stroke-width: 0.85 ;&st7; "/>
	<path d=" M  440.51,  588.19  C  440.51   588.97   441.14   589.60   441.93   589.60 " style="stroke-width: 0.85 ;&st7; "/>
	<path d=" M  441.93,  589.60  C  442.71   589.60   443.34   588.97   443.34   588.19 " style="stroke-width: 0.85 ;&st7; "/>
	<path d=" M  417.85,  588.19  C  417.85   587.40   417.21   586.77   416.43   586.77 " style="stroke-width: 0.85 ;&st7; "/>
	<path d=" M  416.43,  586.77  C  415.65   586.77   415.01   587.40   415.01   588.19 " style="stroke-width: 0.85 ;&st7; "/>
	<path d=" M  415.01,  588.19  C  415.01   588.97   415.65   589.60   416.43   589.60 " style="stroke-width: 0.85 ;&st7; "/>
	<path d=" M  416.43,  589.60  C  417.21   589.60   417.85   588.97   417.85   588.19 " style="stroke-width: 0.85 ;&st7; "/>
	<path d=" M  366.86,  588.19  C  366.86   587.40   366.22   586.77   365.44   586.77 " style="stroke-width: 0.85 ;&st7; "/>
	<path d=" M  365.44,  586.77  C  364.66   586.77   364.02   587.40   364.02   588.19 " style="stroke-width: 0.85 ;&st7; "/>
	<path d=" M  364.02,  588.19  C  364.02   588.97   364.66   589.60   365.44   589.60 " style="stroke-width: 0.85 ;&st7; "/>
	<path d=" M  365.44,  589.60  C  366.22   589.60   366.86   588.97   366.86   588.19 " style="stroke-width: 0.85 ;&st7; "/>
	<path d=" M  443.34,  605.18  C  443.34   604.40   442.71   603.77   441.93   603.77 " style="stroke-width: 0.85 ;&st7; "/>
	<path d=" M  441.93,  603.77  C  441.14   603.77   440.51   604.40   440.51   605.18 " style="stroke-width: 0.85 ;&st7; "/>
	<path d=" M  440.51,  605.18  C  440.51   605.97   441.14   606.60   441.93   606.60 " style="stroke-width: 0.85 ;&st7; "/>
	<path d=" M  441.93,  606.60  C  442.71   606.60   443.34   605.97   443.34   605.18 " style="stroke-width: 0.85 ;&st7; "/>
	<path d=" M  341.36,  605.18  C  341.36   604.40   340.73   603.77   339.94   603.77 " style="stroke-width: 0.85 ;&st7; "/>
	<path d=" M  339.94,  603.77  C  339.16   603.77   338.53   604.40   338.53   605.18 " style="stroke-width: 0.85 ;&st7; "/>
	<path d=" M  338.53,  605.18  C  338.53   605.97   339.16   606.60   339.94   606.60 " style="stroke-width: 0.85 ;&st7; "/>
	<path d=" M  339.94,  606.60  C  340.73   606.60   341.36   605.97   341.36   605.18 " style="stroke-width: 0.85 ;&st7; "/>
	<path d=" M  218.84,   95.27  C  216.49    95.27   214.59    97.17   214.59    99.52 " style="stroke-width: 1.42 ;&st7; "/>
	<path d=" M  214.59,   99.52  C  214.59   101.87   216.49   103.77   218.84   103.77 " style="stroke-width: 1.42 ;&st7; "/>
	<path d=" M  223.09,  103.77  C  225.43   103.77   227.34   101.87   227.34    99.52 " style="stroke-width: 1.42 ;&st7; "/>
	<path d=" M  227.34,   99.52  C  227.34    97.17   225.43    95.27   223.09    95.27 " style="stroke-width: 1.42 ;&st7; "/>
	<path d=" M  214.59,  108.02  C  214.59   110.36   216.49   112.27   218.84   112.27 " style="stroke-width: 1.42 ;&st7; "/>
	<path d=" M  218.84,  103.77  C  216.49   103.77   214.59   105.67   214.59   108.02 " style="stroke-width: 1.42 ;&st7; "/>
	<path d=" M  227.34,  108.02  C  227.34   105.67   225.43   103.77   223.09   103.77 " style="stroke-width: 1.42 ;&st7; "/>
	<path d=" M  223.09,  112.27  C  225.43   112.27   227.34   110.36   227.34   108.02 " style="stroke-width: 1.42 ;&st7; "/>
	<path d=" M  106.52,  150.23  C  106.52   147.72   104.49   145.69   101.98   145.69 " style="stroke-width: 1.42 ;&st7; "/>
	<path d=" M  101.98,  145.69  C   99.48   145.69    97.45   147.72    97.45   150.23 " style="stroke-width: 1.42 ;&st7; "/>
	<path d=" M   97.45,  150.23  C   97.45   152.73    99.48   154.76   101.98   154.76 " style="stroke-width: 1.42 ;&st7; "/>
	<path d=" M  101.98,  154.76  C  104.49   154.76   106.52   152.73   106.52   150.23 " style="stroke-width: 1.42 ;&st7; "/>
	<path d=" M  106.52,  141.16  C  106.52   138.66   104.49   136.63   101.98   136.63 " style="stroke-width: 1.42 ;&st7; "/>
	<path d=" M  101.98,  136.63  C   99.48   136.63    97.45   138.66    97.45   141.16 " style="stroke-width: 1.42 ;&st7; "/>
	<path d=" M   97.45,  141.16  C   97.45   143.66    99.48   145.69   101.98   145.69 " style="stroke-width: 1.42 ;&st7; "/>
	<path d=" M  101.98,  145.69  C  104.49   145.69   106.52   143.66   106.52   141.16 " style="stroke-width: 1.42 ;&st7; "/>
	<path d=" M  106.52,  185.35  C  106.52   182.85   104.49   180.82   101.98   180.82 " style="stroke-width: 1.42 ;&st7; "/>
	<path d=" M  101.98,  180.82  C   99.48   180.82    97.45   182.85    97.45   185.35 " style="stroke-width: 1.42 ;&st7; "/>
	<path d=" M   97.45,  185.35  C   97.45   187.86    99.48   189.89   101.98   189.89 " style="stroke-width: 1.42 ;&st7; "/>
	<path d=" M  101.98,  189.89  C  104.49   189.89   106.52   187.86   106.52   185.35 " style="stroke-width: 1.42 ;&st7; "/>
	<path d=" M  106.52,  176.29  C  106.52   173.79   104.49   171.76   101.98   171.76 " style="stroke-width: 1.42 ;&st7; "/>
	<path d=" M  101.98,  171.76  C   99.48   171.76    97.45   173.79    97.45   176.29 " style="stroke-width: 1.42 ;&st7; "/>
	<path d=" M   97.45,  176.29  C   97.45   178.79    99.48   180.82   101.98   180.82 " style="stroke-width: 1.42 ;&st7; "/>
	<path d=" M  101.98,  180.82  C  104.49   180.82   106.52   178.79   106.52   176.29 " style="stroke-width: 1.42 ;&st7; "/>
	<text ewd:textID="10" style="&st18;" transform="matrix(&st16;  56.97  492.42 )">Cooler Control SW <tspan dy="6" x="0">(Rear)</tspan></text>
	<text style="&st18;" transform="matrix(&st16;  56.97  485.32 )">C15</text>
	<text ewd:textID="13" style="&st18;" transform="matrix(&st17;  83.84  267.77 )">Rear Cooler <tspan dy="6" x="-0.01">Relay</tspan></text>
	<text style="&st18;" transform="matrix(&st17;  76.73  267.77 )">R10</text>
	<text style="&st18;" transform="matrix(&st17;  336.25  335.8 )">R-B</text>
	<text style="&st18;" transform="matrix(&st16;  307.45  590.16 )">M2</text>
	<text style="&st18;" transform="matrix(&st16;  307.84  573.16 )">M1</text>
	<text style="&st18;" transform="matrix(&st16;  305.33  539.16 )">OFF</text>
	<text style="&st18;" transform="matrix(&st16;  307.59  556.16 )">LO</text>
	<text style="&st18;" transform="matrix(&st16;  308.86  607.15 )">HI</text>
	<text style="&st18;" transform="matrix(&st17;  21.8  633.17 )">BR(*2)</text>
	<text style="&st18;" transform="matrix(&st17;  449.56  641.11 )">(*2)</text>
	<text style="&st18;" transform="matrix(&st17;  424.07  641.11 )">(*2)</text>
	<text style="&st18;" transform="matrix(&st17;  438.23  642.63 )">W-B</text>
	<text style="&st18;" transform="matrix(&st17;  412.73  639.73 )">BR</text>
	<text style="&st18;" transform="matrix(&st16;  292.95  508.0 )">Y-R(*2)</text>
	<text style="&st18;" transform="matrix(&st16;  297.44  482.51 )">V(*2)</text>
	<text style="&st18;" transform="matrix(&st16;  294.93  621.29 )">B14</text>
	<text ewd:textID="9" style="&st18;" transform="matrix(&st16;  294.93  628.4 )">Blower SW (Rear)</text>
	<text style="&st18;" transform="matrix(&st16;  465.95  660.98 )">10</text>
	<text style="&st18;" transform="matrix(&st16;  333.93  525.01 )">1</text>
	<text style="&st18;" transform="matrix(&st16;  358.65  525.01 )">2</text>
	<text style="&st18;" transform="matrix(&st16;  384.15  525.01 )">3</text>
	<text ewd:textID="9" style="&st18;" transform="matrix(&st17;  132.28  616.21 )">Blower SW (Rear)</text>
	<text style="&st18;" transform="matrix(&st17;  125.17  616.21 )">B12</text>
	<text ewd:textID="11" style="&st18;" transform="matrix(&st17;  507.64  675.7 )">Junction <tspan dy="6" x="0">Connector</tspan></text>
	<text style="&st18;" transform="matrix(&st17;  500.53  675.7 )">J34</text>
	<text style="&st18;" transform="matrix(&st16;  52.4  568.91 )">(*3)</text>
	<text style="&st18;" transform="matrix(&st16;  52.4  560.41 )">(*4)</text>
	<text style="&st18;" transform="matrix(&st16;  27.68  560.41 )">7</text>
	<text style="&st18;" transform="matrix(&st16;  24.5  568.91 )">18</text>
	<text style="&st18;" transform="matrix(&st17;  50.13  610.98 )">(*1)</text>
	<text style="&st18;" transform="matrix(&st17;  220.1  504.74 )">(*1)</text>
	<text style="&st18;" transform="matrix(&st17;  186.11  504.74 )">(*1)</text>
	<text style="&st18;" transform="matrix(&st16;  217.04  109.99 )">1B</text>
	<text style="&st18;" transform="matrix(&st16;  216.9  101.49 )">1D</text>
	<text style="&st18;" transform="matrix(&st16;  208.27  109.99 )">2</text>
	<text style="&st18;" transform="matrix(&st16;  209.05  101.49 )">1</text>
	<text style="&st18;" transform="matrix(&st16;  228.75  101.49 )">(*1)</text>
	<text style="&st18;" transform="matrix(&st16;  228.75  109.99 )">(*2)</text>
	<text style="&st18;" transform="matrix(&st16;  409.64  621.88 )">4</text>
	<text style="&st18;" transform="matrix(&st16;  435.14  621.88 )">5</text>
	<text ewd:textID="1" style="&st18;" transform="matrix(&st16;  277.93  71.74 )">* 1 :Before Aug. 2008 Production</text>
	<text ewd:textID="2" style="&st18;" transform="matrix(&st16;  277.93  80.24 )">* 2 :From Aug. 2008 Production</text>
	<text ewd:textID="3" style="&st18;" transform="matrix(&st16;  277.93  88.74 )">* 3 :LHD From Aug. 2008 Production</text>
	<text ewd:textID="4" style="&st18;" transform="matrix(&st16;  277.93  97.24 )">* 4 :Except *3</text>
	<text style="&st18;" transform="matrix(&st16;  111.89  339.45 )">(*3)</text>
	<text style="&st18;" transform="matrix(&st16;  111.89  330.95 )">(*4)</text>
	<text style="&st18;" transform="matrix(&st16;  87.17  339.45 )">8</text>
	<text style="&st18;" transform="matrix(&st16;  87.17  330.95 )">6</text>
	<text style="&st18;" transform="matrix(&st17;  225.77  642.63 )">W-B</text>
	<text style="&st18;" transform="matrix(&st17;  237.1  640.72 )">(*1)</text>
	<text style="&st18;" transform="matrix(&st17;  336.25  416.53 )">R-B</text>
	<text style="&st18;" transform="matrix(&st17;  347.58  415.9 )">(*2)</text>
	<text style="&st18;" transform="matrix(&st16;  107.96  152.2 )">(*6)</text>
	<text style="&st18;" transform="matrix(&st16;  99.65  152.2 )">A</text>
	<text style="&st18;" transform="matrix(&st16;  91.11  152.2 )">5</text>
	<text style="&st18;" transform="matrix(&st16;  107.96  143.13 )">(*5)</text>
	<text style="&st18;" transform="matrix(&st16;  99.65  143.13 )">A</text>
	<text style="&st18;" transform="matrix(&st16;  91.11  143.13 )">7</text>
	<text style="&st18;" transform="matrix(&st16;  107.96  187.32 )">(*6)</text>
	<text style="&st18;" transform="matrix(&st16;  99.65  187.32 )">A</text>
	<text style="&st18;" transform="matrix(&st16;  91.11  187.32 )">6</text>
	<text style="&st18;" transform="matrix(&st16;  107.96  178.26 )">(*5)</text>
	<text style="&st18;" transform="matrix(&st16;  99.65  178.26 )">A</text>
	<text style="&st18;" transform="matrix(&st16;  91.11  178.26 )">8</text>
	<text ewd:textID="5" style="&st18;" transform="matrix(&st16;  277.93  105.74 )">* 5 :Before Aug. 2013 Production</text>
	<text ewd:textID="6" style="&st18;" transform="matrix(&st16;  277.93  114.24 )">* 6 :From Aug. 2013 Production</text>
	<text style="&st18;" transform="matrix(&st16;  290.63  346.53 )">R-B</text>
	<text style="&st18;" transform="matrix(&st16;  256.67  477.4 )">4</text>
	<text style="&st18;" transform="matrix(&st17;  208.77  505.77 )">Y-R</text>
	<text style="&st18;" transform="matrix(&st16;  189.45  542.0 )">1</text>
	<text style="&st18;" transform="matrix(&st16;  222.67  621.88 )">3</text>
	<text style="&st18;" transform="matrix(&st16;  205.68  621.88 )">4</text>
	<text style="&st18;" transform="matrix(&st16;  149.51  607.15 )">HI</text>
	<text ewd:textID="12" style="&st18;" transform="matrix(&st16;  148.1  590.16 )">Me</text>
	<text style="&st18;" transform="matrix(&st17;  174.77  501.28 )">P</text>
	<text style="&st18;" transform="matrix(&st16;  145.98  556.16 )">OFF</text>
	<text style="&st18;" transform="matrix(&st16;  148.24  573.16 )">LO</text>
	<text style="&st18;" transform="matrix(&st16;  171.68  542.0 )">2</text>
	<text style="&st18;" transform="matrix(&st16;  205.68  477.4 )">2</text>
	<text style="&st18;" transform="matrix(&st16;  477.62  652.49 )">6</text>
	<text style="&st18;" transform="matrix(&st17;  98.29  297.06 )">L-B</text>
	<text style="&st18;" transform="matrix(&st17;  98.29  216.46 )">R-L</text>
	<text style="&st18;" transform="matrix(&st16;  171.68  477.4 )">3</text>
	<text style="&st18;" transform="matrix(&st16;  138.81  244.55 )">4</text>
	<text style="&st18;" transform="matrix(&st16;  121.46  227.56 )">1</text>
	<text style="&st18;" transform="matrix(&st16;  120.69  273.43 )">2</text>
	<text style="&st18;" transform="matrix(&st16;  95.19  227.56 )">3</text>
	<text style="&st18;" transform="matrix(&st16;  95.19  273.43 )">5</text>
	<text style="&st18;" transform="matrix(&st16;  162.27  244.55 )">W-B</text>
	<text style="&st18;" transform="matrix(&st17;  480.72  629.88 )">W-B</text>
	<text style="&st18;" transform="matrix(&st17;  259.76  536.4 )">W-B</text>
	<text style="&st18;" transform="matrix(&st16;  28.37  56.17 )">10A <tspan dy="6" x="0">ECU-IG&amp;GAUGE</tspan></text>
	<text style="&st18;" transform="matrix(&st16;  97.67  109.99 )">2K</text>
	<text style="&st18;" transform="matrix(&st16;  89.29  109.99 )">8</text>
	<text style="&st18;" transform="matrix(&st16;  177.59  56.17 )">40A <tspan dy="6" x="0">RR CLR</tspan></text>
	<text style="&st18;" transform="matrix(&st16;  113.62  160.95 )">J22(A)</text>
	<text style="&st18;" transform="matrix(&st16;  206.15  177.98 )">2</text>
	<text style="&st18;" transform="matrix(&st16;  333.93  318.76 )">1</text>
	<text style="&st18;" transform="matrix(&st16;  333.15  284.21 )">2</text>
	<text style="&st18;" transform="matrix(&st16;  351.58  292.68 )">B10</text>
	<text style="&st18;" transform="matrix(&st17;  123.78  216.72 )">R</text>
	<text style="&st18;" transform="matrix(&st17;  217.27  131.74 )">R</text>
	<text style="&st18;" transform="matrix(&st17;  98.29  131.48 )">R-L</text>
	<text ewd:textID="7" style="&st18;" transform="matrix(&st16;  351.58  299.79 )">Blower Motor <tspan dy="6" x="0">(Rear)</tspan></text>
	<text ewd:textID="11" style="&st18;" transform="matrix(&st16;  113.62  168.06 )">Junction Connector</text>
	<text style="&st18;" transform="matrix(&st17;  38.8  609.99 )">BR</text>
	<text style="&st18;" transform="matrix(&st16;  95.19  389.03 )">4</text>
	<text style="&st18;" transform="matrix(&st16;  35.7  389.03 )">6</text>
	<text style="&st18;" transform="matrix(&st16;  35.7  485.9 )">3</text>
	<text style="&st18;" transform="matrix(&st16;  38.18  109.99 )">2S</text>
	<text style="&st18;" transform="matrix(&st16;  26.62  109.99 )">14</text>
	<text style="&st18;" transform="matrix(&st17;  38.8  135.73 )">R-L</text>
	<text style="&st18;" transform="matrix(&st17;  98.29  373.55 )">L-B</text>
	<text style="&st18;" transform="matrix(&st17;  38.8  373.69 )">R-L</text>
	<text style="&st18;" transform="matrix(&st17;  38.8  516.5 )">BR</text>
	<text style="&st18;" transform="matrix(&st16;  172.45  372.03 )">1</text>
	<text ewd:textID="8" style="&st18;" transform="matrix(&st16;  209.94  372.03 )">Blower Resistor (Rear)</text>
	<text style="&st18;" transform="matrix(&st16;  209.94  364.92 )">B11</text>
	<text style="&st18;" transform="matrix(&st16;  312.47  261.54 )">L</text>
	<text style="&st18;" transform="matrix(&st16;  95.91  32.08 )">(IG)</text>
	<text style="&st18;" transform="matrix(&st16;  211.85  32.08 )">(BAT)</text>
	<text style="&st18;" transform="matrix(&st16;  337.05  301.2 )">M</text>
	<a ewd:code="IJ1" ewd:figID="14" ewd:figtype="w2w" ewd:pinNo="2" style="cursor:pointer;">
		<path d=" M  229.46,  171.76  L  212.46,  171.76  L  212.46,  180.26  L  229.46,  180.26  L  229.46,  171.76 " style="&st2;"/>
		<text style="&st8;" transform="matrix(&st16;  216.39  178.5 )"><tspan style="&st18;" x="0" y="0">IJ1</tspan></text>
	</a>
	<a ewd:code="IA1" ewd:figID="15" ewd:figtype="w2w" ewd:pinNo="7" style="cursor:pointer;">
		<path d=" M   50.99,  554.19  L   33.99,  554.19  L   33.99,  562.69  L   50.99,  562.69  L   50.99,  554.19 " style="&st2;"/>
		<text style="&st8;" transform="matrix(&st16;  37.32  560.94 )"><tspan style="&st18;" x="0" y="0">IA1</tspan></text>
	</a>
	<a ewd:code="IA1" ewd:figID="16" ewd:figtype="w2w" ewd:pinNo="18" style="cursor:pointer;">
		<path d=" M   50.99,  562.69  L   33.99,  562.69  L   33.99,  571.19  L   50.99,  571.19  L   50.99,  562.69 " style="&st2;"/>
		<text style="&st8;" transform="matrix(&st16;  37.32  569.43 )"><tspan style="&st18;" x="0" y="0">IA1</tspan></text>
	</a>
	<a ewd:code="IA1" ewd:figID="17" ewd:figtype="w2w" ewd:pinNo="8" style="cursor:pointer;">
		<path d=" M  110.48,  333.23  L   93.48,  333.23  L   93.48,  341.73  L  110.48,  341.73  L  110.48,  333.23 " style="&st2;"/>
		<text style="&st8;" transform="matrix(&st16;  96.81  339.97 )"><tspan style="&st18;" x="0" y="0">IA1</tspan></text>
	</a>
	<a ewd:code="IA1" ewd:figID="18" ewd:figtype="w2w" ewd:pinNo="6" style="cursor:pointer;">
		<path d=" M  110.48,  324.73  L   93.48,  324.73  L   93.48,  333.23  L  110.48,  333.23  L  110.48,  324.73 " style="&st2;"/>
		<text style="&st8;" transform="matrix(&st16;  96.81  331.47 )"><tspan style="&st18;" x="0" y="0">IA1</tspan></text>
	</a>
	<a ewd:code="BL" ewd:figID="19" ewd:figtype="gp" style="cursor:pointer;">
		<path d=" M  218.84,  681.67  L  240.08,  681.67  L  229.46,  697.25  L  218.84,  681.67 " style="&st2;"/>
		<text style="&st8;" transform="matrix(&st16;  224.93  689.83 )"><tspan style="&st18;" x="0" y="0">BL</tspan></text>
	</a>
	<a ewd:code="II" ewd:figID="20" ewd:figtype="gp" style="cursor:pointer;">
		<path d=" M  473.80,  681.67  L  495.04,  681.67  L  484.42,  697.25  L  473.80,  681.67 " style="&st2;"/>
		<text style="&st8;" transform="matrix(&st16;  482.34  689.83 )"><tspan style="&st18;" x="0" y="0">II</tspan></text>
	</a>
	<a ewd:code="3769" ewd:figID="21" ewd:figtype="sp" style="cursor:pointer;">
		<path d=" M  335.69,  341.73  L  344.19,  341.73  L  348.44,  345.98  L  348.44,  354.48  L  344.19,  358.73  L  335.69,  358.73  L  331.44,  354.48  L  331.44,  345.98  L  335.69,  341.73 " style="&st2;"/>
	</a>
</g>
</svg>