﻿<?xml version="1.0" encoding="utf-8"?>
<!DOCTYPE svg PUBLIC "-//W3C//DTD SVG 1.0//EN" "http://www.w3.org/TR/2001/REC-SVG-20010904/DTD/svg10.dtd"[
	<!ENTITY ns_flows "http://ns.adobe.com/Flows/1.0/">
	<!ENTITY ns_svg "http://www.w3.org/2000/svg">
	<!ENTITY ns_xlink "http://www.w3.org/1999/xlink">
	<!ENTITY st0 "font-size:7px;font-family:'MS-PGothic';adobe-font-script:japanese;">
	<!ENTITY st1 "font-size:6px;font-family:'ArialMT';">
	<!-- White fill  -->
	<!ENTITY st2 "fill:#FFFFFF;stroke:#000000; stroke-width:1.41;stroke-linecap:round;stroke-linejoin:round;">
	<!-- Yellow fill  -->
	<!ENTITY st3 "fill:#FFFFCC;stroke:#FFFFCC; stroke-width:0.1;stroke-linecap:round;stroke-linejoin:round;">
	<!-- Gray fill  -->
	<!ENTITY st4 "fill:#CCCCCC;stroke:#CCCCCC; stroke-width:0.1;stroke-linecap:round;stroke-linejoin:round;">
	<!-- Light-blue fill -->
	<!ENTITY st5 "fill:#CCECF4;stroke:#000000; stroke-width:1.133;stroke-linecap:round;stroke-linejoin:round;">
	<!ENTITY st6 "fill:none;stroke-linecap:butt; stroke-linejoin:round;">
	<!ENTITY st7 "fill:none;stroke:#000000;stroke-linecap:round;stroke-linejoin:round;">
	<!ENTITY st8 "enable-background:new    ;">
	<!-- Black fill -->
	<!ENTITY st9 "fill:#000000;stroke:#000000; stroke-linecap:round;stroke-linejoin:round;">
	<!-- SRS note   -->
	<!ENTITY st10 "font-size:9px;font-family:'ArialMT';">
	<!ENTITY st11 "font-size:9px;font-family:'Svg Symbol';">
	<!ENTITY st12 "font-size:6px;font-family:'Svg Symbol';">
	<!ENTITY st13 "fill:none;stroke:#ff0000;stroke-linecap:round;stroke-linejoin:round;">
	<!-- Yellow fill  -->
	<!ENTITY st14 "fill:#FFFF00;stroke:#FFFF00; stroke-width:0.1;stroke-linecap:round;stroke-linejoin:round;">
	<!ENTITY st15 "font-size:6px;font-family:'MS-PGothic';adobe-font-script:japanese;">
	<!ENTITY st16 "1.00 0.00 0.00 1.00">
	<!ENTITY st17 "0.00 -1.00 1.00 0.00">
	<!ENTITY st18 "font-size:6px;font-family:'Arial';">
	<!ENTITY st19 "font-size:9px;font-family:'Arial';">
	<!ENTITY st20 "font-size:6px;font-family:'MS-PGothic','MS PGothic';adobe-font-script:japanese;">
	<!ENTITY st21 "font-size:7px;font-family:'MS-PGothic','MS PGothic';adobe-font-script:japanese;">
	<!ATTLIST svg
		xmlns:ewd CDATA #FIXED "http://shcl.co.jp/ewd"
		xmlns:a CDATA #FIXED "http://ns.adobe.com/AdobeSVGViewerExtensions/3.0/"
		ewd:ver CDATA #IMPLIED
	>
	<!ATTLIST a
		ewd:lineID CDATA #IMPLIED
		ewd:groupID CDATA #IMPLIED
		ewd:figtype CDATA #IMPLIED
		ewd:code CDATA #IMPLIED
		ewd:figID CDATA #IMPLIED
		ewd:pinNo CDATA #IMPLIED
		ewd:comment CDATA #IMPLIED >
	<!ATTLIST g
		ewd:lineID CDATA #IMPLIED
		ewd:groupID CDATA #IMPLIED
		ewd:figtype CDATA #IMPLIED
		ewd:code CDATA #IMPLIED
		ewd:figID CDATA #IMPLIED
		ewd:pinNo CDATA #IMPLIED
		ewd:comment CDATA #IMPLIED >
	<!ATTLIST text
		ewd:textID CDATA #IMPLIED >
	<!ATTLIST title
		ewd:textID CDATA #IMPLIED >
]>
<!-- Generator: Shintec Hozumi YS   -->
<svg onload="call_execInitLoadProc_svg('system')" style="overflow:visible;  enable-background:new 0 0 3071.359 710.000" viewBox="0 0 3071.359 710.000" height="710.000" width="3071.359" xml:space="preserve" ewd:ver="L2.1.2.6" xmlns="&ns_svg;" xmlns:a="http://ns.adobe.com/AdobeSVGViewerExtensions/3.0/" xmlns:ewd="http://shcl.co.jp/ewd" xmlns:xlink="&ns_xlink;">
<path d=" M 2264.87,  426.71  L 2256.37,  426.71 " style="stroke-width: 0.85 ;&st7; " /><path d=" M 2273.36,  417.05  L 2265.99,  421.30 " style="stroke-width: 0.85 ;&st7; " /><path d=" M 2268.00,  424.77  L 2275.36,  420.52 " style="stroke-width: 0.85 ;&st7; " /><path d=" M 2369.98,  424.77  L 2377.34,  420.52 " style="stroke-width: 0.85 ;&st7; " /><path d=" M 2375.34,  417.05  L 2367.98,  421.30 " style="stroke-width: 0.85 ;&st7; " /><path d=" M 2366.85,  426.71  L 2358.36,  426.71 " style="stroke-width: 0.85 ;&st7; " /><path d=" M 2298.87,  426.71  L 2290.37,  426.71 " style="stroke-width: 0.85 ;&st7; " /><path d=" M 2307.35,  417.05  L 2299.99,  421.30 " style="stroke-width: 0.85 ;&st7; " /><path d=" M 2301.99,  424.77  L 2309.35,  420.52 " style="stroke-width: 0.85 ;&st7; " /><path d=" M 2412.47,  424.77  L 2419.83,  420.52 " style="stroke-width: 0.85 ;&st7; " /><path d=" M 2417.83,  417.05  L 2410.47,  421.30 " style="stroke-width: 0.85 ;&st7; " /><path d=" M 2409.35,  426.71  L 2400.85,  426.71 " style="stroke-width: 0.85 ;&st7; " /><path d=" M 2463.47,  424.77  L 2470.83,  420.52 " style="stroke-width: 0.85 ;&st7; " /><path d=" M 2468.82,  417.05  L 2461.46,  421.30 " style="stroke-width: 0.85 ;&st7; " /><path d=" M 2460.34,  426.71  L 2451.84,  426.71 " style="stroke-width: 0.85 ;&st7; " /><path d=" M 2413.60,   69.77  L 2437.75,   61.72 " style="stroke-width: 1.42 ;&st7; " /><path d=" M 2439.09,   52.78  L 2439.09,   59.86 " style="stroke-width: 0.85 ;&st7; " /><path d=" M 2133.14,  384.22  L 2133.14,  401.22 " style="stroke-width: 0.85 ;&st7; " /><path d=" M 2141.64,  418.22  L 2141.64,  426.71 " style="stroke-width: 0.85 ;&st7; " /><path d=" M 2124.65,  418.22  L 2124.65,  435.21 " style="stroke-width: 0.85 ;&st7; " /><path d=" M 2141.12,  419.06  L 2133.14,  404.05 " style="stroke-width: 1.42 ;&st7; " /><path d=" M 2371.10,  154.76  L 2362.61,  154.76 " style="stroke-width: 1.42 ;&st7; " /><path d=" M 2303.12,  154.76  L 2294.62,  154.76 " style="stroke-width: 1.42 ;&st7; " /><path d=" M 2364.73,  188.75  L 2360.48,  188.75 " style="stroke-width: 1.42 ;&st7; " /><path d=" M 2364.73,  197.25  L 2360.48,  197.25 " style="stroke-width: 1.42 ;&st7; " /><path d=" M 2364.73,  231.25  L 2360.48,  231.25 " style="stroke-width: 1.42 ;&st7; " /><path d=" M 2364.73,  239.75  L 2360.48,  239.75 " style="stroke-width: 1.42 ;&st7; " /><path d=" M 2339.23,  231.25  L 2334.98,  231.25 " style="stroke-width: 1.42 ;&st7; " /><path d=" M 2339.23,  239.75  L 2334.98,  239.75 " style="stroke-width: 1.42 ;&st7; " /><path d=" M 2126.77,  486.20  L 2122.52,  486.20 " style="stroke-width: 1.42 ;&st7; " /><path d=" M 2126.77,  494.70  L 2122.52,  494.70 " style="stroke-width: 1.42 ;&st7; " /><path d=" M 2126.77,  528.70  L 2122.52,  528.70 " style="stroke-width: 1.42 ;&st7; " /><path d=" M 2126.77,  537.20  L 2122.52,  537.20 " style="stroke-width: 1.42 ;&st7; " /><path d=" M 2211.76,  494.70  L 2207.51,  494.70 " style="stroke-width: 1.42 ;&st7; " /><path d=" M 2211.76,  486.20  L 2207.51,  486.20 " style="stroke-width: 1.42 ;&st7; " /><path d=" M 2460.34,  460.71  L 2451.84,  460.71 " style="stroke-width: 0.85 ;&st7; " /><path d=" M 2454.90,  204.75  L 2454.62,  205.22  L 2454.53,  205.75  L 2454.62,  206.28  L 2454.90,  206.75  L 2455.31,  207.10  L 2455.82,  207.29  L 2456.36,  207.29  L 2456.87,  207.10  L 2457.28,  206.75  L 2457.55,  206.28  L 2457.65,  205.75  L 2457.55,  205.22  L 2457.28,  204.75  L 2456.87,  204.40  L 2456.36,  204.22  L 2455.82,  204.22  L 2455.31,  204.40  L 2454.90,  204.75  L 2455.29,  205.46  L 2455.29,  206.04  L 2455.66,  206.49  L 2456.24,  206.59  L 2456.74,  206.30  L 2456.94,  205.75  L 2456.74,  205.20  L 2456.24,  204.92  L 2455.66,  205.01  L 2456.09,  205.75 " style="stroke-width: 0.85 ;&st7; " /><path d=" M 2454.90,  434.21  L 2454.62,  434.68  L 2454.53,  435.21  L 2454.62,  435.75  L 2454.90,  436.22  L 2455.31,  436.56  L 2455.82,  436.75  L 2456.36,  436.75  L 2456.87,  436.56  L 2457.28,  436.22  L 2457.55,  435.75  L 2457.65,  435.21  L 2457.55,  434.68  L 2457.28,  434.21  L 2456.87,  433.86  L 2456.36,  433.68  L 2455.82,  433.68  L 2455.31,  433.86  L 2454.90,  434.21  L 2455.29,  434.92  L 2455.29,  435.50  L 2455.66,  435.95  L 2456.24,  436.05  L 2456.74,  435.76  L 2456.94,  435.21  L 2456.74,  434.67  L 2456.24,  434.38  L 2455.66,  434.48  L 2456.09,  435.21 " style="stroke-width: 0.85 ;&st7; " /><path d=" M 2403.90,  434.21  L 2403.63,  434.68  L 2403.54,  435.21  L 2403.63,  435.75  L 2403.90,  436.22  L 2404.32,  436.56  L 2404.83,  436.75  L 2405.37,  436.75  L 2405.88,  436.56  L 2406.29,  436.22  L 2406.56,  435.75  L 2406.66,  435.21  L 2406.56,  434.68  L 2406.29,  434.21  L 2405.88,  433.86  L 2405.37,  433.68  L 2404.83,  433.68  L 2404.32,  433.86  L 2403.90,  434.21  L 2404.30,  434.92  L 2404.30,  435.50  L 2404.67,  435.95  L 2405.24,  436.05  L 2405.75,  435.76  L 2405.95,  435.21  L 2405.75,  434.67  L 2405.24,  434.38  L 2404.67,  434.48  L 2405.10,  435.21 " style="stroke-width: 0.85 ;&st7; " /><path d=" M 2293.42,  434.21  L 2293.15,  434.68  L 2293.06,  435.21  L 2293.15,  435.75  L 2293.42,  436.22  L 2293.84,  436.56  L 2294.34,  436.75  L 2294.89,  436.75  L 2295.39,  436.56  L 2295.81,  436.22  L 2296.08,  435.75  L 2296.17,  435.21  L 2296.08,  434.68  L 2295.81,  434.21  L 2295.39,  433.86  L 2294.89,  433.68  L 2294.34,  433.68  L 2293.84,  433.86  L 2293.42,  434.21  L 2293.82,  434.92  L 2293.82,  435.50  L 2294.19,  435.95  L 2294.76,  436.05  L 2295.27,  435.76  L 2295.47,  435.21  L 2295.27,  434.67  L 2294.76,  434.38  L 2294.19,  434.48  L 2294.62,  435.21 " style="stroke-width: 0.85 ;&st7; " /><path d=" M 2361.41,  213.25  L 2361.14,  213.72  L 2361.05,  214.25  L 2361.14,  214.78  L 2361.41,  215.25  L 2361.83,  215.60  L 2362.33,  215.79  L 2362.88,  215.79  L 2363.38,  215.60  L 2363.80,  215.25  L 2364.07,  214.78  L 2364.16,  214.25  L 2364.07,  213.72  L 2363.80,  213.25  L 2363.38,  212.90  L 2362.88,  212.71  L 2362.33,  212.71  L 2361.83,  212.90  L 2361.41,  213.25  L 2361.81,  213.96  L 2361.81,  214.54  L 2362.18,  214.99  L 2362.75,  215.09  L 2363.26,  214.80  L 2363.45,  214.25  L 2363.26,  213.70  L 2362.75,  213.41  L 2362.18,  213.51  L 2362.60,  214.25 " style="stroke-width: 0.85 ;&st7; " /><path d=" M 2123.45,  510.70  L 2123.18,  511.17  L 2123.09,  511.70  L 2123.18,  512.23  L 2123.45,  512.70  L 2123.87,  513.05  L 2124.37,  513.24  L 2124.92,  513.24  L 2125.42,  513.05  L 2125.84,  512.70  L 2126.11,  512.23  L 2126.20,  511.70  L 2126.11,  511.17  L 2125.84,  510.70  L 2125.42,  510.35  L 2124.92,  510.16  L 2124.37,  510.16  L 2123.87,  510.35  L 2123.45,  510.70  L 2123.85,  511.41  L 2123.85,  511.99  L 2124.22,  512.44  L 2124.79,  512.54  L 2125.30,  512.25  L 2125.49,  511.70  L 2125.30,  511.15  L 2124.79,  510.86  L 2124.22,  510.96  L 2124.64,  511.70 " style="stroke-width: 0.85 ;&st7; " /><path d=" M 2361.41,  408.71  L 2361.14,  409.18  L 2361.05,  409.72  L 2361.14,  410.25  L 2361.41,  410.72  L 2361.83,  411.07  L 2362.33,  411.25  L 2362.88,  411.25  L 2363.38,  411.07  L 2363.80,  410.72  L 2364.07,  410.25  L 2364.16,  409.72  L 2364.07,  409.18  L 2363.80,  408.71  L 2363.38,  408.37  L 2362.88,  408.18  L 2362.33,  408.18  L 2361.83,  408.37  L 2361.41,  408.71  L 2361.81,  409.43  L 2361.81,  410.01  L 2362.18,  410.45  L 2362.75,  410.55  L 2363.26,  410.26  L 2363.45,  409.72  L 2363.26,  409.17  L 2362.75,  408.88  L 2362.18,  408.98  L 2362.60,  409.72 " style="stroke-width: 0.85 ;&st7; " /><path d=" M 2454.90,  510.70  L 2454.62,  511.17  L 2454.53,  511.70  L 2454.62,  512.23  L 2454.90,  512.70  L 2455.31,  513.05  L 2455.82,  513.24  L 2456.36,  513.24  L 2456.87,  513.05  L 2457.28,  512.70  L 2457.55,  512.23  L 2457.65,  511.70  L 2457.55,  511.17  L 2457.28,  510.70  L 2456.87,  510.35  L 2456.36,  510.16  L 2455.82,  510.16  L 2455.31,  510.35  L 2454.90,  510.70  L 2455.29,  511.41  L 2455.29,  511.99  L 2455.66,  512.44  L 2456.24,  512.54  L 2456.74,  512.25  L 2456.94,  511.70  L 2456.74,  511.15  L 2456.24,  510.86  L 2455.66,  510.96  L 2456.09,  511.70 " style="stroke-width: 0.85 ;&st7; " /><path d=" M 3008.50,  392.72  L 2235.13,  392.72  L 2235.13,  520.20  L 3008.50,  520.20  L 3008.50,  392.72 " style="stroke-width: 1.42 ;&st7; " /><path d=" M 2787.53,  511.70  L 2362.60,  511.70  L 2362.60,  392.72 " style="stroke-width: 0.85 ;&st7; " /><path d=" M 2192.63,  384.22  L 2099.15,  384.22  L 2099.15,  435.21  L 2192.63,  435.21  L 2192.63,  384.22 " style="stroke-width: 1.42 ;&st7; " /><path d=" M 2260.62,  426.71  L 2254.96,  418.22  L 2266.29,  418.22  L 2260.62,  426.71 " style="stroke-width: 0.28 ;&st9;" /><path d=" M 2273.36,  417.05  L 2271.02,  420.09  L 2269.55,  417.55  L 2273.36,  417.05  L 2272.07,  417.79  L 2271.09,  419.07  L 2270.47,  418.00  L 2272.07,  417.79  L 2271.43,  418.16  L 2271.12,  418.56  L 2270.92,  418.23  L 2271.43,  418.16 " style="stroke-width: 0.85 ;&st7; " /><path d=" M 2275.36,  420.52  L 2273.02,  423.56  L 2271.56,  421.02  L 2275.36,  420.52  L 2274.07,  421.26  L 2273.09,  422.54  L 2272.47,  421.47  L 2274.07,  421.26  L 2273.43,  421.63  L 2273.12,  422.03  L 2272.93,  421.70  L 2273.43,  421.63 " style="stroke-width: 0.85 ;&st7; " /><path d=" M 2377.34,  420.52  L 2375.01,  423.56  L 2373.54,  421.02  L 2377.34,  420.52  L 2376.06,  421.26  L 2375.07,  422.54  L 2374.45,  421.47  L 2376.06,  421.26  L 2375.42,  421.63  L 2375.11,  422.03  L 2374.91,  421.70  L 2375.42,  421.63 " style="stroke-width: 0.85 ;&st7; " /><path d=" M 2375.34,  417.05  L 2373.00,  420.09  L 2371.54,  417.55  L 2375.34,  417.05  L 2374.05,  417.79  L 2373.07,  419.07  L 2372.45,  418.00  L 2374.05,  417.79  L 2373.41,  418.16  L 2373.10,  418.56  L 2372.91,  418.23  L 2373.41,  418.16 " style="stroke-width: 0.85 ;&st7; " /><path d=" M 2362.60,  426.71  L 2356.94,  418.22  L 2368.27,  418.22  L 2362.60,  426.71 " style="stroke-width: 0.28 ;&st9;" /><path d=" M 2294.62,  426.71  L 2288.95,  418.22  L 2300.28,  418.22  L 2294.62,  426.71 " style="stroke-width: 0.28 ;&st9;" /><path d=" M 2307.35,  417.05  L 2305.02,  420.09  L 2303.55,  417.55  L 2307.35,  417.05  L 2306.07,  417.79  L 2305.08,  419.07  L 2304.46,  418.00  L 2306.07,  417.79  L 2305.43,  418.16  L 2305.11,  418.56  L 2304.92,  418.23  L 2305.43,  418.16 " style="stroke-width: 0.85 ;&st7; " /><path d=" M 2309.35,  420.52  L 2307.02,  423.56  L 2305.55,  421.02  L 2309.35,  420.52  L 2308.07,  421.26  L 2307.09,  422.54  L 2306.47,  421.47  L 2308.07,  421.26  L 2307.43,  421.63  L 2307.12,  422.03  L 2306.92,  421.70  L 2307.43,  421.63 " style="stroke-width: 0.85 ;&st7; " /><path d=" M 2419.83,  420.52  L 2417.50,  423.56  L 2416.03,  421.02  L 2419.83,  420.52  L 2418.55,  421.26  L 2417.57,  422.54  L 2416.95,  421.47  L 2418.55,  421.26  L 2417.91,  421.63  L 2417.60,  422.03  L 2417.41,  421.70  L 2417.91,  421.63 " style="stroke-width: 0.85 ;&st7; " /><path d=" M 2417.83,  417.05  L 2415.50,  420.09  L 2414.03,  417.55  L 2417.83,  417.05  L 2416.55,  417.79  L 2415.56,  419.07  L 2414.94,  418.00  L 2416.55,  417.79  L 2415.91,  418.16  L 2415.60,  418.56  L 2415.40,  418.23  L 2415.91,  418.16 " style="stroke-width: 0.85 ;&st7; " /><path d=" M 2405.10,  426.71  L 2399.43,  418.22  L 2410.76,  418.22  L 2405.10,  426.71 " style="stroke-width: 0.28 ;&st9;" /><path d=" M 2470.83,  420.52  L 2468.49,  423.56  L 2467.02,  421.02  L 2470.83,  420.52  L 2469.54,  421.26  L 2468.56,  422.54  L 2467.94,  421.47  L 2469.54,  421.26  L 2468.90,  421.63  L 2468.59,  422.03  L 2468.40,  421.70  L 2468.90,  421.63 " style="stroke-width: 0.85 ;&st7; " /><path d=" M 2468.82,  417.05  L 2466.49,  420.09  L 2465.02,  417.55  L 2468.82,  417.05  L 2467.54,  417.79  L 2466.55,  419.07  L 2465.94,  418.00  L 2467.54,  417.79  L 2466.90,  418.16  L 2466.59,  418.56  L 2466.39,  418.23  L 2466.90,  418.16 " style="stroke-width: 0.85 ;&st7; " /><path d=" M 2456.09,  426.71  L 2450.42,  418.22  L 2461.75,  418.22  L 2456.09,  426.71 " style="stroke-width: 0.28 ;&st9;" /><path d=" M 2566.57,  214.25  L 2396.60,  214.25 " style="stroke-width: 1.13 ;&st7;stroke-dasharray:3, 1.5;" /><path d=" M 2566.57,  197.25  L 2396.60,  197.25 " style="stroke-width: 1.13 ;&st7;stroke-dasharray:3, 1.5;" /><path d=" M 2405.10,  222.75  L 2405.10,  188.75 " style="stroke-width: 0.85 ;&st7; " /><path d=" M 2396.60,  188.75  L 2566.57,  188.75  L 2566.57,  222.75  L 2396.60,  222.75  L 2396.60,  188.75 " style="stroke-width: 1.42 ;&st7; " /><path d=" M 2456.09,  222.75  L 2456.09,  188.75 " style="stroke-width: 0.85 ;&st7; " /><path d=" M 2481.58,  222.75  L 2481.58,  205.75  L 2507.08,  205.75 " style="stroke-width: 0.85 ;&st7; " /><path d=" M 2558.07,  103.77  L 2558.07,   69.77  L 2467.42,   69.77 " style="stroke-width: 0.85 ;&st7; " /><path d=" M 2507.08,  103.77  L 2507.08,   78.27  L 2458.92,   78.27 " style="stroke-width: 0.85 ;&st7; " /><path d=" M 2456.09,  103.77  L 2456.09,   86.77  L 2450.42,   86.77 " style="stroke-width: 0.85 ;&st7; " /><path d=" M 2427.76,   86.77  L 2405.10,   86.77  L 2405.10,  103.77 " style="stroke-width: 0.85 ;&st7; " /><path d=" M 2419.26,   78.27  L 2362.60,   78.27  L 2362.60,  103.77 " style="stroke-width: 0.85 ;&st7; " /><path d=" M 2410.76,   69.77  L 2294.62,   69.77  L 2294.62,  103.77 " style="stroke-width: 0.85 ;&st7; " /><path d=" M 2575.07,   52.78  L 2277.62,   52.78  L 2277.62,  103.77  L 2575.07,  103.77  L 2575.07,   52.78 " style="stroke-width: 1.42 ;&st7; " /><path d=" M 2413.60,   69.77  L 2416.49,   67.26  L 2417.42,   70.05  L 2413.60,   69.77  L 2415.00,   69.31  L 2416.22,   68.25  L 2416.61,   69.42  L 2415.00,   69.31  L 2415.70,   69.07  L 2416.09,   68.74  L 2416.21,   69.11  L 2415.70,   69.07 " style="stroke-width: 0.85 ;&st7; " /><path d=" M 2558.07,  392.72  L 2558.07,  435.21  L 2260.62,  435.21  L 2260.62,  392.72 " style="stroke-width: 0.85 ;&st7; " /><path d=" M 2294.62,  435.21  L 2294.62,  392.72 " style="stroke-width: 0.85 ;&st7; " /><path d=" M 2405.10,  435.21  L 2405.10,  392.72 " style="stroke-width: 0.85 ;&st7; " /><path d=" M 2456.09,  435.21  L 2456.09,  392.72 " style="stroke-width: 0.85 ;&st7; " /><path d=" M 2167.14,  384.22  L 2167.14,  426.71  L 2141.64,  426.71 " style="stroke-width: 0.85 ;&st7; " /><path d=" M 2366.85,  163.82  L 2362.60,  159.58  L 2358.35,  163.82 " style="stroke-width: 1.42 ;&st7; " /><path d=" M 2366.85,  160.43  L 2362.60,  156.18  L 2358.35,  160.43 " style="stroke-width: 1.42 ;&st7; " /><path d=" M 2298.86,  163.82  L 2294.62,  159.58  L 2290.37,  163.82 " style="stroke-width: 1.42 ;&st7; " /><path d=" M 2298.86,  160.43  L 2294.62,  156.18  L 2290.37,  160.43 " style="stroke-width: 1.42 ;&st7; " /><path d=" M 2362.60,  202.15  L 2365.44,  204.98  L 2365.44,  200.73  L 2362.60,  197.90  L 2359.77,  200.73  L 2359.77,  204.98  L 2362.60,  202.15 " style="stroke-width: 0.28 ;&st9;" /><path d=" M 2362.60,  226.35  L 2359.77,  223.52  L 2359.77,  227.77  L 2362.60,  230.60  L 2365.44,  227.77  L 2365.44,  223.52  L 2362.60,  226.35 " style="stroke-width: 0.28 ;&st9;" /><path d=" M 2362.60,  231.25  L 2362.60,  197.25 " style="stroke-width: 0.85 ;&st7; " /><path d=" M 2337.11,  226.35  L 2334.28,  223.52  L 2334.28,  227.77  L 2337.11,  230.60  L 2339.94,  227.77  L 2339.94,  223.52  L 2337.11,  226.35 " style="stroke-width: 0.28 ;&st9;" /><path d=" M 2362.60,  214.25  L 2337.11,  214.25  L 2337.11,  231.25 " style="stroke-width: 0.85 ;&st7; " /><path d=" M 2124.64,  499.60  L 2127.48,  502.43  L 2127.48,  498.18  L 2124.64,  495.35  L 2121.81,  498.18  L 2121.81,  502.43  L 2124.64,  499.60 " style="stroke-width: 0.28 ;&st9;" /><path d=" M 2124.64,  523.80  L 2121.81,  520.97  L 2121.81,  525.22  L 2124.64,  528.05  L 2127.48,  525.22  L 2127.48,  520.97  L 2124.64,  523.80 " style="stroke-width: 0.28 ;&st9;" /><path d=" M 2124.64,  528.70  L 2124.64,  494.70 " style="stroke-width: 0.85 ;&st7; " /><path d=" M 2209.63,  499.60  L 2212.46,  502.43  L 2212.46,  498.18  L 2209.63,  495.35  L 2206.80,  498.18  L 2206.80,  502.43  L 2209.63,  499.60 " style="stroke-width: 0.28 ;&st9;" /><path d=" M 2209.63,  494.70  L 2209.63,  511.70  L 2124.64,  511.70 " style="stroke-width: 0.85 ;&st7; " /><path d=" M 2430.59,  222.75  L 2430.59,  205.75  L 2456.09,  205.75 " style="stroke-width: 0.85 ;&st7; " /><path d=" M 2362.60,  409.72  L 2651.56,  409.72  L 2651.56,  460.71 " style="stroke-width: 0.85 ;&st7; " /><path d=" M 2124.64,  188.75  L 2124.64,  214.25  L 2141.64,  214.25  L 2141.64,  188.75  L 2124.64,  188.75 " style="stroke-width: 1.42 ;&st7; " /><path d=" M 2124.64,  197.25  L 2141.64,  197.25 " style="stroke-width: 1.13 ;&st7;stroke-dasharray:3, 1.5;" /><path d=" M 2124.64,  205.75  L 2141.64,  205.75 " style="stroke-width: 1.13 ;&st7;stroke-dasharray:3, 1.5;" /><path d=" M 2133.14,  188.75  L 2133.14,  214.25 " style="stroke-width: 0.85 ;&st7; " /><path d=" M 2456.09,  460.71  L 2450.42,  452.21  L 2461.75,  452.21  L 2456.09,  460.71 " style="stroke-width: 0.28 ;&st9;" /><path d=" M 2447.59,  469.21  L 2447.59,  486.20  L 2464.59,  486.20  L 2464.59,  469.21  L 2447.59,  469.21 " style="stroke-width: 1.42 ;&st7; " /><path d=" M 2456.09,  435.21  L 2456.09,  469.21 " style="stroke-width: 0.85 ;&st7; " /><path d=" M 2456.09,  486.20  L 2456.09,  511.70 " style="stroke-width: 0.85 ;&st7; " /><path d=" M 2286.12,  197.25  L 2286.12,  214.25  L 2303.11,  214.25  L 2303.11,  197.25  L 2286.12,  197.25 " style="stroke-width: 1.42 ;&st7; " /><path d=" M 2294.62,  197.25  L 2294.62,  214.25 " style="stroke-width: 0.85 ;&st7; " /><path d=" M 2137.68,  184.22  C 2137.68   181.72  2135.65   179.69  2133.14   179.69 " style="stroke-width: 1.42 ;&st7; " /><path d=" M 2133.14,  179.69  C 2130.64   179.69  2128.61   181.72  2128.61   184.22 " style="stroke-width: 1.42 ;&st7; " /><path d=" M 2128.61,  184.22  C 2128.61   186.72  2130.64   188.75  2133.14   188.75 " style="stroke-width: 1.42 ;&st7; " /><path d=" M 2133.14,  188.75  C 2135.65   188.75  2137.68   186.72  2137.68   184.22 " style="stroke-width: 1.42 ;&st7; " /><path d=" M 2137.68,  218.78  C 2137.68   216.28  2135.65   214.25  2133.14   214.25 " style="stroke-width: 1.42 ;&st7; " /><path d=" M 2133.14,  214.25  C 2130.64   214.25  2128.61   216.28  2128.61   218.78 " style="stroke-width: 1.42 ;&st7; " /><path d=" M 2128.61,  218.78  C 2128.61   221.29  2130.64   223.31  2133.14   223.31 " style="stroke-width: 1.42 ;&st7; " /><path d=" M 2133.14,  223.31  C 2135.65   223.31  2137.68   221.29  2137.68   218.78 " style="stroke-width: 1.42 ;&st7; " /><path d=" M 2299.15,  192.72  C 2299.15   190.22  2297.12   188.19  2294.62   188.19 " style="stroke-width: 1.42 ;&st7; " /><path d=" M 2294.62,  188.19  C 2292.11   188.19  2290.08   190.22  2290.08   192.72 " style="stroke-width: 1.42 ;&st7; " /><path d=" M 2290.08,  192.72  C 2290.08   195.22  2292.11   197.25  2294.62   197.25 " style="stroke-width: 1.42 ;&st7; " /><path d=" M 2294.62,  197.25  C 2297.12   197.25  2299.15   195.22  2299.15   192.72 " style="stroke-width: 1.42 ;&st7; " /><path d=" M 2299.15,  218.78  C 2299.15   216.28  2297.12   214.25  2294.62   214.25 " style="stroke-width: 1.42 ;&st7; " /><path d=" M 2294.62,  214.25  C 2292.11   214.25  2290.08   216.28  2290.08   218.78 " style="stroke-width: 1.42 ;&st7; " /><path d=" M 2290.08,  218.78  C 2290.08   221.29  2292.11   223.31  2294.62   223.31 " style="stroke-width: 1.42 ;&st7; " /><path d=" M 2294.62,  223.31  C 2297.12   223.31  2299.15   221.29  2299.15   218.78 " style="stroke-width: 1.42 ;&st7; " /><path d=" M 2027.19,  405.75  C 2027.19   403.25  2025.17   401.22  2022.66   401.22 " style="stroke-width: 1.42 ;&st7; " /><path d=" M 2022.66,  401.22  C 2020.16   401.22  2018.13   403.25  2018.13   405.75 " style="stroke-width: 1.42 ;&st7; " /><path d=" M 2018.13,  405.75  C 2018.13   408.25  2020.16   410.28  2022.66   410.28 " style="stroke-width: 1.42 ;&st7; " /><path d=" M 2022.66,  410.28  C 2025.17   410.28  2027.19   408.25  2027.19   405.75 " style="stroke-width: 1.42 ;&st7; " /><path d=" M 2001.70,  405.75  C 2001.70   403.25  1999.67   401.22  1997.17   401.22 " style="stroke-width: 1.42 ;&st7; " /><path d=" M 2001.70,  354.19  C 2001.70   351.69  1999.67   349.66  1997.17   349.66 " style="stroke-width: 1.42 ;&st7; " /><path d=" M 2027.19,  354.19  C 2027.19   351.69  2025.17   349.66  2022.66   349.66 " style="stroke-width: 1.42 ;&st7; " /><path d=" M 2022.66,  349.66  C 2020.16   349.66  2018.13   351.69  2018.13   354.19 " style="stroke-width: 1.42 ;&st7; " /><path d=" M 2018.13,  354.19  C 2018.13   356.70  2020.16   358.73  2022.66   358.73 " style="stroke-width: 1.42 ;&st7; " /><path d=" M 2022.66,  358.73  C 2025.17   358.73  2027.19   356.70  2027.19   354.19 " style="stroke-width: 1.42 ;&st7; " /><path d=" M 2299.15,  108.30  C 2299.15   105.80  2297.12   103.77  2294.62   103.77 " style="stroke-width: 1.42 ;&st7; " /><path d=" M 2294.62,  103.77  C 2292.11   103.77  2290.08   105.80  2290.08   108.30 " style="stroke-width: 1.42 ;&st7; " /><path d=" M 2290.08,  108.30  C 2290.08   110.80  2292.11   112.83  2294.62   112.83 " style="stroke-width: 1.42 ;&st7; " /><path d=" M 2294.62,  112.83  C 2297.12   112.83  2299.15   110.80  2299.15   108.30 " style="stroke-width: 1.42 ;&st7; " /><path d=" M 2367.14,  108.30  C 2367.14   105.80  2365.11   103.77  2362.61   103.77 " style="stroke-width: 1.42 ;&st7; " /><path d=" M 2362.61,  103.77  C 2360.10   103.77  2358.07   105.80  2358.07   108.30 " style="stroke-width: 1.42 ;&st7; " /><path d=" M 2358.07,  108.30  C 2358.07   110.80  2360.10   112.83  2362.61   112.83 " style="stroke-width: 1.42 ;&st7; " /><path d=" M 2362.61,  112.83  C 2365.11   112.83  2367.14   110.80  2367.14   108.30 " style="stroke-width: 1.42 ;&st7; " /><path d=" M 2409.63,  108.30  C 2409.63   105.80  2407.60   103.77  2405.10   103.77 " style="stroke-width: 1.42 ;&st7; " /><path d=" M 2405.10,  103.77  C 2402.59   103.77  2400.57   105.80  2400.57   108.30 " style="stroke-width: 1.42 ;&st7; " /><path d=" M 2400.57,  108.30  C 2400.57   110.80  2402.59   112.83  2405.10   112.83 " style="stroke-width: 1.42 ;&st7; " /><path d=" M 2405.10,  112.83  C 2407.60   112.83  2409.63   110.80  2409.63   108.30 " style="stroke-width: 1.42 ;&st7; " /><path d=" M 2460.62,  108.30  C 2460.62   105.80  2458.59   103.77  2456.09   103.77 " style="stroke-width: 1.42 ;&st7; " /><path d=" M 2456.09,  103.77  C 2453.59   103.77  2451.56   105.80  2451.56   108.30 " style="stroke-width: 1.42 ;&st7; " /><path d=" M 2451.56,  108.30  C 2451.56   110.80  2453.59   112.83  2456.09   112.83 " style="stroke-width: 1.42 ;&st7; " /><path d=" M 2456.09,  112.83  C 2458.59   112.83  2460.62   110.80  2460.62   108.30 " style="stroke-width: 1.42 ;&st7; " /><path d=" M 2443.63,   48.24  C 2443.63    45.74  2441.60    43.71  2439.09    43.71 " style="stroke-width: 1.42 ;&st7; " /><path d=" M 2439.09,   43.71  C 2436.59    43.71  2434.56    45.74  2434.56    48.24 " style="stroke-width: 1.42 ;&st7; " /><path d=" M 2434.56,   48.24  C 2434.56    50.75  2436.59    52.78  2439.09    52.78 " style="stroke-width: 1.42 ;&st7; " /><path d=" M 2439.09,   52.78  C 2441.60    52.78  2443.63    50.75  2443.63    48.24 " style="stroke-width: 1.42 ;&st7; " /><path d=" M 2486.12,  227.28  C 2486.12   224.78  2484.09   222.75  2481.59   222.75 " style="stroke-width: 1.42 ;&st7; " /><path d=" M 2481.59,  222.75  C 2479.08   222.75  2477.05   224.78  2477.05   227.28 " style="stroke-width: 1.42 ;&st7; " /><path d=" M 2477.05,  227.28  C 2477.05   229.78  2479.08   231.81  2481.59   231.81 " style="stroke-width: 1.42 ;&st7; " /><path d=" M 2481.59,  231.81  C 2484.09   231.81  2486.12   229.78  2486.12   227.28 " style="stroke-width: 1.42 ;&st7; " /><path d=" M 2460.62,  227.28  C 2460.62   224.78  2458.59   222.75  2456.09   222.75 " style="stroke-width: 1.42 ;&st7; " /><path d=" M 2456.09,  222.75  C 2453.59   222.75  2451.56   224.78  2451.56   227.28 " style="stroke-width: 1.42 ;&st7; " /><path d=" M 2451.56,  227.28  C 2451.56   229.78  2453.59   231.81  2456.09   231.81 " style="stroke-width: 1.42 ;&st7; " /><path d=" M 2456.09,  231.81  C 2458.59   231.81  2460.62   229.78  2460.62   227.28 " style="stroke-width: 1.42 ;&st7; " /><path d=" M 2435.13,  227.28  C 2435.13   224.78  2433.10   222.75  2430.59   222.75 " style="stroke-width: 1.42 ;&st7; " /><path d=" M 2430.59,  222.75  C 2428.09   222.75  2426.06   224.78  2426.06   227.28 " style="stroke-width: 1.42 ;&st7; " /><path d=" M 2426.06,  227.28  C 2426.06   229.78  2428.09   231.81  2430.59   231.81 " style="stroke-width: 1.42 ;&st7; " /><path d=" M 2430.59,  231.81  C 2433.10   231.81  2435.13   229.78  2435.13   227.28 " style="stroke-width: 1.42 ;&st7; " /><path d=" M 2409.63,  227.28  C 2409.63   224.78  2407.60   222.75  2405.10   222.75 " style="stroke-width: 1.42 ;&st7; " /><path d=" M 2405.10,  222.75  C 2402.59   222.75  2400.57   224.78  2400.57   227.28 " style="stroke-width: 1.42 ;&st7; " /><path d=" M 2400.57,  227.28  C 2400.57   229.78  2402.59   231.81  2405.10   231.81 " style="stroke-width: 1.42 ;&st7; " /><path d=" M 2405.10,  231.81  C 2407.60   231.81  2409.63   229.78  2409.63   227.28 " style="stroke-width: 1.42 ;&st7; " /><path d=" M 2460.62,  388.19  C 2460.62   385.68  2458.59   383.65  2456.09   383.65 " style="stroke-width: 1.42 ;&st7; " /><path d=" M 2456.09,  383.65  C 2453.59   383.65  2451.56   385.68  2451.56   388.19 " style="stroke-width: 1.42 ;&st7; " /><path d=" M 2451.56,  388.19  C 2451.56   390.69  2453.59   392.72  2456.09   392.72 " style="stroke-width: 1.42 ;&st7; " /><path d=" M 2456.09,  392.72  C 2458.59   392.72  2460.62   390.69  2460.62   388.19 " style="stroke-width: 1.42 ;&st7; " /><path d=" M 2409.63,  388.19  C 2409.63   385.68  2407.60   383.65  2405.10   383.65 " style="stroke-width: 1.42 ;&st7; " /><path d=" M 2405.10,  383.65  C 2402.59   383.65  2400.57   385.68  2400.57   388.19 " style="stroke-width: 1.42 ;&st7; " /><path d=" M 2400.57,  388.19  C 2400.57   390.69  2402.59   392.72  2405.10   392.72 " style="stroke-width: 1.42 ;&st7; " /><path d=" M 2405.10,  392.72  C 2407.60   392.72  2409.63   390.69  2409.63   388.19 " style="stroke-width: 1.42 ;&st7; " /><path d=" M 2367.14,  388.19  C 2367.14   385.68  2365.11   383.65  2362.61   383.65 " style="stroke-width: 1.42 ;&st7; " /><path d=" M 2362.61,  383.65  C 2360.10   383.65  2358.07   385.68  2358.07   388.19 " style="stroke-width: 1.42 ;&st7; " /><path d=" M 2358.07,  388.19  C 2358.07   390.69  2360.10   392.72  2362.61   392.72 " style="stroke-width: 1.42 ;&st7; " /><path d=" M 2362.61,  392.72  C 2365.11   392.72  2367.14   390.69  2367.14   388.19 " style="stroke-width: 1.42 ;&st7; " /><path d=" M 2299.15,  388.19  C 2299.15   385.68  2297.12   383.65  2294.62   383.65 " style="stroke-width: 1.42 ;&st7; " /><path d=" M 2294.62,  383.65  C 2292.11   383.65  2290.08   385.68  2290.08   388.19 " style="stroke-width: 1.42 ;&st7; " /><path d=" M 2290.08,  388.19  C 2290.08   390.69  2292.11   392.72  2294.62   392.72 " style="stroke-width: 1.42 ;&st7; " /><path d=" M 2294.62,  392.72  C 2297.12   392.72  2299.15   390.69  2299.15   388.19 " style="stroke-width: 1.42 ;&st7; " /><path d=" M 2265.15,  388.19  C 2265.15   385.68  2263.13   383.65  2260.62   383.65 " style="stroke-width: 1.42 ;&st7; " /><path d=" M 2260.62,  383.65  C 2258.12   383.65  2256.09   385.68  2256.09   388.19 " style="stroke-width: 1.42 ;&st7; " /><path d=" M 2256.09,  388.19  C 2256.09   390.69  2258.12   392.72  2260.62   392.72 " style="stroke-width: 1.42 ;&st7; " /><path d=" M 2260.62,  392.72  C 2263.13   392.72  2265.15   390.69  2265.15   388.19 " style="stroke-width: 1.42 ;&st7; " /><path d=" M 2137.68,  379.69  C 2137.68   377.19  2135.65   375.16  2133.14   375.16 " style="stroke-width: 1.42 ;&st7; " /><path d=" M 2133.14,  375.16  C 2130.64   375.16  2128.61   377.19  2128.61   379.69 " style="stroke-width: 1.42 ;&st7; " /><path d=" M 2128.61,  379.69  C 2128.61   382.19  2130.64   384.22  2133.14   384.22 " style="stroke-width: 1.42 ;&st7; " /><path d=" M 2133.14,  384.22  C 2135.65   384.22  2137.68   382.19  2137.68   379.69 " style="stroke-width: 1.42 ;&st7; " /><path d=" M 2171.67,  379.69  C 2171.67   377.19  2169.64   375.16  2167.14   375.16 " style="stroke-width: 1.42 ;&st7; " /><path d=" M 2167.14,  375.16  C 2164.63   375.16  2162.61   377.19  2162.61   379.69 " style="stroke-width: 1.42 ;&st7; " /><path d=" M 2162.61,  379.69  C 2162.61   382.19  2164.63   384.22  2167.14   384.22 " style="stroke-width: 1.42 ;&st7; " /><path d=" M 2167.14,  384.22  C 2169.64   384.22  2171.67   382.19  2171.67   379.69 " style="stroke-width: 1.42 ;&st7; " /><path d=" M 2129.18,  439.75  C 2129.18   437.24  2127.15   435.21  2124.65   435.21 " style="stroke-width: 1.42 ;&st7; " /><path d=" M 2124.65,  435.21  C 2122.14   435.21  2120.11   437.24  2120.11   439.75 " style="stroke-width: 1.42 ;&st7; " /><path d=" M 2120.11,  439.75  C 2120.11   442.25  2122.14   444.28  2124.65   444.28 " style="stroke-width: 1.42 ;&st7; " /><path d=" M 2124.65,  444.28  C 2127.15   444.28  2129.18   442.25  2129.18   439.75 " style="stroke-width: 1.42 ;&st7; " /><path d=" M 2460.62,  184.22  C 2460.62   181.72  2458.59   179.69  2456.09   179.69 " style="stroke-width: 1.42 ;&st7; " /><path d=" M 2456.09,  179.69  C 2453.59   179.69  2451.56   181.72  2451.56   184.22 " style="stroke-width: 1.42 ;&st7; " /><path d=" M 2451.56,  184.22  C 2451.56   186.72  2453.59   188.75  2456.09   188.75 " style="stroke-width: 1.42 ;&st7; " /><path d=" M 2456.09,  188.75  C 2458.59   188.75  2460.62   186.72  2460.62   184.22 " style="stroke-width: 1.42 ;&st7; " /><path d=" M 2413.60,   69.77  C 2413.60    68.99  2412.96    68.36  2412.18    68.36 " style="stroke-width: 0.85 ;&st7; " /><path d=" M 2412.18,   68.36  C 2411.40    68.36  2410.76    68.99  2410.76    69.77 " style="stroke-width: 0.85 ;&st7; " /><path d=" M 2410.76,   69.77  C 2410.76    70.56  2411.40    71.19  2412.18    71.19 " style="stroke-width: 0.85 ;&st7; " /><path d=" M 2412.18,   71.19  C 2412.96    71.19  2413.60    70.56  2413.60    69.77 " style="stroke-width: 0.85 ;&st7; " /><path d=" M 2422.10,   78.27  C 2422.10    77.49  2421.46    76.86  2420.68    76.86 " style="stroke-width: 0.85 ;&st7; " /><path d=" M 2420.68,   76.86  C 2419.90    76.86  2419.26    77.49  2419.26    78.27 " style="stroke-width: 0.85 ;&st7; " /><path d=" M 2419.26,   78.27  C 2419.26    79.05  2419.90    79.69  2420.68    79.69 " style="stroke-width: 0.85 ;&st7; " /><path d=" M 2420.68,   79.69  C 2421.46    79.69  2422.10    79.05  2422.10    78.27 " style="stroke-width: 0.85 ;&st7; " /><path d=" M 2430.59,   86.77  C 2430.59    85.99  2429.96    85.35  2429.18    85.35 " style="stroke-width: 0.85 ;&st7; " /><path d=" M 2429.18,   85.35  C 2428.40    85.35  2427.76    85.99  2427.76    86.77 " style="stroke-width: 0.85 ;&st7; " /><path d=" M 2427.76,   86.77  C 2427.76    87.55  2428.40    88.19  2429.18    88.19 " style="stroke-width: 0.85 ;&st7; " /><path d=" M 2429.18,   88.19  C 2429.96    88.19  2430.59    87.55  2430.59    86.77 " style="stroke-width: 0.85 ;&st7; " /><path d=" M 2467.42,   69.77  C 2467.42    68.99  2466.79    68.36  2466.00    68.36 " style="stroke-width: 0.85 ;&st7; " /><path d=" M 2466.00,   68.36  C 2465.22    68.36  2464.59    68.99  2464.59    69.77 " style="stroke-width: 0.85 ;&st7; " /><path d=" M 2464.59,   69.77  C 2464.59    70.56  2465.22    71.19  2466.00    71.19 " style="stroke-width: 0.85 ;&st7; " /><path d=" M 2466.00,   71.19  C 2466.79    71.19  2467.42    70.56  2467.42    69.77 " style="stroke-width: 0.85 ;&st7; " /><path d=" M 2458.92,   78.27  C 2458.92    77.49  2458.29    76.86  2457.51    76.86 " style="stroke-width: 0.85 ;&st7; " /><path d=" M 2457.51,   76.86  C 2456.72    76.86  2456.09    77.49  2456.09    78.27 " style="stroke-width: 0.85 ;&st7; " /><path d=" M 2456.09,   78.27  C 2456.09    79.05  2456.72    79.69  2457.51    79.69 " style="stroke-width: 0.85 ;&st7; " /><path d=" M 2457.51,   79.69  C 2458.29    79.69  2458.92    79.05  2458.92    78.27 " style="stroke-width: 0.85 ;&st7; " /><path d=" M 2450.42,   86.77  C 2450.42    85.99  2449.79    85.35  2449.01    85.35 " style="stroke-width: 0.85 ;&st7; " /><path d=" M 2449.01,   85.35  C 2448.23    85.35  2447.59    85.99  2447.59    86.77 " style="stroke-width: 0.85 ;&st7; " /><path d=" M 2447.59,   86.77  C 2447.59    87.55  2448.23    88.19  2449.01    88.19 " style="stroke-width: 0.85 ;&st7; " /><path d=" M 2449.01,   88.19  C 2449.79    88.19  2450.42    87.55  2450.42    86.77 " style="stroke-width: 0.85 ;&st7; " /><path d=" M 2440.51,   61.28  C 2440.51    60.49  2439.87    59.86  2439.09    59.86 " style="stroke-width: 0.85 ;&st7; " /><path d=" M 2439.09,   59.86  C 2438.31    59.86  2437.68    60.49  2437.68    61.28 " style="stroke-width: 0.85 ;&st7; " /><path d=" M 2437.68,   61.28  C 2437.68    62.06  2438.31    62.69  2439.09    62.69 " style="stroke-width: 0.85 ;&st7; " /><path d=" M 2439.09,   62.69  C 2439.87    62.69  2440.51    62.06  2440.51    61.28 " style="stroke-width: 0.85 ;&st7; " /><path d=" M 2126.06,  416.80  C 2126.06   416.02  2125.43   415.38  2124.65   415.38 " style="stroke-width: 0.85 ;&st7; " /><path d=" M 2124.65,  415.38  C 2123.86   415.38  2123.23   416.02  2123.23   416.80 " style="stroke-width: 0.85 ;&st7; " /><path d=" M 2123.23,  416.80  C 2123.23   417.58  2123.86   418.22  2124.65   418.22 " style="stroke-width: 0.85 ;&st7; " /><path d=" M 2124.65,  418.22  C 2125.43   418.22  2126.06   417.58  2126.06   416.80 " style="stroke-width: 0.85 ;&st7; " /><path d=" M 2143.06,  416.80  C 2143.06   416.02  2142.42   415.38  2141.64   415.38 " style="stroke-width: 0.85 ;&st7; " /><path d=" M 2141.64,  415.38  C 2140.86   415.38  2140.23   416.02  2140.23   416.80 " style="stroke-width: 0.85 ;&st7; " /><path d=" M 2140.23,  416.80  C 2140.23   417.58  2140.86   418.22  2141.64   418.22 " style="stroke-width: 0.85 ;&st7; " /><path d=" M 2141.64,  418.22  C 2142.42   418.22  2143.06   417.58  2143.06   416.80 " style="stroke-width: 0.85 ;&st7; " /><path d=" M 2134.56,  402.63  C 2134.56   401.85  2133.93   401.22  2133.14   401.22 " style="stroke-width: 0.85 ;&st7; " /><path d=" M 2133.14,  401.22  C 2132.36   401.22  2131.73   401.85  2131.73   402.63 " style="stroke-width: 0.85 ;&st7; " /><path d=" M 2131.73,  402.63  C 2131.73   403.42  2132.36   404.05  2133.14   404.05 " style="stroke-width: 0.85 ;&st7; " /><path d=" M 2133.14,  404.05  C 2133.93   404.05  2134.56   403.42  2134.56   402.63 " style="stroke-width: 0.85 ;&st7; " /><path d=" M 2409.63,  184.22  C 2409.63   181.72  2407.60   179.69  2405.10   179.69 " style="stroke-width: 1.42 ;&st7; " /><path d=" M 2405.10,  179.69  C 2402.59   179.69  2400.57   181.72  2400.57   184.22 " style="stroke-width: 1.42 ;&st7; " /><path d=" M 2400.57,  184.22  C 2400.57   186.72  2402.59   188.75  2405.10   188.75 " style="stroke-width: 1.42 ;&st7; " /><path d=" M 2405.10,  188.75  C 2407.60   188.75  2409.63   186.72  2409.63   184.22 " style="stroke-width: 1.42 ;&st7; " /><path d=" M 2360.48,  188.75  C 2358.13   188.75  2356.23   190.66  2356.23   193.00 " style="stroke-width: 1.42 ;&st7; " /><path d=" M 2356.23,  193.00  C 2356.23   195.35  2358.13   197.25  2360.48   197.25 " style="stroke-width: 1.42 ;&st7; " /><path d=" M 2364.73,  197.25  C 2367.08   197.25  2368.98   195.35  2368.98   193.00 " style="stroke-width: 1.42 ;&st7; " /><path d=" M 2368.98,  193.00  C 2368.98   190.66  2367.08   188.75  2364.73   188.75 " style="stroke-width: 1.42 ;&st7; " /><path d=" M 2360.48,  231.25  C 2358.13   231.25  2356.23   233.15  2356.23   235.50 " style="stroke-width: 1.42 ;&st7; " /><path d=" M 2356.23,  235.50  C 2356.23   237.84  2358.13   239.75  2360.48   239.75 " style="stroke-width: 1.42 ;&st7; " /><path d=" M 2364.73,  239.75  C 2367.08   239.75  2368.98   237.84  2368.98   235.50 " style="stroke-width: 1.42 ;&st7; " /><path d=" M 2368.98,  235.50  C 2368.98   233.15  2367.08   231.25  2364.73   231.25 " style="stroke-width: 1.42 ;&st7; " /><path d=" M 2334.98,  231.25  C 2332.64   231.25  2330.74   233.15  2330.74   235.50 " style="stroke-width: 1.42 ;&st7; " /><path d=" M 2330.74,  235.50  C 2330.74   237.84  2332.64   239.75  2334.98   239.75 " style="stroke-width: 1.42 ;&st7; " /><path d=" M 2339.23,  239.75  C 2341.58   239.75  2343.48   237.84  2343.48   235.50 " style="stroke-width: 1.42 ;&st7; " /><path d=" M 2343.48,  235.50  C 2343.48   233.15  2341.58   231.25  2339.23   231.25 " style="stroke-width: 1.42 ;&st7; " /><path d=" M 2122.52,  486.20  C 2120.17   486.20  2118.27   488.11  2118.27   490.45 " style="stroke-width: 1.42 ;&st7; " /><path d=" M 2118.27,  490.45  C 2118.27   492.80  2120.17   494.70  2122.52   494.70 " style="stroke-width: 1.42 ;&st7; " /><path d=" M 2126.77,  494.70  C 2129.12   494.70  2131.02   492.80  2131.02   490.45 " style="stroke-width: 1.42 ;&st7; " /><path d=" M 2131.02,  490.45  C 2131.02   488.11  2129.12   486.20  2126.77   486.20 " style="stroke-width: 1.42 ;&st7; " /><path d=" M 2122.52,  528.70  C 2120.17   528.70  2118.27   530.60  2118.27   532.95 " style="stroke-width: 1.42 ;&st7; " /><path d=" M 2118.27,  532.95  C 2118.27   535.29  2120.17   537.20  2122.52   537.20 " style="stroke-width: 1.42 ;&st7; " /><path d=" M 2126.77,  537.20  C 2129.12   537.20  2131.02   535.29  2131.02   532.95 " style="stroke-width: 1.42 ;&st7; " /><path d=" M 2131.02,  532.95  C 2131.02   530.60  2129.12   528.70  2126.77   528.70 " style="stroke-width: 1.42 ;&st7; " /><path d=" M 2216.00,  490.45  C 2216.00   488.11  2214.10   486.20  2211.76   486.20 " style="stroke-width: 1.42 ;&st7; " /><path d=" M 2211.76,  494.70  C 2214.10   494.70  2216.00   492.80  2216.00   490.45 " style="stroke-width: 1.42 ;&st7; " /><path d=" M 2203.26,  490.45  C 2203.26   492.80  2205.16   494.70  2207.51   494.70 " style="stroke-width: 1.42 ;&st7; " /><path d=" M 2207.51,  486.20  C 2205.16   486.20  2203.26   488.11  2203.26   490.45 " style="stroke-width: 1.42 ;&st7; " /><text style="&st18;" transform="matrix(&st16;  2423.78  338.03 )">B-R</text><text style="&st18;" transform="matrix(&st16;  2441.93  60.97 )">RB</text><text ewd:textID="4" style="&st18;" transform="matrix(&st16;  2360.08  534.92 )">Combination Meter</text><text ewd:textID="10" style="&st18;" transform="matrix(&st16;  2317.59  49.08 )">Park/Neutral Position SW</text><text style="&st18;" transform="matrix(&st16;  2130.81  186.19 )">B</text><text style="&st18;" transform="matrix(&st16;  2122.27  186.19 )">4</text><text style="&st18;" transform="matrix(&st16;  2130.81  220.75 )">A</text><text style="&st18;" transform="matrix(&st16;  2122.27  220.75 )">8</text><text ewd:textID="8" style="&st18;" transform="matrix(&st17;  2156.36  216.77 )">Junction <tspan dy="6" x="0">Connector</tspan></text><text style="&st18;" transform="matrix(&st17;  2149.25  216.77 )">J49(A),J50(B)</text><text style="&st18;" transform="matrix(&st16;  2372.5  253.05 )">G-Y</text><text style="&st18;" transform="matrix(&st16;  2151.54  142.56 )">G-Y</text><text style="&st18;" transform="matrix(&st17;  2129.45  242.6 )">G-Y</text><text style="&st18;" transform="matrix(&st16;  2292.29  194.69 )">A</text><text style="&st18;" transform="matrix(&st16;  2280.56  194.69 )">17</text><text style="&st18;" transform="matrix(&st16;  2292.29  220.75 )">A</text><text style="&st18;" transform="matrix(&st16;  2280.56  220.75 )">18</text><text ewd:textID="8" style="&st18;" transform="matrix(&st17;  2273.64  216.77 )">Junction <tspan dy="6" x="0">Connector</tspan></text><text style="&st18;" transform="matrix(&st17;  2266.53  216.77 )">J49(A)</text><text style="&st18;" transform="matrix(&st17;  2290.92  365.82 )">G-B</text><text style="&st18;" transform="matrix(&st17;  2290.92  251.09 )">G-B</text><text style="&st18;" transform="matrix(&st17;  2401.4  366.57 )">R-W</text><text style="&st18;" transform="matrix(&st17;  2358.91  365.54 )">R-Y</text><text style="&st18;" transform="matrix(&st16;  2045.83  609.99 )">P</text><text style="&st18;" transform="matrix(&st16;  2096.82  609.99 )">P</text><text ewd:textID="11" style="&st18;" transform="matrix(&st17;  2095.45  437.74 )">Shift Lock Control ECU</text><text style="&st18;" transform="matrix(&st17;  2088.35  437.74 )">S31(B)</text><text style="&st18;" transform="matrix(&st16;  2008.61  407.72 )">12</text><text style="&st18;" transform="matrix(&st16;  2020.33  407.72 )">E</text><text style="&st18;" transform="matrix(&st16;  2008.61  356.16 )">10</text><text style="&st18;" transform="matrix(&st16;  2020.33  356.16 )">E</text><text style="&st18;" transform="matrix(&st16;  2283.74  110.27 )">6</text><text style="&st18;" transform="matrix(&st16;  2292.29  110.27 )">B</text><text style="&st18;" transform="matrix(&st16;  2352.51  110.27 )">1</text><text style="&st18;" transform="matrix(&st16;  2360.27  110.27 )">B</text><text style="&st18;" transform="matrix(&st16;  2394.22  110.27 )">9</text><text style="&st18;" transform="matrix(&st16;  2402.77  110.27 )">B</text><text style="&st18;" transform="matrix(&st16;  2445.21  110.27 )">7</text><text style="&st18;" transform="matrix(&st16;  2453.76  110.27 )">B</text><text style="&st18;" transform="matrix(&st16;  2496.2  110.27 )">3</text><text style="&st18;" transform="matrix(&st16;  2428.22  50.21 )">2</text><text style="&st18;" transform="matrix(&st16;  2436.76  50.21 )">B</text><text style="&st18;" transform="matrix(&st16;  2496.2  229.25 )">4</text><text style="&st18;" transform="matrix(&st16;  2470.71  229.25 )">3</text><text style="&st18;" transform="matrix(&st16;  2479.11  229.25 )">C</text><text style="&st18;" transform="matrix(&st16;  2445.21  229.25 )">6</text><text style="&st18;" transform="matrix(&st16;  2453.62  229.25 )">C</text><text style="&st18;" transform="matrix(&st16;  2419.72  229.25 )">5</text><text style="&st18;" transform="matrix(&st16;  2428.12  229.25 )">C</text><text style="&st18;" transform="matrix(&st16;  2391.04  229.25 )">10</text><text style="&st18;" transform="matrix(&st16;  2402.63  229.25 )">C</text><text style="&st18;" transform="matrix(&st16;  2496.2  390.16 )">3</text><text style="&st18;" transform="matrix(&st16;  2041.34  626.98 )">V-R</text><text style="&st18;" transform="matrix(&st16;  2043.35  643.98 )">BR</text><text style="&st18;" transform="matrix(&st17;  2018.97  476.73 )">G-O</text><text style="&st18;" transform="matrix(&st16;  2020.68  397.52 )">3</text><text style="&st18;" transform="matrix(&st16;  2020.68  366.36 )">L</text><text style="&st18;" transform="matrix(&st16;  2040.63  592.99 )">G-O</text><text style="&st18;" transform="matrix(&st16;  2040.92  321.03 )">G-R</text><text style="&st18;" transform="matrix(&st16;  2046.18  304.04 )">L</text><text style="&st18;" transform="matrix(&st16;  2041.34  270.04 )">R-Y</text><text style="&st18;" transform="matrix(&st16;  2041.06  287.04 )">G-Y</text><text style="&st18;" transform="matrix(&st16;  2092.33  626.98 )">V-R</text><text style="&st18;" transform="matrix(&st16;  2094.35  643.98 )">BR</text><text style="&st18;" transform="matrix(&st16;  2091.63  592.99 )">G-O</text><text style="&st18;" transform="matrix(&st16;  2091.91  321.03 )">G-R</text><text style="&st18;" transform="matrix(&st16;  2097.17  304.04 )">L</text><text style="&st18;" transform="matrix(&st16;  2092.33  270.04 )">R-Y</text><text style="&st18;" transform="matrix(&st16;  2092.05  287.04 )">G-Y</text><text style="&st18;" transform="matrix(&st17;  2426.9  280.84 )">G-Y</text><text style="&st18;" transform="matrix(&st16;  2360.08  527.81 )">C27(C),C28(D)</text><text style="&st18;" transform="matrix(&st16;  2317.59  41.97 )">N 4(B)</text><text ewd:textID="16" style="&st18;" transform="matrix(&st17;  2177.61  430.7 )">Transmission <tspan dy="6" x="0">Control SW</tspan></text><text style="&st18;" transform="matrix(&st16;  2446.02  186.19 )">1</text><text style="&st18;" transform="matrix(&st16;  2453.76  186.19 )">A</text><text style="&st18;" transform="matrix(&st16;  2394.25  186.19 )">9</text><text style="&st18;" transform="matrix(&st16;  2402.77  186.19 )">A</text><text style="&st18;" transform="matrix(&st16;  2248.73  424.43 )">3</text><text style="&st18;" transform="matrix(&st16;  2350.22  424.43 )">R</text><text style="&st18;" transform="matrix(&st16;  2282.37  424.43 )">P</text><text style="&st18;" transform="matrix(&st16;  2392.71  424.43 )">N</text><text style="&st18;" transform="matrix(&st16;  2443.7  424.43 )">D</text><text style="&st18;" transform="matrix(&st16;  2495.19  424.43 )">2</text><text style="&st18;" transform="matrix(&st17;  2401.4  281.58 )">R-W</text><text style="&st18;" transform="matrix(&st17;  2477.89  275.72 )">L</text><text style="&st18;" transform="matrix(&st17;  2452.39  161.86 )">G-Y</text><text style="&st18;" transform="matrix(&st17;  2401.4  162.6 )">R-W</text><text style="&st18;" transform="matrix(&st16;  2496.34  100.08 )">2L</text><text style="&st18;" transform="matrix(&st16;  2444.36  100.08 )">DL</text><text style="&st18;" transform="matrix(&st16;  2393.36  100.08 )">NL</text><text style="&st18;" transform="matrix(&st16;  2350.87  100.08 )">RL</text><text style="&st18;" transform="matrix(&st16;  2283.17  100.08 )">PL</text><text style="&st18;" transform="matrix(&st17;  2120.95  476.73 )">G-O</text><text style="&st18;" transform="matrix(&st17;  2205.94  451.23 )">G-O</text><text style="&st18;" transform="matrix(&st16;  2194.32  338.03 )">B-R</text><text style="&st18;" transform="matrix(&st16;  2313.3  270.04 )">R-Y</text><text style="&st18;" transform="matrix(&st17;  2358.91  280.56 )">R-Y</text><text style="&st18;" transform="matrix(&st17;  2290.92  140.61 )">G-B</text><text style="&st18;" transform="matrix(&st17;  2290.92  183.11 )">G-B</text><text style="&st18;" transform="matrix(&st17;  2358.91  182.82 )">R-Y</text><text style="&st18;" transform="matrix(&st17;  2358.91  135.84 )">Y</text><text style="&st18;" transform="matrix(&st16;  2111.1  392.41 )">NSSD</text><text style="&st18;" transform="matrix(&st16;  2150.46  392.41 )">ATD</text><text style="&st18;" transform="matrix(&st16;  2108.95  431.52 )">AT3</text><text style="&st18;" transform="matrix(&st16;  2347.79  152.48 )">3</text><text style="&st18;" transform="matrix(&st16;  2279.8  152.48 )">5</text><text style="&st18;" transform="matrix(&st16;  2357.87  194.97 )">2Q</text><text style="&st18;" transform="matrix(&st16;  2345.96  194.97 )">27</text><text style="&st18;" transform="matrix(&st16;  2357.87  237.47 )">2Q</text><text style="&st18;" transform="matrix(&st16;  2347.51  237.47 )">11</text><text style="&st18;" transform="matrix(&st16;  2332.8  237.47 )">2P</text><text style="&st18;" transform="matrix(&st16;  2320.46  237.47 )">27</text><text style="&st18;" transform="matrix(&st16;  2496.23  186.19 )">3</text><text style="&st18;" transform="matrix(&st16;  2119.91  492.42 )">2O</text><text style="&st18;" transform="matrix(&st16;  2108.78  492.42 )">18</text><text style="&st18;" transform="matrix(&st16;  2120.19  534.92 )">2N</text><text style="&st18;" transform="matrix(&st16;  2108.78  534.92 )">18</text><text style="&st18;" transform="matrix(&st16;  2196.94  492.42 )">2</text><text style="&st18;" transform="matrix(&st16;  2204.9  492.42 )">2O</text><text style="&st18;" transform="matrix(&st16;  2445.21  390.16 )">5</text><text style="&st18;" transform="matrix(&st16;  2453.62  390.16 )">D</text><text style="&st18;" transform="matrix(&st16;  2394.22  390.16 )">6</text><text style="&st18;" transform="matrix(&st16;  2402.63  390.16 )">D</text><text style="&st18;" transform="matrix(&st16;  2351.73  390.16 )">7</text><text style="&st18;" transform="matrix(&st16;  2360.13  390.16 )">D</text><text style="&st18;" transform="matrix(&st16;  2280.56  390.16 )">12</text><text style="&st18;" transform="matrix(&st16;  2292.14  390.16 )">C</text><text style="&st18;" transform="matrix(&st16;  2249.75  390.16 )">4</text><text style="&st18;" transform="matrix(&st16;  2258.15  390.16 )">D</text><text style="&st18;" transform="matrix(&st16;  2122.27  381.66 )">9</text><text style="&st18;" transform="matrix(&st16;  2130.81  381.66 )">B</text><text style="&st18;" transform="matrix(&st16;  2156.26  381.66 )">2</text><text style="&st18;" transform="matrix(&st16;  2164.81  381.66 )">B</text><text style="&st18;" transform="matrix(&st16;  2113.77  441.71 )">3</text><text style="&st18;" transform="matrix(&st16;  2122.31  441.71 )">B</text></svg>