﻿<?xml version="1.0" encoding="utf-8"?>
<!DOCTYPE svg PUBLIC "-//W3C//DTD SVG 1.0//EN" "http://www.w3.org/TR/2001/REC-SVG-20010904/DTD/svg10.dtd"[
	<!ENTITY ns_flows "http://ns.adobe.com/Flows/1.0/">
	<!ENTITY ns_svg "http://www.w3.org/2000/svg">
	<!ENTITY ns_xlink "http://www.w3.org/1999/xlink">
	<!ENTITY st0 "font-size:7px;font-family:'MS-PGothic';adobe-font-script:japanese;">
	<!ENTITY st1 "font-size:6px;font-family:'ArialMT';">
	<!-- White fill  -->
	<!ENTITY st2 "fill:#FFFFFF;stroke:#000000; stroke-width:1.41;stroke-linecap:round;stroke-linejoin:round;">
	<!-- Yellow fill  -->
	<!ENTITY st3 "fill:#FFFFCC;stroke:#FFFFCC; stroke-width:0.1;stroke-linecap:round;stroke-linejoin:round;">
	<!-- Gray fill  -->
	<!ENTITY st4 "fill:#CCCCCC;stroke:#CCCCCC; stroke-width:0.1;stroke-linecap:round;stroke-linejoin:round;">
	<!-- Light-blue fill -->
	<!ENTITY st5 "fill:#CCECF4;stroke:#000000; stroke-width:1.133;stroke-linecap:round;stroke-linejoin:round;">
	<!ENTITY st6 "fill:none;stroke-linecap:butt; stroke-linejoin:round;">
	<!ENTITY st7 "fill:none;stroke:#000000;stroke-linecap:round;stroke-linejoin:round;">
	<!ENTITY st8 "enable-background:new    ;">
	<!-- Black fill -->
	<!ENTITY st9 "fill:#000000;stroke:#000000; stroke-linecap:round;stroke-linejoin:round;">
	<!-- SRS note   -->
	<!ENTITY st10 "font-size:9px;font-family:'ArialMT';">
	<!ENTITY st11 "font-size:9px;font-family:'Svg Symbol';">
	<!ENTITY st12 "font-size:6px;font-family:'Svg Symbol';">
	<!ENTITY st13 "fill:none;stroke:#ff0000;stroke-linecap:round;stroke-linejoin:round;">
	<!-- Yellow fill  -->
	<!ENTITY st14 "fill:#FFFF00;stroke:#FFFF00; stroke-width:0.1;stroke-linecap:round;stroke-linejoin:round;">
	<!ENTITY st15 "font-size:6px;font-family:'MS-PGothic';adobe-font-script:japanese;">
	<!ENTITY st16 "1.00 0.00 0.00 1.00">
	<!ENTITY st17 "0.00 -1.00 1.00 0.00">
	<!ENTITY st18 "font-size:6px;font-family:'Arial';">
	<!ENTITY st19 "font-size:9px;font-family:'Arial';">
	<!ENTITY st20 "font-size:6px;font-family:'MS-PGothic','MS PGothic';adobe-font-script:japanese;">
	<!ENTITY st21 "font-size:7px;font-family:'MS-PGothic','MS PGothic';adobe-font-script:japanese;">
	<!ATTLIST svg
		xmlns:ewd CDATA #FIXED "http://shcl.co.jp/ewd"
		xmlns:a CDATA #FIXED "http://ns.adobe.com/AdobeSVGViewerExtensions/3.0/"
		ewd:ver CDATA #IMPLIED
	>
	<!ATTLIST a
		ewd:lineID CDATA #IMPLIED
		ewd:groupID CDATA #IMPLIED
		ewd:figtype CDATA #IMPLIED
		ewd:code CDATA #IMPLIED
		ewd:figID CDATA #IMPLIED
		ewd:pinNo CDATA #IMPLIED
		ewd:comment CDATA #IMPLIED >
	<!ATTLIST g
		ewd:lineID CDATA #IMPLIED
		ewd:groupID CDATA #IMPLIED
		ewd:figtype CDATA #IMPLIED
		ewd:code CDATA #IMPLIED
		ewd:figID CDATA #IMPLIED
		ewd:pinNo CDATA #IMPLIED
		ewd:comment CDATA #IMPLIED >
	<!ATTLIST text
		ewd:textID CDATA #IMPLIED >
	<!ATTLIST title
		ewd:textID CDATA #IMPLIED >
]>
<!-- Generator: Shintec Hozumi YS   -->
<svg onload="call_execInitLoadProc_svg('system')" style="overflow:visible;  enable-background:new 0 0 7244.162 710.000" viewBox="0 0 7244.162 710.000" height="710.000" width="7244.162" xml:space="preserve" ewd:ver="L2.1.2.6" xmlns="&ns_svg;" xmlns:a="http://ns.adobe.com/AdobeSVGViewerExtensions/3.0/" xmlns:ewd="http://shcl.co.jp/ewd" xmlns:xlink="&ns_xlink;">
<path d=" M 5524.08,  503.20  L 5532.58,  503.20 " style="stroke-width: 1.42 ;&st7; " /><path d=" M 5634.56,  154.76  L 5634.56,  180.26 " style="stroke-width: 0.85 ;&st7; " /><path d=" M 5636.68,  180.26  L 5632.43,  180.26 " style="stroke-width: 1.42 ;&st7; " /><path d=" M 5636.68,  188.75  L 5632.43,  188.75 " style="stroke-width: 1.42 ;&st7; " /><path d=" M 5577.19,  282.24  L 5572.94,  282.24 " style="stroke-width: 1.42 ;&st7; " /><path d=" M 5577.19,  290.74  L 5572.94,  290.74 " style="stroke-width: 1.42 ;&st7; " /><path d=" M 5577.19,  324.73  L 5572.94,  324.73 " style="stroke-width: 1.42 ;&st7; " /><path d=" M 5577.19,  333.23  L 5572.94,  333.23 " style="stroke-width: 1.42 ;&st7; " /><path d=" M 5534.70,  282.24  L 5530.45,  282.24 " style="stroke-width: 1.42 ;&st7; " /><path d=" M 5534.70,  290.74  L 5530.45,  290.74 " style="stroke-width: 1.42 ;&st7; " /><path d=" M 5534.70,  324.73  L 5530.45,  324.73 " style="stroke-width: 1.42 ;&st7; " /><path d=" M 5534.70,  333.23  L 5530.45,  333.23 " style="stroke-width: 1.42 ;&st7; " /><path d=" M 5583.57,  231.25  L 5575.07,  231.25 " style="stroke-width: 1.42 ;&st7; " /><path d=" M 5541.07,  231.25  L 5532.58,  231.25 " style="stroke-width: 1.42 ;&st7; " /><path d=" M 5524.08,  163.26  L 5532.58,  163.26 " style="stroke-width: 1.42 ;&st7; " /><path d=" M 5566.57,  163.26  L 5575.07,  163.26 " style="stroke-width: 1.42 ;&st7; " /><path d=" M 5940.51,  171.76  L 5949.01,  171.76 " style="stroke-width: 1.42 ;&st7; " /><path d=" M 5590.65,  710.00  L 5593.48,  710.00 " style="stroke-width: 0.85 ;&st7; " /><path d=" M 5589.23,  707.17  L 5594.90,  707.17 " style="stroke-width: 0.85 ;&st7; " /><path d=" M 5587.81,  704.33  L 5596.31,  704.33 " style="stroke-width: 0.85 ;&st7; " /><path d=" M 5592.06,  697.25  L 5592.06,  701.50 " style="stroke-width: 0.85 ;&st7; " /><path d=" M 5583.56,  701.50  L 5600.56,  701.50 " style="stroke-width: 0.85 ;&st7; " /><path d=" M 5536.82,  497.54  L 5532.57,  501.78  L 5528.32,  497.54 " style="stroke-width: 1.42 ;&st7; " /><path d=" M 5592.06,  511.70  L 5592.06,  494.70 " style="stroke-width: 0.85 ;&st7; " /><path d=" M 5583.56,  494.70  L 5583.56,  511.70  L 5600.56,  511.70  L 5600.56,  494.70  L 5583.56,  494.70 " style="stroke-width: 1.42 ;&st7; " /><path d=" M 5528.32,  494.14  L 5532.57,  498.39  L 5536.82,  494.14 " style="stroke-width: 1.42 ;&st7; " /><path d=" M 5647.30,  163.26  L 5647.30,  120.77  L 5621.81,  120.77  L 5621.81,  163.26  L 5647.30,  163.26 " style="stroke-width: 1.42 ;&st7; " /><path d=" M 5634.56,  175.36  L 5631.72,  172.53  L 5631.72,  176.78  L 5634.56,  179.61  L 5637.39,  176.78  L 5637.39,  172.53  L 5634.56,  175.36 " style="stroke-width: 0.28 ;&st9;" /><path d=" M 5575.07,  295.63  L 5577.90,  298.46  L 5577.90,  294.22  L 5575.07,  291.38  L 5572.23,  294.22  L 5572.23,  298.46  L 5575.07,  295.63 " style="stroke-width: 0.28 ;&st9;" /><path d=" M 5575.07,  319.84  L 5572.23,  317.00  L 5572.23,  321.25  L 5575.07,  324.09  L 5577.90,  321.25  L 5577.90,  317.00  L 5575.07,  319.84 " style="stroke-width: 0.28 ;&st9;" /><path d=" M 5575.07,  324.73  L 5575.07,  290.74 " style="stroke-width: 0.85 ;&st7; " /><path d=" M 5532.57,  295.63  L 5535.41,  298.46  L 5535.41,  294.22  L 5532.57,  291.38  L 5529.74,  294.22  L 5529.74,  298.46  L 5532.57,  295.63 " style="stroke-width: 0.28 ;&st9;" /><path d=" M 5532.57,  319.84  L 5529.74,  317.00  L 5529.74,  321.25  L 5532.57,  324.09  L 5535.41,  321.25  L 5535.41,  317.00  L 5532.57,  319.84 " style="stroke-width: 0.28 ;&st9;" /><path d=" M 5532.57,  324.73  L 5532.57,  290.74 " style="stroke-width: 0.85 ;&st7; " /><path d=" M 5536.82,  236.91  L 5532.57,  232.66  L 5528.32,  236.91 " style="stroke-width: 1.42 ;&st7; " /><path d=" M 5536.82,  240.31  L 5532.57,  236.06  L 5528.32,  240.31 " style="stroke-width: 1.42 ;&st7; " /><path d=" M 6016.99,  324.73  L 6016.99,  358.73  L 5999.99,  358.73  L 5999.99,  324.73  L 6016.99,  324.73 " style="stroke-width: 1.42 ;&st7; " /><path d=" M 5579.32,  236.91  L 5575.07,  232.66  L 5570.82,  236.91 " style="stroke-width: 1.42 ;&st7; " /><path d=" M 5579.32,  240.31  L 5575.07,  236.06  L 5570.82,  240.31 " style="stroke-width: 1.42 ;&st7; " /><path d=" M 5528.32,  154.19  L 5532.57,  158.44  L 5536.82,  154.19 " style="stroke-width: 1.42 ;&st7; " /><path d=" M 5536.82,  157.59  L 5532.57,  161.84  L 5528.32,  157.59 " style="stroke-width: 1.42 ;&st7; " /><path d=" M 5570.82,  154.19  L 5575.07,  158.44  L 5579.32,  154.19 " style="stroke-width: 1.42 ;&st7; " /><path d=" M 5579.32,  157.59  L 5575.07,  161.84  L 5570.82,  157.59 " style="stroke-width: 1.42 ;&st7; " /><path d=" M 5944.75,  180.82  L 5949.00,  176.57  L 5953.25,  180.82 " style="stroke-width: 1.42 ;&st7; " /><path d=" M 5953.25,  177.42  L 5949.00,  173.17  L 5944.75,  177.42 " style="stroke-width: 1.42 ;&st7; " /><path d=" M 5643.05,  511.70  L 5643.05,  494.70 " style="stroke-width: 0.85 ;&st7; " /><path d=" M 5634.56,  494.70  L 5634.56,  511.70  L 5651.55,  511.70  L 5651.55,  494.70  L 5634.56,  494.70 " style="stroke-width: 1.42 ;&st7; " /><path d=" M 5534.70,  333.23  C 5537.05   333.23  5538.95   331.33  5538.95   328.98 " style="stroke-width: 1.42 ;&st7; " /><path d=" M 5538.95,  328.98  C 5538.95   326.63  5537.05   324.73  5534.70   324.73 " style="stroke-width: 1.42 ;&st7; " /><path d=" M 5634.56,  132.10  C 5631.82   133.71  5630.91   137.24  5632.52   139.97 " style="stroke-width: 1.42 ;&st7; " /><path d=" M 5632.52,  139.97  C 5633.04   140.86  5633.68   141.49  5634.56   142.01 " style="stroke-width: 1.42 ;&st7; " /><path d=" M 5634.56,  151.93  C 5637.30   150.31  5638.21   146.79  5636.60   144.05 " style="stroke-width: 1.42 ;&st7; " /><path d=" M 5636.60,  144.05  C 5636.08   143.17  5635.44   142.53  5634.56   142.01 " style="stroke-width: 1.42 ;&st7; " /><path d=" M 5635.97,  130.68  C 5635.97   129.90  5635.34   129.26  5634.56   129.26 " style="stroke-width: 0.85 ;&st7; " /><path d=" M 5634.56,  129.26  C 5633.78   129.26  5633.14   129.90  5633.14   130.68 " style="stroke-width: 0.85 ;&st7; " /><path d=" M 5633.14,  130.68  C 5633.14   131.46  5633.78   132.10  5634.56   132.10 " style="stroke-width: 0.85 ;&st7; " /><path d=" M 5634.56,  132.10  C 5635.34   132.10  5635.97   131.46  5635.97   130.68 " style="stroke-width: 0.85 ;&st7; " /><path d=" M 5635.97,  153.34  C 5635.97   152.56  5635.34   151.93  5634.56   151.93 " style="stroke-width: 0.85 ;&st7; " /><path d=" M 5634.56,  151.93  C 5633.78   151.93  5633.14   152.56  5633.14   153.34 " style="stroke-width: 0.85 ;&st7; " /><path d=" M 5633.14,  153.34  C 5633.14   154.13  5633.78   154.76  5634.56   154.76 " style="stroke-width: 0.85 ;&st7; " /><path d=" M 5634.56,  154.76  C 5635.34   154.76  5635.97   154.13  5635.97   153.34 " style="stroke-width: 0.85 ;&st7; " /><path d=" M 5632.43,  180.26  C 5630.09   180.26  5628.18   182.16  5628.18   184.50 " style="stroke-width: 1.42 ;&st7; " /><path d=" M 5628.18,  184.50  C 5628.18   186.85  5630.09   188.75  5632.43   188.75 " style="stroke-width: 1.42 ;&st7; " /><path d=" M 5640.93,  184.50  C 5640.93   182.16  5639.03   180.26  5636.68   180.26 " style="stroke-width: 1.42 ;&st7; " /><path d=" M 5636.68,  188.75  C 5639.03   188.75  5640.93   186.85  5640.93   184.50 " style="stroke-width: 1.42 ;&st7; " /><path d=" M 5596.60,  490.17  C 5596.60   487.67  5594.57   485.64  5592.07   485.64 " style="stroke-width: 1.42 ;&st7; " /><path d=" M 5592.07,  485.64  C 5589.56   485.64  5587.53   487.67  5587.53   490.17 " style="stroke-width: 1.42 ;&st7; " /><path d=" M 5587.53,  490.17  C 5587.53   492.67  5589.56   494.70  5592.07   494.70 " style="stroke-width: 1.42 ;&st7; " /><path d=" M 5592.07,  494.70  C 5594.57   494.70  5596.60   492.67  5596.60   490.17 " style="stroke-width: 1.42 ;&st7; " /><path d=" M 5596.60,  516.23  C 5596.60   513.73  5594.57   511.70  5592.07   511.70 " style="stroke-width: 1.42 ;&st7; " /><path d=" M 5592.07,  511.70  C 5589.56   511.70  5587.53   513.73  5587.53   516.23 " style="stroke-width: 1.42 ;&st7; " /><path d=" M 5587.53,  516.23  C 5587.53   518.74  5589.56   520.76  5592.07   520.76 " style="stroke-width: 1.42 ;&st7; " /><path d=" M 5592.07,  520.76  C 5594.57   520.76  5596.60   518.74  5596.60   516.23 " style="stroke-width: 1.42 ;&st7; " /><path d=" M 5572.94,  282.24  C 5570.60   282.24  5568.69   284.14  5568.69   286.49 " style="stroke-width: 1.42 ;&st7; " /><path d=" M 5568.69,  286.49  C 5568.69   288.83  5570.60   290.74  5572.94   290.74 " style="stroke-width: 1.42 ;&st7; " /><path d=" M 5577.19,  290.74  C 5579.54   290.74  5581.44   288.83  5581.44   286.49 " style="stroke-width: 1.42 ;&st7; " /><path d=" M 5581.44,  286.49  C 5581.44   284.14  5579.54   282.24  5577.19   282.24 " style="stroke-width: 1.42 ;&st7; " /><path d=" M 5572.94,  324.73  C 5570.60   324.73  5568.69   326.63  5568.69   328.98 " style="stroke-width: 1.42 ;&st7; " /><path d=" M 5568.69,  328.98  C 5568.69   331.33  5570.60   333.23  5572.94   333.23 " style="stroke-width: 1.42 ;&st7; " /><path d=" M 5577.19,  333.23  C 5579.54   333.23  5581.44   331.33  5581.44   328.98 " style="stroke-width: 1.42 ;&st7; " /><path d=" M 5581.44,  328.98  C 5581.44   326.63  5579.54   324.73  5577.19   324.73 " style="stroke-width: 1.42 ;&st7; " /><path d=" M 5530.45,  282.24  C 5528.10   282.24  5526.20   284.14  5526.20   286.49 " style="stroke-width: 1.42 ;&st7; " /><path d=" M 5526.20,  286.49  C 5526.20   288.83  5528.10   290.74  5530.45   290.74 " style="stroke-width: 1.42 ;&st7; " /><path d=" M 5534.70,  290.74  C 5537.05   290.74  5538.95   288.83  5538.95   286.49 " style="stroke-width: 1.42 ;&st7; " /><path d=" M 5538.95,  286.49  C 5538.95   284.14  5537.05   282.24  5534.70   282.24 " style="stroke-width: 1.42 ;&st7; " /><path d=" M 5530.45,  324.73  C 5528.10   324.73  5526.20   326.63  5526.20   328.98 " style="stroke-width: 1.42 ;&st7; " /><path d=" M 5526.20,  328.98  C 5526.20   331.33  5528.10   333.23  5530.45   333.23 " style="stroke-width: 1.42 ;&st7; " /><path d=" M 5537.11,   91.30  C 5537.11    88.80  5535.08    86.77  5532.58    86.77 " style="stroke-width: 1.42 ;&st7; " /><path d=" M 5532.58,   86.77  C 5530.07    86.77  5528.04    88.80  5528.04    91.30 " style="stroke-width: 1.42 ;&st7; " /><path d=" M 5528.04,   91.30  C 5528.04    93.81  5530.07    95.84  5532.58    95.84 " style="stroke-width: 1.42 ;&st7; " /><path d=" M 5532.58,   95.84  C 5535.08    95.84  5537.11    93.81  5537.11    91.30 " style="stroke-width: 1.42 ;&st7; " /><path d=" M 5579.60,   91.30  C 5579.60    88.80  5577.57    86.77  5575.07    86.77 " style="stroke-width: 1.42 ;&st7; " /><path d=" M 5575.07,   86.77  C 5572.57    86.77  5570.54    88.80  5570.54    91.30 " style="stroke-width: 1.42 ;&st7; " /><path d=" M 5570.54,   91.30  C 5570.54    93.81  5572.57    95.84  5575.07    95.84 " style="stroke-width: 1.42 ;&st7; " /><path d=" M 5575.07,   95.84  C 5577.57    95.84  5579.60    93.81  5579.60    91.30 " style="stroke-width: 1.42 ;&st7; " /><path d=" M 5885.55,   91.30  C 5885.55    88.80  5883.52    86.77  5881.02    86.77 " style="stroke-width: 1.42 ;&st7; " /><path d=" M 5881.02,   86.77  C 5878.51    86.77  5876.48    88.80  5876.48    91.30 " style="stroke-width: 1.42 ;&st7; " /><path d=" M 5876.48,   91.30  C 5876.48    93.81  5878.51    95.84  5881.02    95.84 " style="stroke-width: 1.42 ;&st7; " /><path d=" M 5881.02,   95.84  C 5883.52    95.84  5885.55    93.81  5885.55    91.30 " style="stroke-width: 1.42 ;&st7; " /><path d=" M 5953.54,   91.30  C 5953.54    88.80  5951.51    86.77  5949.01    86.77 " style="stroke-width: 1.42 ;&st7; " /><path d=" M 5949.01,   86.77  C 5946.50    86.77  5944.47    88.80  5944.47    91.30 " style="stroke-width: 1.42 ;&st7; " /><path d=" M 5944.47,   91.30  C 5944.47    93.81  5946.50    95.84  5949.01    95.84 " style="stroke-width: 1.42 ;&st7; " /><path d=" M 5949.01,   95.84  C 5951.51    95.84  5953.54    93.81  5953.54    91.30 " style="stroke-width: 1.42 ;&st7; " /><path d=" M 5843.06,   91.30  C 5843.06    88.80  5841.03    86.77  5838.52    86.77 " style="stroke-width: 1.42 ;&st7; " /><path d=" M 5838.52,   86.77  C 5836.02    86.77  5833.99    88.80  5833.99    91.30 " style="stroke-width: 1.42 ;&st7; " /><path d=" M 5833.99,   91.30  C 5833.99    93.81  5836.02    95.84  5838.52    95.84 " style="stroke-width: 1.42 ;&st7; " /><path d=" M 5838.52,   95.84  C 5841.03    95.84  5843.06    93.81  5843.06    91.30 " style="stroke-width: 1.42 ;&st7; " /><path d=" M 5800.56,   91.30  C 5800.56    88.80  5798.53    86.77  5796.03    86.77 " style="stroke-width: 1.42 ;&st7; " /><path d=" M 5796.03,   86.77  C 5793.53    86.77  5791.50    88.80  5791.50    91.30 " style="stroke-width: 1.42 ;&st7; " /><path d=" M 5791.50,   91.30  C 5791.50    93.81  5793.53    95.84  5796.03    95.84 " style="stroke-width: 1.42 ;&st7; " /><path d=" M 5796.03,   95.84  C 5798.53    95.84  5800.56    93.81  5800.56    91.30 " style="stroke-width: 1.42 ;&st7; " /><text style="&st18;" transform="matrix(&st17;  5945.31  136.08 )">R-B</text><text style="&st18;" transform="matrix(&st16;  5945.65  83.07 )">W</text><text style="&st18;" transform="matrix(&st16;  5934.97  169.48 )">1</text><text style="&st18;" transform="matrix(&st16;  5946.67  93.27 )">A</text><text style="&st18;" transform="matrix(&st16;  5934.98  93.27 )">12</text><text style="&st18;" transform="matrix(&st16;  5824.5  93.27 )">17</text><text style="&st18;" transform="matrix(&st16;  5836.19  93.27 )">B</text><text style="&st18;" transform="matrix(&st16;  5831.39  83.07 )">SPD</text><text style="&st18;" transform="matrix(&st17;  5834.83  136.08 )">V-R</text><text style="&st18;" transform="matrix(&st17;  5877.32  136.08 )">Y-R</text><text style="&st18;" transform="matrix(&st16;  5872.33  83.07 )">GIND</text><text style="&st18;" transform="matrix(&st16;  5998.36  83.07 )">CLSW</text><text style="&st18;" transform="matrix(&st16;  5994.44  93.27 )">10</text><text style="&st18;" transform="matrix(&st16;  5994.46  254.46 )">1</text><text style="&st18;" transform="matrix(&st16;  5994.46  245.96 )">1</text><text style="&st18;" transform="matrix(&st16;  5560.25  228.97 )">2</text><text style="&st18;" transform="matrix(&st16;  5515.36  228.97 )">11</text><text style="&st18;" transform="matrix(&st17;  5528.88  260.1 )">W</text><text style="&st18;" transform="matrix(&st17;  5571.37  263.56 )">R-Y</text><text style="&st18;" transform="matrix(&st17;  5571.37  204.07 )">R-Y</text><text style="&st18;" transform="matrix(&st17;  5528.88  200.61 )">W</text><text style="&st18;" transform="matrix(&st16;  5517.76  169.48 )">9</text><text style="&st18;" transform="matrix(&st16;  5560.25  169.48 )">8</text><text style="&st18;" transform="matrix(&st17;  5571.37  136.08 )">R-Y</text><text style="&st18;" transform="matrix(&st17;  5528.88  132.62 )">W</text><text style="&st18;" transform="matrix(&st16;  5518.52  93.27 )">19</text><text style="&st18;" transform="matrix(&st16;  5522.44  83.07 )">WFSE</text><text style="&st18;" transform="matrix(&st16;  5530.24  93.27 )">A</text><text style="&st18;" transform="matrix(&st16;  5561.01  93.27 )">18</text><text style="&st18;" transform="matrix(&st16;  5569.77  83.07 )">SIL</text><text style="&st18;" transform="matrix(&st16;  5572.74  93.27 )">A</text><text style="&st18;" transform="matrix(&st16;  5625.45  117.07 )">(BAT)</text><text style="&st18;" transform="matrix(&st16;  5527.49  423.02 )">SG</text><text style="&st18;" transform="matrix(&st16;  5525.79  434.91 )">5</text><text style="&st18;" transform="matrix(&st16;  5585.28  434.91 )">4</text><text style="&st18;" transform="matrix(&st16;  5586.84  423.02 )">CG</text><text style="&st18;" transform="matrix(&st17;  5528.88  465.51 )">BR</text><text style="&st18;" transform="matrix(&st17;  5588.37  463.46 )">G</text><text style="&st18;" transform="matrix(&st17;  5588.37  553.39 )">W-B</text><text style="&st18;" transform="matrix(&st16;  5624.59  380.53 )">16</text><text style="&st18;" transform="matrix(&st17;  5630.86  221.25 )">G</text><text style="&st18;" transform="matrix(&st16;  5627.78  391.86 )">BAT</text><text style="&st18;" transform="matrix(&st16;  5514.58  509.42 )">18</text><text style="&st18;" transform="matrix(&st16;  5651.86  141.16 )">7.5A <tspan dy="6" x="0">OBD</tspan></text><text style="&st18;" transform="matrix(&st16;  5630.11  186.47 )">2D</text><text style="&st18;" transform="matrix(&st16;  5618.69  186.47 )">14</text><text style="&st18;" transform="matrix(&st17;  5608.18  514.22 )">J29(B)</text><text ewd:textID="40" style="&st18;" transform="matrix(&st17;  5615.28  514.22 )">Junction <tspan dy="6" x="0">Connector</tspan></text><text style="&st18;" transform="matrix(&st16;  5581.99  492.14 )">1</text><text style="&st18;" transform="matrix(&st16;  5589.73  492.14 )">B</text><text style="&st18;" transform="matrix(&st16;  5589.73  518.2 )">B</text><text style="&st18;" transform="matrix(&st16;  5581.22  518.2 )">4</text><text style="&st18;" transform="matrix(&st17;  5528.88  550.5 )">BR</text><text style="&st18;" transform="matrix(&st16;  5522.44  391.86 )">WFSE</text><text style="&st18;" transform="matrix(&st16;  5522.61  380.53 )">15</text><text style="&st18;" transform="matrix(&st16;  5568.28  380.53 )">7</text><text style="&st18;" transform="matrix(&st16;  5570.34  288.46 )">2Q</text><text style="&st18;" transform="matrix(&st16;  5562.38  288.46 )">6</text><text style="&st18;" transform="matrix(&st16;  5570.34  330.95 )">2Q</text><text style="&st18;" transform="matrix(&st16;  5558.42  330.95 )">22</text><text style="&st18;" transform="matrix(&st16;  5569.77  391.86 )">SIL</text><text style="&st18;" transform="matrix(&st17;  5528.88  357.83 )">W</text><text style="&st18;" transform="matrix(&st17;  5571.37  361.29 )">R-Y</text><text style="&st18;" transform="matrix(&st16;  5528.12  288.46 )">2C</text><text style="&st18;" transform="matrix(&st16;  5519.89  288.46 )">9</text><text style="&st18;" transform="matrix(&st16;  5528.12  330.95 )">2C</text><text style="&st18;" transform="matrix(&st16;  5516.71  330.95 )">10</text><text style="&st18;" transform="matrix(&st17;  5659.17  514.22 )">J62</text><text ewd:textID="40" style="&st18;" transform="matrix(&st17;  5666.27  514.22 )">Junction <tspan dy="6" x="0">Connector</tspan></text><text style="&st18;" transform="matrix(&st16;  5633.87  519.89 )">11</text><text style="&st18;" transform="matrix(&st16;  5636.27  491.01 )">6</text><text style="&st18;" transform="matrix(&st17;  5599.7  466.89 )">(*6)</text><text style="&st18;" transform="matrix(&st17;  5599.7  551.88 )">(*6)</text><text style="&st18;" transform="matrix(&st17;  5639.36  463.46 )">G</text><text style="&st18;" transform="matrix(&st17;  5650.69  466.89 )">(*7)</text><text style="&st18;" transform="matrix(&st17;  5639.36  553.39 )">W-B</text><text style="&st18;" transform="matrix(&st17;  5650.69  551.88 )">(*7)</text><text style="&st18;" transform="matrix(&st16;  5878.69  93.27 )">A</text><text style="&st18;" transform="matrix(&st16;  5866.99  93.27 )">14</text><text style="&st18;" transform="matrix(&st16;  5790.66  83.07 )">DM</text><text style="&st18;" transform="matrix(&st16;  5785.18  93.27 )">3</text><text style="&st18;" transform="matrix(&st16;  5793.7  93.27 )">A</text><text style="&st18;" transform="matrix(&st17;  5792.34  136.36 )">G-B</text><text style="&st18;" transform="matrix(&st17;  5911.08  137.2 )">R-B</text><text style="&st18;" transform="matrix(&st17;  5922.65  135.44 )">(*7)</text><text style="&st18;" transform="matrix(&st17;  5956.64  135.44 )">(*6)</text><text style="&st18;" transform="matrix(&st17;  5945.31  212.57 )">R-B</text><text style="&st18;" transform="matrix(&st17;  5956.64  211.93 )">(*6)</text><text ewd:textID="28" style="&st18;" transform="matrix(&st16;  5929.48  32.08 )">Engine ECU</text><text style="&st18;" transform="matrix(&st16;  5929.48  24.98 )">E 4(A),E 5(B),E 6(C),E 7(D)</text><text style="&st18;" transform="matrix(&st16;  5725.71  618.48 )">P</text><text style="&st18;" transform="matrix(&st16;  5674.72  618.48 )">P</text><text style="&st18;" transform="matrix(&st16;  5669.35  592.99 )">B-W</text><text style="&st18;" transform="matrix(&st16;  5720.34  592.99 )">B-W</text><text style="&st18;" transform="matrix(&st16;  5990.5  169.48 )">18</text><text style="&st18;" transform="matrix(&st16;  5993.68  160.98 )">5</text><text style="&st18;" transform="matrix(&st16;  5989.73  177.98 )">25</text></svg>