﻿<?xml version="1.0" encoding="utf-8"?>
<!DOCTYPE svg PUBLIC "-//W3C//DTD SVG 1.0//EN" "http://www.w3.org/TR/2001/REC-SVG-20010904/DTD/svg10.dtd"[
	<!ENTITY ns_flows "http://ns.adobe.com/Flows/1.0/">
	<!ENTITY ns_svg "http://www.w3.org/2000/svg">
	<!ENTITY ns_xlink "http://www.w3.org/1999/xlink">
	<!ENTITY st0 "font-size:7px;font-family:'MS-PGothic';adobe-font-script:japanese;">
	<!ENTITY st1 "font-size:6px;font-family:'ArialMT';">
	<!-- White fill  -->
	<!ENTITY st2 "fill:#FFFFFF;stroke:#000000; stroke-width:1.41;stroke-linecap:round;stroke-linejoin:round;">
	<!-- Yellow fill  -->
	<!ENTITY st3 "fill:#FFFFCC;stroke:#FFFFCC; stroke-width:0.1;stroke-linecap:round;stroke-linejoin:round;">
	<!-- Gray fill  -->
	<!ENTITY st4 "fill:#CCCCCC;stroke:#CCCCCC; stroke-width:0.1;stroke-linecap:round;stroke-linejoin:round;">
	<!-- Light-blue fill -->
	<!ENTITY st5 "fill:#CCECF4;stroke:#000000; stroke-width:1.133;stroke-linecap:round;stroke-linejoin:round;">
	<!ENTITY st6 "fill:none;stroke-linecap:butt; stroke-linejoin:round;">
	<!ENTITY st7 "fill:none;stroke:#000000;stroke-linecap:round;stroke-linejoin:round;">
	<!ENTITY st8 "enable-background:new    ;">
	<!-- Black fill -->
	<!ENTITY st9 "fill:#000000;stroke:#000000; stroke-linecap:round;stroke-linejoin:round;">
	<!-- SRS note   -->
	<!ENTITY st10 "font-size:9px;font-family:'ArialMT';">
	<!ENTITY st11 "font-size:9px;font-family:'Svg Symbol';">
	<!ENTITY st12 "font-size:6px;font-family:'Svg Symbol';">
	<!ENTITY st13 "fill:none;stroke:#ff0000;stroke-linecap:round;stroke-linejoin:round;">
	<!-- Yellow fill  -->
	<!ENTITY st14 "fill:#FFFF00;stroke:#FFFF00; stroke-width:0.1;stroke-linecap:round;stroke-linejoin:round;">
	<!ENTITY st15 "font-size:6px;font-family:'MS-PGothic';adobe-font-script:japanese;">
	<!ENTITY st16 "1.00 0.00 0.00 1.00">
	<!ENTITY st17 "0.00 -1.00 1.00 0.00">
	<!ENTITY st18 "font-size:6px;font-family:'Arial';">
	<!ENTITY st19 "font-size:9px;font-family:'Arial';">
	<!ENTITY st20 "font-size:6px;font-family:'MS-PGothic','MS PGothic';adobe-font-script:japanese;">
	<!ENTITY st21 "font-size:7px;font-family:'MS-PGothic','MS PGothic';adobe-font-script:japanese;">
	<!ATTLIST svg
		xmlns:ewd CDATA #FIXED "http://shcl.co.jp/ewd"
		xmlns:a CDATA #FIXED "http://ns.adobe.com/AdobeSVGViewerExtensions/3.0/"
		ewd:ver CDATA #IMPLIED
	>
	<!ATTLIST a
		ewd:lineID CDATA #IMPLIED
		ewd:groupID CDATA #IMPLIED
		ewd:figtype CDATA #IMPLIED
		ewd:code CDATA #IMPLIED
		ewd:figID CDATA #IMPLIED
		ewd:pinNo CDATA #IMPLIED
		ewd:comment CDATA #IMPLIED >
	<!ATTLIST g
		ewd:lineID CDATA #IMPLIED
		ewd:groupID CDATA #IMPLIED
		ewd:figtype CDATA #IMPLIED
		ewd:code CDATA #IMPLIED
		ewd:figID CDATA #IMPLIED
		ewd:pinNo CDATA #IMPLIED
		ewd:comment CDATA #IMPLIED >
	<!ATTLIST text
		ewd:textID CDATA #IMPLIED >
	<!ATTLIST title
		ewd:textID CDATA #IMPLIED >
]>
<!-- Generator: Shintec Hozumi YS   -->
<svg onload="call_execInitLoadProc_svg('system')" style="overflow:visible;  enable-background:new 0 0 2575.778 710.000" viewBox="0 0 2575.778 710.000" height="710.000" width="2575.778" xml:space="preserve" ewd:ver="L2.1.2.6" xmlns="&ns_svg;" xmlns:a="http://ns.adobe.com/AdobeSVGViewerExtensions/3.0/" xmlns:ewd="http://shcl.co.jp/ewd" xmlns:xlink="&ns_xlink;">
<path d=" M 1699.72,  188.75  L 1714.59,  188.75 " style="stroke-width: 0.85 ;&st7; " /><path d=" M 1748.58,  193.00  L 1748.58,  184.50 " style="stroke-width: 1.42 ;&st7; " /><path d=" M 1718.84,  188.75  L 1733.71,  188.75 " style="stroke-width: 0.85 ;&st7; " /><path d=" M 1752.83,  193.00  L 1752.83,  184.50 " style="stroke-width: 1.42 ;&st7; " /><path d=" M 1752.83,  188.75  L 1767.70,  188.75 " style="stroke-width: 0.85 ;&st7; " /><path d=" M 1733.71,  188.75  L 1748.58,  188.75 " style="stroke-width: 0.85 ;&st7; " /><path d=" M 1646.60,  193.00  L 1646.60,  184.50 " style="stroke-width: 1.42 ;&st7; " /><path d=" M 1650.85,  193.00  L 1650.85,  184.50 " style="stroke-width: 1.42 ;&st7; " /><path d=" M 1650.85,  188.75  L 1665.72,  188.75 " style="stroke-width: 0.85 ;&st7; " /><path d=" M 1631.73,  188.75  L 1646.60,  188.75 " style="stroke-width: 0.85 ;&st7; " /><path d=" M 1714.59,  193.00  L 1714.59,  184.50 " style="stroke-width: 1.42 ;&st7; " /><path d=" M 1718.84,  193.00  L 1718.84,  184.50 " style="stroke-width: 1.42 ;&st7; " /><path d=" M 1597.73,  188.75  L 1612.61,  188.75 " style="stroke-width: 0.85 ;&st7; " /><path d=" M 1616.85,  188.75  L 1631.73,  188.75 " style="stroke-width: 0.85 ;&st7; " /><path d=" M 1616.85,  193.00  L 1616.85,  184.50 " style="stroke-width: 1.42 ;&st7; " /><path d=" M 1612.61,  193.00  L 1612.61,  184.50 " style="stroke-width: 1.42 ;&st7; " /><path d=" M 1769.83,  460.71  L 1765.58,  460.71 " style="stroke-width: 1.42 ;&st7; " /><path d=" M 1769.83,  452.21  L 1765.58,  452.21 " style="stroke-width: 1.42 ;&st7; " /><path d=" M 1922.80,  282.24  L 1918.55,  282.24 " style="stroke-width: 1.42 ;&st7; " /><path d=" M 1922.80,  273.74  L 1918.55,  273.74 " style="stroke-width: 1.42 ;&st7; " /><path d=" M 1820.82,  282.24  L 1816.57,  282.24 " style="stroke-width: 1.42 ;&st7; " /><path d=" M 1820.82,  273.74  L 1816.57,  273.74 " style="stroke-width: 1.42 ;&st7; " /><path d=" M 1820.82,  239.75  L 1816.57,  239.75 " style="stroke-width: 1.42 ;&st7; " /><path d=" M 1820.82,  231.25  L 1816.57,  231.25 " style="stroke-width: 1.42 ;&st7; " /><path d=" M 1854.82,  282.24  L 1850.57,  282.24 " style="stroke-width: 1.42 ;&st7; " /><path d=" M 1854.82,  273.74  L 1850.57,  273.74 " style="stroke-width: 1.42 ;&st7; " /><path d=" M 1854.82,  239.75  L 1850.57,  239.75 " style="stroke-width: 1.42 ;&st7; " /><path d=" M 1854.82,  231.25  L 1850.57,  231.25 " style="stroke-width: 1.42 ;&st7; " /><path d=" M 1888.81,  282.24  L 1884.56,  282.24 " style="stroke-width: 1.42 ;&st7; " /><path d=" M 1888.81,  273.74  L 1884.56,  273.74 " style="stroke-width: 1.42 ;&st7; " /><path d=" M 1888.81,  239.75  L 1884.56,  239.75 " style="stroke-width: 1.42 ;&st7; " /><path d=" M 1888.81,  231.25  L 1884.56,  231.25 " style="stroke-width: 1.42 ;&st7; " /><path d=" M 1818.70,   69.77  L 1818.70,   95.27 " style="stroke-width: 0.85 ;&st7; " /><path d=" M 1820.82,   95.27  L 1816.57,   95.27 " style="stroke-width: 1.42 ;&st7; " /><path d=" M 1820.82,  103.77  L 1816.57,  103.77 " style="stroke-width: 1.42 ;&st7; " /><path d=" M 1769.83,  486.20  L 1765.58,  486.20 " style="stroke-width: 1.42 ;&st7; " /><path d=" M 1769.83,  494.70  L 1765.58,  494.70 " style="stroke-width: 1.42 ;&st7; " /><path d=" M 1512.75,  214.25  L 1504.25,  214.25 " style="stroke-width: 1.42 ;&st7; " /><path d=" M 1812.32,  460.71  L 1808.07,  460.71 " style="stroke-width: 1.42 ;&st7; " /><path d=" M 1812.32,  452.21  L 1808.07,  452.21 " style="stroke-width: 1.42 ;&st7; " /><path d=" M 1812.32,  486.20  L 1808.07,  486.20 " style="stroke-width: 1.42 ;&st7; " /><path d=" M 1812.32,  494.70  L 1808.07,  494.70 " style="stroke-width: 1.42 ;&st7; " /><path d=" M 1793.20,  146.26  L 1793.20,  205.75  L 1580.74,  205.75  L 1580.74,  146.26  L 1793.20,  146.26 " style="stroke-width: 1.42 ;&st7; " /><path d=" M 1784.70,  171.76  L 1784.70,  154.76  L 1589.23,  154.76  L 1589.23,  171.76  L 1784.70,  171.76 " style="stroke-width: 1.42 ;&st7; " /><path d=" M 1597.73,  205.75  L 1597.73,  171.76 " style="stroke-width: 0.85 ;&st7; " /><path d=" M 1631.73,  205.75  L 1631.73,  171.76 " style="stroke-width: 0.85 ;&st7; " /><path d=" M 1665.72,  205.75  L 1665.72,  171.76 " style="stroke-width: 0.85 ;&st7; " /><path d=" M 1699.72,  205.75  L 1699.72,  171.76 " style="stroke-width: 0.85 ;&st7; " /><path d=" M 1733.71,  205.75  L 1733.71,  171.76 " style="stroke-width: 0.85 ;&st7; " /><path d=" M 1767.70,  205.75  L 1767.70,  171.76 " style="stroke-width: 0.85 ;&st7; " /><path d=" M 1767.70,  486.20  L 1767.70,  460.71 " style="stroke-width: 0.85 ;&st7; " /><path d=" M 1767.70,  465.60  L 1770.54,  468.44  L 1770.54,  464.19  L 1767.70,  461.35  L 1764.87,  464.19  L 1764.87,  468.44  L 1767.70,  465.60 " style="stroke-width: 0.28 ;&st9;" /><path d=" M 1920.68,  268.84  L 1917.85,  266.01  L 1917.85,  270.26  L 1920.68,  273.09  L 1923.51,  270.26  L 1923.51,  266.01  L 1920.68,  268.84 " style="stroke-width: 0.28 ;&st9;" /><path d=" M 1818.70,  273.74  L 1818.70,  239.75 " style="stroke-width: 0.85 ;&st7; " /><path d=" M 1818.70,  268.84  L 1815.86,  266.01  L 1815.86,  270.26  L 1818.70,  273.09  L 1821.53,  270.26  L 1821.53,  266.01  L 1818.70,  268.84 " style="stroke-width: 0.28 ;&st9;" /><path d=" M 1818.70,  244.64  L 1821.53,  247.47  L 1821.53,  243.22  L 1818.70,  240.39  L 1815.86,  243.22  L 1815.86,  247.47  L 1818.70,  244.64 " style="stroke-width: 0.28 ;&st9;" /><path d=" M 1852.69,  273.74  L 1852.69,  239.75 " style="stroke-width: 0.85 ;&st7; " /><path d=" M 1852.69,  268.84  L 1849.86,  266.01  L 1849.86,  270.26  L 1852.69,  273.09  L 1855.52,  270.26  L 1855.52,  266.01  L 1852.69,  268.84 " style="stroke-width: 0.28 ;&st9;" /><path d=" M 1852.69,  244.64  L 1855.52,  247.47  L 1855.52,  243.22  L 1852.69,  240.39  L 1849.86,  243.22  L 1849.86,  247.47  L 1852.69,  244.64 " style="stroke-width: 0.28 ;&st9;" /><path d=" M 1944.76,  710.00  L 1947.59,  710.00 " style="stroke-width: 0.85 ;&st7; " /><path d=" M 1943.34,  707.17  L 1949.01,  707.17 " style="stroke-width: 0.85 ;&st7; " /><path d=" M 1941.92,  704.33  L 1950.42,  704.33 " style="stroke-width: 0.85 ;&st7; " /><path d=" M 1946.17,  697.25  L 1946.17,  701.50 " style="stroke-width: 0.85 ;&st7; " /><path d=" M 1937.68,  701.50  L 1954.67,  701.50 " style="stroke-width: 0.85 ;&st7; " /><path d=" M 1946.17,  375.72  L 1946.17,  358.73 " style="stroke-width: 0.85 ;&st7; " /><path d=" M 1937.68,  358.73  L 1937.68,  375.72  L 1954.67,  375.72  L 1954.67,  358.73  L 1937.68,  358.73 " style="stroke-width: 1.42 ;&st7; " /><path d=" M 1801.70,  154.76  L 1801.70,  188.75  L 2048.16,  188.75  L 2048.16,  154.76  L 1801.70,  154.76 " style="stroke-width: 1.42 ;&st7; " /><path d=" M 1886.68,  268.84  L 1883.85,  266.01  L 1883.85,  270.26  L 1886.68,  273.09  L 1889.52,  270.26  L 1889.52,  266.01  L 1886.68,  268.84 " style="stroke-width: 0.28 ;&st9;" /><path d=" M 1886.68,  244.64  L 1889.52,  247.47  L 1889.52,  243.22  L 1886.68,  240.39  L 1883.85,  243.22  L 1883.85,  247.47  L 1886.68,  244.64 " style="stroke-width: 0.28 ;&st9;" /><path d=" M 1886.68,  273.74  L 1886.68,  239.75 " style="stroke-width: 0.85 ;&st7; " /><path d=" M 1831.44,   78.27  L 1831.44,   35.78  L 1805.95,   35.78  L 1805.95,   78.27  L 1831.44,   78.27 " style="stroke-width: 1.42 ;&st7; " /><path d=" M 1818.70,   90.37  L 1815.86,   87.54  L 1815.86,   91.79  L 1818.70,   94.62  L 1821.53,   91.79  L 1821.53,   87.54  L 1818.70,   90.37 " style="stroke-width: 0.28 ;&st9;" /><path d=" M 1614.73,  494.70  L 1614.73,  537.20  L 1691.22,  537.20  L 1691.22,  494.70  L 1614.73,  494.70 " style="stroke-width: 1.42 ;&st7; " /><path d=" M 1886.68,  256.74  L 1920.68,  256.74  L 1920.68,  273.74 " style="stroke-width: 0.85 ;&st7; " /><path d=" M 1810.20,  481.31  L 1807.36,  478.48  L 1807.36,  482.73  L 1810.20,  485.56  L 1813.03,  482.73  L 1813.03,  478.48  L 1810.20,  481.31 " style="stroke-width: 0.28 ;&st9;" /><path d=" M 1767.70,  481.31  L 1764.87,  478.48  L 1764.87,  482.73  L 1767.70,  485.56  L 1770.54,  482.73  L 1770.54,  478.48  L 1767.70,  481.31 " style="stroke-width: 0.28 ;&st9;" /><path d=" M 1810.20,  486.20  L 1810.20,  460.71 " style="stroke-width: 0.85 ;&st7; " /><path d=" M 1810.20,  465.60  L 1813.03,  468.44  L 1813.03,  464.19  L 1810.20,  461.35  L 1807.36,  464.19  L 1807.36,  468.44  L 1810.20,  465.60 " style="stroke-width: 0.28 ;&st9;" /><path d=" M 1742.21,  311.13  L 1754.96,  311.13 " style="stroke-width: 0.85 ;&st7;stroke-dasharray:3, 1.5;" /><path d=" M 1508.50,  223.31  L 1504.25,  219.07  L 1500.00,  223.31 " style="stroke-width: 1.42 ;&st7; " /><path d=" M 1508.50,  219.92  L 1504.25,  215.67  L 1500.00,  219.92 " style="stroke-width: 1.42 ;&st7; " /><path d=" M 1766.51,  187.75  L 1766.24,  188.22  L 1766.15,  188.75  L 1766.24,  189.29  L 1766.51,  189.76  L 1766.92,  190.10  L 1767.43,  190.29  L 1767.98,  190.29  L 1768.48,  190.10  L 1768.90,  189.76  L 1769.17,  189.29  L 1769.26,  188.75  L 1769.17,  188.22  L 1768.90,  187.75  L 1768.48,  187.41  L 1767.98,  187.22  L 1767.43,  187.22  L 1766.92,  187.41  L 1766.51,  187.75  L 1766.91,  188.46  L 1766.91,  189.05  L 1767.28,  189.49  L 1767.85,  189.59  L 1768.36,  189.30  L 1768.55,  188.75  L 1768.36,  188.21  L 1767.85,  187.92  L 1767.28,  188.02  L 1767.70,  188.75 " style="stroke-width: 0.85 ;&st7; " /><path d=" M 1732.52,  187.75  L 1732.25,  188.22  L 1732.15,  188.75  L 1732.25,  189.29  L 1732.52,  189.76  L 1732.93,  190.10  L 1733.44,  190.29  L 1733.98,  190.29  L 1734.49,  190.10  L 1734.90,  189.76  L 1735.17,  189.29  L 1735.27,  188.75  L 1735.17,  188.22  L 1734.90,  187.75  L 1734.49,  187.41  L 1733.98,  187.22  L 1733.44,  187.22  L 1732.93,  187.41  L 1732.52,  187.75  L 1732.91,  188.46  L 1732.91,  189.05  L 1733.28,  189.49  L 1733.86,  189.59  L 1734.36,  189.30  L 1734.56,  188.75  L 1734.36,  188.21  L 1733.86,  187.92  L 1733.28,  188.02  L 1733.71,  188.75 " style="stroke-width: 0.85 ;&st7; " /><path d=" M 1698.52,  187.75  L 1698.25,  188.22  L 1698.16,  188.75  L 1698.25,  189.29  L 1698.52,  189.76  L 1698.94,  190.10  L 1699.44,  190.29  L 1699.99,  190.29  L 1700.49,  190.10  L 1700.91,  189.76  L 1701.18,  189.29  L 1701.27,  188.75  L 1701.18,  188.22  L 1700.91,  187.75  L 1700.49,  187.41  L 1699.99,  187.22  L 1699.44,  187.22  L 1698.94,  187.41  L 1698.52,  187.75  L 1698.92,  188.46  L 1698.92,  189.05  L 1699.29,  189.49  L 1699.86,  189.59  L 1700.37,  189.30  L 1700.57,  188.75  L 1700.37,  188.21  L 1699.86,  187.92  L 1699.29,  188.02  L 1699.72,  188.75 " style="stroke-width: 0.85 ;&st7; " /><path d=" M 1664.53,  187.75  L 1664.26,  188.22  L 1664.16,  188.75  L 1664.26,  189.29  L 1664.53,  189.76  L 1664.94,  190.10  L 1665.45,  190.29  L 1665.99,  190.29  L 1666.50,  190.10  L 1666.91,  189.76  L 1667.19,  189.29  L 1667.28,  188.75  L 1667.19,  188.22  L 1666.91,  187.75  L 1666.50,  187.41  L 1665.99,  187.22  L 1665.45,  187.22  L 1664.94,  187.41  L 1664.53,  187.75  L 1664.92,  188.46  L 1664.92,  189.05  L 1665.30,  189.49  L 1665.87,  189.59  L 1666.37,  189.30  L 1666.57,  188.75  L 1666.37,  188.21  L 1665.87,  187.92  L 1665.30,  188.02  L 1665.72,  188.75 " style="stroke-width: 0.85 ;&st7; " /><path d=" M 1630.53,  187.75  L 1630.26,  188.22  L 1630.17,  188.75  L 1630.26,  189.29  L 1630.53,  189.76  L 1630.95,  190.10  L 1631.45,  190.29  L 1632.00,  190.29  L 1632.51,  190.10  L 1632.92,  189.76  L 1633.19,  189.29  L 1633.28,  188.75  L 1633.19,  188.22  L 1632.92,  187.75  L 1632.51,  187.41  L 1632.00,  187.22  L 1631.45,  187.22  L 1630.95,  187.41  L 1630.53,  187.75  L 1630.93,  188.46  L 1630.93,  189.05  L 1631.30,  189.49  L 1631.87,  189.59  L 1632.38,  189.30  L 1632.58,  188.75  L 1632.38,  188.21  L 1631.87,  187.92  L 1631.30,  188.02  L 1631.73,  188.75 " style="stroke-width: 0.85 ;&st7; " /><path d=" M 1596.54,  187.75  L 1596.27,  188.22  L 1596.17,  188.75  L 1596.27,  189.29  L 1596.54,  189.76  L 1596.95,  190.10  L 1597.46,  190.29  L 1598.00,  190.29  L 1598.51,  190.10  L 1598.93,  189.76  L 1599.20,  189.29  L 1599.29,  188.75  L 1599.20,  188.22  L 1598.93,  187.75  L 1598.51,  187.41  L 1598.00,  187.22  L 1597.46,  187.22  L 1596.95,  187.41  L 1596.54,  187.75  L 1596.93,  188.46  L 1596.93,  189.05  L 1597.31,  189.49  L 1597.88,  189.59  L 1598.38,  189.30  L 1598.58,  188.75  L 1598.38,  188.21  L 1597.88,  187.92  L 1597.31,  188.02  L 1597.73,  188.75 " style="stroke-width: 0.85 ;&st7; " /><path d=" M 1885.49,  255.74  L 1885.22,  256.21  L 1885.13,  256.74  L 1885.22,  257.28  L 1885.49,  257.75  L 1885.90,  258.09  L 1886.41,  258.28  L 1886.96,  258.28  L 1887.46,  258.09  L 1887.88,  257.75  L 1888.15,  257.28  L 1888.24,  256.74  L 1888.15,  256.21  L 1887.88,  255.74  L 1887.46,  255.39  L 1886.96,  255.21  L 1886.41,  255.21  L 1885.90,  255.39  L 1885.49,  255.74  L 1885.89,  256.45  L 1885.89,  257.03  L 1886.26,  257.48  L 1886.83,  257.58  L 1887.34,  257.29  L 1887.53,  256.74  L 1887.34,  256.20  L 1886.83,  255.91  L 1886.26,  256.01  L 1886.68,  256.74 " style="stroke-width: 0.85 ;&st7; " /><path d=" M 1988.67,  375.72  L 1988.67,  358.73 " style="stroke-width: 0.85 ;&st7; " /><path d=" M 1980.17,  358.73  L 1980.17,  375.72  L 1997.17,  375.72  L 1997.17,  358.73  L 1980.17,  358.73 " style="stroke-width: 1.42 ;&st7; " /><path d=" M 1742.21,  320.20  L 1754.96,  320.20 " style="stroke-width: 0.85 ;&st7;stroke-dasharray:3, 1.5;" /><path d=" M 1640.23,  320.20  L 1686.97,  320.20 " style="stroke-width: 0.85 ;&st7;stroke-dasharray:3, 1.5;" /><path d=" M 1640.23,  311.13  L 1686.97,  311.13 " style="stroke-width: 0.85 ;&st7;stroke-dasharray:3, 1.5;" /><path d=" M 1708.21,  311.13  L 1720.96,  311.13 " style="stroke-width: 0.85 ;&st7;stroke-dasharray:3, 1.5;" /><path d=" M 1708.21,  320.20  L 1720.96,  320.20 " style="stroke-width: 0.85 ;&st7;stroke-dasharray:3, 1.5;" /><path d=" M 1640.23,  388.75  L 1661.47,  388.75 " style="stroke-width: 0.85 ;&st7;stroke-dasharray:3, 1.5;" /><path d=" M 1640.23,  397.82  L 1661.47,  397.82 " style="stroke-width: 0.85 ;&st7;stroke-dasharray:3, 1.5;" /><path d=" M 1857.22,  388.75  C 1857.22   386.25  1855.19   384.22  1852.69   384.22 " style="stroke-width: 1.42 ;&st7; " /><path d=" M 1852.69,  384.22  C 1850.19   384.22  1848.16   386.25  1848.16   388.75 " style="stroke-width: 1.42 ;&st7; " /><path d=" M 1848.16,  388.75  C 1848.16   391.26  1850.19   393.29  1852.69   393.29 " style="stroke-width: 1.42 ;&st7; " /><path d=" M 1852.69,  393.29  C 1855.19   393.29  1857.22   391.26  1857.22   388.75 " style="stroke-width: 1.42 ;&st7; " /><path d=" M 1774.08,  456.46  C 1774.08   454.11  1772.18   452.21  1769.83   452.21 " style="stroke-width: 1.42 ;&st7; " /><path d=" M 1769.83,  460.71  C 1772.18   460.71  1774.08   458.81  1774.08   456.46 " style="stroke-width: 1.42 ;&st7; " /><path d=" M 1761.33,  456.46  C 1761.33   458.81  1763.23   460.71  1765.58   460.71 " style="stroke-width: 1.42 ;&st7; " /><path d=" M 1765.58,  452.21  C 1763.23   452.21  1761.33   454.11  1761.33   456.46 " style="stroke-width: 1.42 ;&st7; " /><path d=" M 1927.05,  277.99  C 1927.05   275.64  1925.15   273.74  1922.80   273.74 " style="stroke-width: 1.42 ;&st7; " /><path d=" M 1922.80,  282.24  C 1925.15   282.24  1927.05   280.34  1927.05   277.99 " style="stroke-width: 1.42 ;&st7; " /><path d=" M 1914.31,  277.99  C 1914.31   280.34  1916.21   282.24  1918.55   282.24 " style="stroke-width: 1.42 ;&st7; " /><path d=" M 1918.55,  273.74  C 1916.21   273.74  1914.31   275.64  1914.31   277.99 " style="stroke-width: 1.42 ;&st7; " /><path d=" M 1891.22,  388.75  C 1891.22   386.25  1889.19   384.22  1886.68   384.22 " style="stroke-width: 1.42 ;&st7; " /><path d=" M 1886.68,  384.22  C 1884.18   384.22  1882.15   386.25  1882.15   388.75 " style="stroke-width: 1.42 ;&st7; " /><path d=" M 1882.15,  388.75  C 1882.15   391.26  1884.18   393.29  1886.68   393.29 " style="stroke-width: 1.42 ;&st7; " /><path d=" M 1886.68,  393.29  C 1889.19   393.29  1891.22   391.26  1891.22   388.75 " style="stroke-width: 1.42 ;&st7; " /><path d=" M 1825.07,  277.99  C 1825.07   275.64  1823.17   273.74  1820.82   273.74 " style="stroke-width: 1.42 ;&st7; " /><path d=" M 1820.82,  282.24  C 1823.17   282.24  1825.07   280.34  1825.07   277.99 " style="stroke-width: 1.42 ;&st7; " /><path d=" M 1812.32,  277.99  C 1812.32   280.34  1814.22   282.24  1816.57   282.24 " style="stroke-width: 1.42 ;&st7; " /><path d=" M 1816.57,  273.74  C 1814.22   273.74  1812.32   275.64  1812.32   277.99 " style="stroke-width: 1.42 ;&st7; " /><path d=" M 1825.07,  235.50  C 1825.07   233.15  1823.17   231.25  1820.82   231.25 " style="stroke-width: 1.42 ;&st7; " /><path d=" M 1820.82,  239.75  C 1823.17   239.75  1825.07   237.84  1825.07   235.50 " style="stroke-width: 1.42 ;&st7; " /><path d=" M 1812.32,  235.50  C 1812.32   237.84  1814.22   239.75  1816.57   239.75 " style="stroke-width: 1.42 ;&st7; " /><path d=" M 1816.57,  231.25  C 1814.22   231.25  1812.32   233.15  1812.32   235.50 " style="stroke-width: 1.42 ;&st7; " /><path d=" M 1859.06,  277.99  C 1859.06   275.64  1857.16   273.74  1854.82   273.74 " style="stroke-width: 1.42 ;&st7; " /><path d=" M 1854.82,  282.24  C 1857.16   282.24  1859.06   280.34  1859.06   277.99 " style="stroke-width: 1.42 ;&st7; " /><path d=" M 1846.32,  277.99  C 1846.32   280.34  1848.22   282.24  1850.57   282.24 " style="stroke-width: 1.42 ;&st7; " /><path d=" M 1850.57,  273.74  C 1848.22   273.74  1846.32   275.64  1846.32   277.99 " style="stroke-width: 1.42 ;&st7; " /><path d=" M 1859.06,  235.50  C 1859.06   233.15  1857.16   231.25  1854.82   231.25 " style="stroke-width: 1.42 ;&st7; " /><path d=" M 1854.82,  239.75  C 1857.16   239.75  1859.06   237.84  1859.06   235.50 " style="stroke-width: 1.42 ;&st7; " /><path d=" M 1846.32,  235.50  C 1846.32   237.84  1848.22   239.75  1850.57   239.75 " style="stroke-width: 1.42 ;&st7; " /><path d=" M 1850.57,  231.25  C 1848.22   231.25  1846.32   233.15  1846.32   235.50 " style="stroke-width: 1.42 ;&st7; " /><path d=" M 1814.73,  388.75  C 1814.73   386.25  1812.70   384.22  1810.20   384.22 " style="stroke-width: 1.42 ;&st7; " /><path d=" M 1810.20,  384.22  C 1807.69   384.22  1805.66   386.25  1805.66   388.75 " style="stroke-width: 1.42 ;&st7; " /><path d=" M 1805.66,  388.75  C 1805.66   391.26  1807.69   393.29  1810.20   393.29 " style="stroke-width: 1.42 ;&st7; " /><path d=" M 1810.20,  393.29  C 1812.70   393.29  1814.73   391.26  1814.73   388.75 " style="stroke-width: 1.42 ;&st7; " /><path d=" M 1893.06,  235.50  C 1893.06   233.15  1891.16   231.25  1888.81   231.25 " style="stroke-width: 1.42 ;&st7; " /><path d=" M 1888.81,  282.24  C 1891.16   282.24  1893.06   280.34  1893.06   277.99 " style="stroke-width: 1.42 ;&st7; " /><path d=" M 1884.56,  273.74  C 1882.21   273.74  1880.31   275.64  1880.31   277.99 " style="stroke-width: 1.42 ;&st7; " /><path d=" M 1893.06,  277.99  C 1893.06   275.64  1891.16   273.74  1888.81   273.74 " style="stroke-width: 1.42 ;&st7; " /><path d=" M 1884.56,  231.25  C 1882.21   231.25  1880.31   233.15  1880.31   235.50 " style="stroke-width: 1.42 ;&st7; " /><path d=" M 1880.31,  277.99  C 1880.31   280.34  1882.21   282.24  1884.56   282.24 " style="stroke-width: 1.42 ;&st7; " /><path d=" M 1857.22,  320.20  C 1857.22   317.70  1855.19   315.67  1852.69   315.67 " style="stroke-width: 1.42 ;&st7; " /><path d=" M 1852.69,  315.67  C 1850.19   315.67  1848.16   317.70  1848.16   320.20 " style="stroke-width: 1.42 ;&st7; " /><path d=" M 1848.16,  320.20  C 1848.16   322.70  1850.19   324.73  1852.69   324.73 " style="stroke-width: 1.42 ;&st7; " /><path d=" M 1852.69,  324.73  C 1855.19   324.73  1857.22   322.70  1857.22   320.20 " style="stroke-width: 1.42 ;&st7; " /><path d=" M 1823.23,  320.20  C 1823.23   317.70  1821.20   315.67  1818.70   315.67 " style="stroke-width: 1.42 ;&st7; " /><path d=" M 1818.70,  315.67  C 1816.19   315.67  1814.16   317.70  1814.16   320.20 " style="stroke-width: 1.42 ;&st7; " /><path d=" M 1814.16,  320.20  C 1814.16   322.70  1816.19   324.73  1818.70   324.73 " style="stroke-width: 1.42 ;&st7; " /><path d=" M 1818.70,  324.73  C 1821.20   324.73  1823.23   322.70  1823.23   320.20 " style="stroke-width: 1.42 ;&st7; " /><path d=" M 1772.24,  388.75  C 1772.24   386.25  1770.21   384.22  1767.70   384.22 " style="stroke-width: 1.42 ;&st7; " /><path d=" M 1767.70,  384.22  C 1765.20   384.22  1763.17   386.25  1763.17   388.75 " style="stroke-width: 1.42 ;&st7; " /><path d=" M 1763.17,  388.75  C 1763.17   391.26  1765.20   393.29  1767.70   393.29 " style="stroke-width: 1.42 ;&st7; " /><path d=" M 1767.70,  393.29  C 1770.21   393.29  1772.24   391.26  1772.24   388.75 " style="stroke-width: 1.42 ;&st7; " /><path d=" M 1880.31,  235.50  C 1880.31   237.84  1882.21   239.75  1884.56   239.75 " style="stroke-width: 1.42 ;&st7; " /><path d=" M 1888.81,  239.75  C 1891.16   239.75  1893.06   237.84  1893.06   235.50 " style="stroke-width: 1.42 ;&st7; " /><path d=" M 1818.70,   47.11  C 1815.96    48.72  1815.05    52.25  1816.66    54.99 " style="stroke-width: 1.42 ;&st7; " /><path d=" M 1816.66,   54.99  C 1817.18    55.87  1817.81    56.51  1818.70    57.03 " style="stroke-width: 1.42 ;&st7; " /><path d=" M 1818.70,   66.94  C 1821.43    65.33  1822.35    61.80  1820.73    59.06 " style="stroke-width: 1.42 ;&st7; " /><path d=" M 1820.73,   59.06  C 1820.21    58.18  1819.58    57.55  1818.70    57.03 " style="stroke-width: 1.42 ;&st7; " /><path d=" M 1820.11,   45.69  C 1820.11    44.91  1819.48    44.28  1818.70    44.28 " style="stroke-width: 0.85 ;&st7; " /><path d=" M 1818.70,   44.28  C 1817.91    44.28  1817.28    44.91  1817.28    45.69 " style="stroke-width: 0.85 ;&st7; " /><path d=" M 1817.28,   45.69  C 1817.28    46.48  1817.91    47.11  1818.70    47.11 " style="stroke-width: 0.85 ;&st7; " /><path d=" M 1818.70,   47.11  C 1819.48    47.11  1820.11    46.48  1820.11    45.69 " style="stroke-width: 0.85 ;&st7; " /><path d=" M 1820.11,   68.36  C 1820.11    67.57  1819.48    66.94  1818.70    66.94 " style="stroke-width: 0.85 ;&st7; " /><path d=" M 1818.70,   66.94  C 1817.91    66.94  1817.28    67.57  1817.28    68.36 " style="stroke-width: 0.85 ;&st7; " /><path d=" M 1817.28,   68.36  C 1817.28    69.14  1817.91    69.77  1818.70    69.77 " style="stroke-width: 0.85 ;&st7; " /><path d=" M 1818.70,   69.77  C 1819.48    69.77  1820.11    69.14  1820.11    68.36 " style="stroke-width: 0.85 ;&st7; " /><path d=" M 1816.57,   95.27  C 1814.22    95.27  1812.32    97.17  1812.32    99.52 " style="stroke-width: 1.42 ;&st7; " /><path d=" M 1812.32,   99.52  C 1812.32   101.87  1814.22   103.77  1816.57   103.77 " style="stroke-width: 1.42 ;&st7; " /><path d=" M 1825.07,   99.52  C 1825.07    97.17  1823.17    95.27  1820.82    95.27 " style="stroke-width: 1.42 ;&st7; " /><path d=" M 1820.82,  103.77  C 1823.17   103.77  1825.07   101.87  1825.07    99.52 " style="stroke-width: 1.42 ;&st7; " /><path d=" M 1950.71,  354.19  C 1950.71   351.69  1948.68   349.66  1946.17   349.66 " style="stroke-width: 1.42 ;&st7; " /><path d=" M 1946.17,  349.66  C 1943.67   349.66  1941.64   351.69  1941.64   354.19 " style="stroke-width: 1.42 ;&st7; " /><path d=" M 1941.64,  354.19  C 1941.64   356.70  1943.67   358.73  1946.17   358.73 " style="stroke-width: 1.42 ;&st7; " /><path d=" M 1946.17,  358.73  C 1948.68   358.73  1950.71   356.70  1950.71   354.19 " style="stroke-width: 1.42 ;&st7; " /><path d=" M 1950.71,  380.26  C 1950.71   377.75  1948.68   375.72  1946.17   375.72 " style="stroke-width: 1.42 ;&st7; " /><path d=" M 1946.17,  375.72  C 1943.67   375.72  1941.64   377.75  1941.64   380.26 " style="stroke-width: 1.42 ;&st7; " /><path d=" M 1941.64,  380.26  C 1941.64   382.76  1943.67   384.79  1946.17   384.79 " style="stroke-width: 1.42 ;&st7; " /><path d=" M 1946.17,  384.79  C 1948.68   384.79  1950.71   382.76  1950.71   380.26 " style="stroke-width: 1.42 ;&st7; " /><path d=" M 1765.58,  486.20  C 1763.23   486.20  1761.33   488.11  1761.33   490.45 " style="stroke-width: 1.42 ;&st7; " /><path d=" M 1761.33,  490.45  C 1761.33   492.80  1763.23   494.70  1765.58   494.70 " style="stroke-width: 1.42 ;&st7; " /><path d=" M 1636.26,  320.20  C 1636.26   317.70  1634.23   315.67  1631.73   315.67 " style="stroke-width: 1.42 ;&st7; " /><path d=" M 1631.73,  315.67  C 1629.22   315.67  1627.19   317.70  1627.19   320.20 " style="stroke-width: 1.42 ;&st7; " /><path d=" M 1627.19,  320.20  C 1627.19   322.70  1629.22   324.73  1631.73   324.73 " style="stroke-width: 1.42 ;&st7; " /><path d=" M 1631.73,  324.73  C 1634.23   324.73  1636.26   322.70  1636.26   320.20 " style="stroke-width: 1.42 ;&st7; " /><path d=" M 1636.26,  311.13  C 1636.26   308.63  1634.23   306.60  1631.73   306.60 " style="stroke-width: 1.42 ;&st7; " /><path d=" M 1631.73,  306.60  C 1629.22   306.60  1627.19   308.63  1627.19   311.13 " style="stroke-width: 1.42 ;&st7; " /><path d=" M 1627.19,  311.13  C 1627.19   313.64  1629.22   315.67  1631.73   315.67 " style="stroke-width: 1.42 ;&st7; " /><path d=" M 1631.73,  315.67  C 1634.23   315.67  1636.26   313.64  1636.26   311.13 " style="stroke-width: 1.42 ;&st7; " /><path d=" M 1704.25,  320.20  C 1704.25   317.70  1702.22   315.67  1699.72   315.67 " style="stroke-width: 1.42 ;&st7; " /><path d=" M 1699.72,  315.67  C 1697.21   315.67  1695.18   317.70  1695.18   320.20 " style="stroke-width: 1.42 ;&st7; " /><path d=" M 1695.18,  320.20  C 1695.18   322.70  1697.21   324.73  1699.72   324.73 " style="stroke-width: 1.42 ;&st7; " /><path d=" M 1699.72,  324.73  C 1702.22   324.73  1704.25   322.70  1704.25   320.20 " style="stroke-width: 1.42 ;&st7; " /><path d=" M 1704.25,  311.13  C 1704.25   308.63  1702.22   306.60  1699.72   306.60 " style="stroke-width: 1.42 ;&st7; " /><path d=" M 1699.72,  306.60  C 1697.21   306.60  1695.18   308.63  1695.18   311.13 " style="stroke-width: 1.42 ;&st7; " /><path d=" M 1695.18,  311.13  C 1695.18   313.64  1697.21   315.67  1699.72   315.67 " style="stroke-width: 1.42 ;&st7; " /><path d=" M 1699.72,  315.67  C 1702.22   315.67  1704.25   313.64  1704.25   311.13 " style="stroke-width: 1.42 ;&st7; " /><path d=" M 1738.24,  320.20  C 1738.24   317.70  1736.21   315.67  1733.71   315.67 " style="stroke-width: 1.42 ;&st7; " /><path d=" M 1733.71,  315.67  C 1731.21   315.67  1729.18   317.70  1729.18   320.20 " style="stroke-width: 1.42 ;&st7; " /><path d=" M 1729.18,  320.20  C 1729.18   322.70  1731.21   324.73  1733.71   324.73 " style="stroke-width: 1.42 ;&st7; " /><path d=" M 1733.71,  324.73  C 1736.21   324.73  1738.24   322.70  1738.24   320.20 " style="stroke-width: 1.42 ;&st7; " /><path d=" M 1738.24,  311.13  C 1738.24   308.63  1736.21   306.60  1733.71   306.60 " style="stroke-width: 1.42 ;&st7; " /><path d=" M 1733.71,  306.60  C 1731.21   306.60  1729.18   308.63  1729.18   311.13 " style="stroke-width: 1.42 ;&st7; " /><path d=" M 1729.18,  311.13  C 1729.18   313.64  1731.21   315.67  1733.71   315.67 " style="stroke-width: 1.42 ;&st7; " /><path d=" M 1733.71,  315.67  C 1736.21   315.67  1738.24   313.64  1738.24   311.13 " style="stroke-width: 1.42 ;&st7; " /><path d=" M 1772.24,  320.20  C 1772.24   317.70  1770.21   315.67  1767.70   315.67 " style="stroke-width: 1.42 ;&st7; " /><path d=" M 1767.70,  315.67  C 1765.20   315.67  1763.17   317.70  1763.17   320.20 " style="stroke-width: 1.42 ;&st7; " /><path d=" M 1763.17,  320.20  C 1763.17   322.70  1765.20   324.73  1767.70   324.73 " style="stroke-width: 1.42 ;&st7; " /><path d=" M 1767.70,  324.73  C 1770.21   324.73  1772.24   322.70  1772.24   320.20 " style="stroke-width: 1.42 ;&st7; " /><path d=" M 1772.24,  311.13  C 1772.24   308.63  1770.21   306.60  1767.70   306.60 " style="stroke-width: 1.42 ;&st7; " /><path d=" M 1767.70,  306.60  C 1765.20   306.60  1763.17   308.63  1763.17   311.13 " style="stroke-width: 1.42 ;&st7; " /><path d=" M 1763.17,  311.13  C 1763.17   313.64  1765.20   315.67  1767.70   315.67 " style="stroke-width: 1.42 ;&st7; " /><path d=" M 1767.70,  315.67  C 1770.21   315.67  1772.24   313.64  1772.24   311.13 " style="stroke-width: 1.42 ;&st7; " /><path d=" M 1891.22,  320.20  C 1891.22   317.70  1889.19   315.67  1886.68   315.67 " style="stroke-width: 1.42 ;&st7; " /><path d=" M 1886.68,  315.67  C 1884.18   315.67  1882.15   317.70  1882.15   320.20 " style="stroke-width: 1.42 ;&st7; " /><path d=" M 1882.15,  320.20  C 1882.15   322.70  1884.18   324.73  1886.68   324.73 " style="stroke-width: 1.42 ;&st7; " /><path d=" M 1886.68,  324.73  C 1889.19   324.73  1891.22   322.70  1891.22   320.20 " style="stroke-width: 1.42 ;&st7; " /><path d=" M 1891.22,  311.13  C 1891.22   308.63  1889.19   306.60  1886.68   306.60 " style="stroke-width: 1.42 ;&st7; " /><path d=" M 1886.68,  306.60  C 1884.18   306.60  1882.15   308.63  1882.15   311.13 " style="stroke-width: 1.42 ;&st7; " /><path d=" M 1882.15,  311.13  C 1882.15   313.64  1884.18   315.67  1886.68   315.67 " style="stroke-width: 1.42 ;&st7; " /><path d=" M 1886.68,  315.67  C 1889.19   315.67  1891.22   313.64  1891.22   311.13 " style="stroke-width: 1.42 ;&st7; " /><path d=" M 1636.26,  397.82  C 1636.26   395.32  1634.23   393.29  1631.73   393.29 " style="stroke-width: 1.42 ;&st7; " /><path d=" M 1631.73,  393.29  C 1629.22   393.29  1627.19   395.32  1627.19   397.82 " style="stroke-width: 1.42 ;&st7; " /><path d=" M 1627.19,  397.82  C 1627.19   400.32  1629.22   402.35  1631.73   402.35 " style="stroke-width: 1.42 ;&st7; " /><path d=" M 1631.73,  402.35  C 1634.23   402.35  1636.26   400.32  1636.26   397.82 " style="stroke-width: 1.42 ;&st7; " /><path d=" M 1678.75,  397.82  C 1678.75   395.32  1676.72   393.29  1674.22   393.29 " style="stroke-width: 1.42 ;&st7; " /><path d=" M 1674.22,  393.29  C 1671.72   393.29  1669.69   395.32  1669.69   397.82 " style="stroke-width: 1.42 ;&st7; " /><path d=" M 1669.69,  397.82  C 1669.69   400.32  1671.72   402.35  1674.22   402.35 " style="stroke-width: 1.42 ;&st7; " /><path d=" M 1674.22,  402.35  C 1676.72   402.35  1678.75   400.32  1678.75   397.82 " style="stroke-width: 1.42 ;&st7; " /><path d=" M 1857.22,  397.82  C 1857.22   395.32  1855.19   393.29  1852.69   393.29 " style="stroke-width: 1.42 ;&st7; " /><path d=" M 1852.69,  393.29  C 1850.19   393.29  1848.16   395.32  1848.16   397.82 " style="stroke-width: 1.42 ;&st7; " /><path d=" M 1848.16,  397.82  C 1848.16   400.32  1850.19   402.35  1852.69   402.35 " style="stroke-width: 1.42 ;&st7; " /><path d=" M 1852.69,  402.35  C 1855.19   402.35  1857.22   400.32  1857.22   397.82 " style="stroke-width: 1.42 ;&st7; " /><path d=" M 1769.83,  494.70  C 1772.18   494.70  1774.08   492.80  1774.08   490.45 " style="stroke-width: 1.42 ;&st7; " /><path d=" M 1774.08,  490.45  C 1774.08   488.11  1772.18   486.20  1769.83   486.20 " style="stroke-width: 1.42 ;&st7; " /><path d=" M 1678.75,  388.75  C 1678.75   386.25  1676.72   384.22  1674.22   384.22 " style="stroke-width: 1.42 ;&st7; " /><path d=" M 1674.22,  384.22  C 1671.72   384.22  1669.69   386.25  1669.69   388.75 " style="stroke-width: 1.42 ;&st7; " /><path d=" M 1669.69,  388.75  C 1669.69   391.26  1671.72   393.29  1674.22   393.29 " style="stroke-width: 1.42 ;&st7; " /><path d=" M 1674.22,  393.29  C 1676.72   393.29  1678.75   391.26  1678.75   388.75 " style="stroke-width: 1.42 ;&st7; " /><path d=" M 1636.26,  388.75  C 1636.26   386.25  1634.23   384.22  1631.73   384.22 " style="stroke-width: 1.42 ;&st7; " /><path d=" M 1631.73,  384.22  C 1629.22   384.22  1627.19   386.25  1627.19   388.75 " style="stroke-width: 1.42 ;&st7; " /><path d=" M 1627.19,  388.75  C 1627.19   391.26  1629.22   393.29  1631.73   393.29 " style="stroke-width: 1.42 ;&st7; " /><path d=" M 1631.73,  393.29  C 1634.23   393.29  1636.26   391.26  1636.26   388.75 " style="stroke-width: 1.42 ;&st7; " /><path d=" M 1816.57,  456.46  C 1816.57   454.11  1814.67   452.21  1812.32   452.21 " style="stroke-width: 1.42 ;&st7; " /><path d=" M 1812.32,  460.71  C 1814.67   460.71  1816.57   458.81  1816.57   456.46 " style="stroke-width: 1.42 ;&st7; " /><path d=" M 1803.82,  456.46  C 1803.82   458.81  1805.73   460.71  1808.07   460.71 " style="stroke-width: 1.42 ;&st7; " /><path d=" M 1808.07,  452.21  C 1805.73   452.21  1803.82   454.11  1803.82   456.46 " style="stroke-width: 1.42 ;&st7; " /><path d=" M 1803.82,  490.45  C 1803.82   492.80  1805.73   494.70  1808.07   494.70 " style="stroke-width: 1.42 ;&st7; " /><path d=" M 1812.32,  494.70  C 1814.67   494.70  1816.57   492.80  1816.57   490.45 " style="stroke-width: 1.42 ;&st7; " /><path d=" M 1816.57,  490.45  C 1816.57   488.11  1814.67   486.20  1812.32   486.20 " style="stroke-width: 1.42 ;&st7; " /><path d=" M 1808.07,  486.20  C 1805.73   486.20  1803.82   488.11  1803.82   490.45 " style="stroke-width: 1.42 ;&st7; " /><text style="&st18;" transform="matrix(&st16;  1688.69  349.34 )">E20(A),E21(B),E22(C),E23(D),E25(E)</text><text ewd:textID="15" style="&st18;" transform="matrix(&st16;  1688.69  356.45 )">Engine ECU</text><text style="&st18;" transform="matrix(&st16;  1751.84  458.43 )">16</text><text style="&st18;" transform="matrix(&st16;  1762.97  458.43 )">2Q</text><text style="&st18;" transform="matrix(&st17;  1916.98  306.94 )">B-W</text><text style="&st18;" transform="matrix(&st16;  1904.03  279.96 )">22</text><text style="&st18;" transform="matrix(&st16;  1915.95  279.96 )">2O</text><text style="&st18;" transform="matrix(&st16;  1883.33  380.52 )">W</text><text style="&st18;" transform="matrix(&st16;  1884.21  390.72 )">D</text><text style="&st18;" transform="matrix(&st16;  1875.84  390.72 )">5</text><text style="&st18;" transform="matrix(&st17;  1849.0  305.91 )">P-B</text><text style="&st18;" transform="matrix(&st17;  1815.0  306.05 )">R-Y</text><text style="&st18;" transform="matrix(&st16;  1806.01  279.96 )">6</text><text style="&st18;" transform="matrix(&st16;  1813.96  279.96 )">2Q</text><text style="&st18;" transform="matrix(&st16;  1802.05  237.47 )">22</text><text style="&st18;" transform="matrix(&st16;  1813.96  237.47 )">2Q</text><text style="&st18;" transform="matrix(&st16;  1840.0  279.96 )">5</text><text style="&st18;" transform="matrix(&st16;  1847.96  279.96 )">2Q</text><text style="&st18;" transform="matrix(&st16;  1836.82  237.47 )">21</text><text style="&st18;" transform="matrix(&st16;  1847.96  237.47 )">2Q</text><text style="&st18;" transform="matrix(&st16;  1879.76  185.06 )">TAC</text><text style="&st18;" transform="matrix(&st17;  1882.99  221.95 )">B-W</text><text style="&st18;" transform="matrix(&st16;  1875.66  143.96 )">D 3</text><text style="&st18;" transform="matrix(&st16;  1799.35  390.72 )">9</text><text style="&st18;" transform="matrix(&st16;  1807.72  390.72 )">D</text><text style="&st18;" transform="matrix(&st17;  1849.0  220.92 )">P-B</text><text style="&st18;" transform="matrix(&st17;  1815.0  221.07 )">R-Y</text><text style="&st18;" transform="matrix(&st16;  1939.39  196.95 )">4</text><text style="&st18;" transform="matrix(&st16;  1940.95  185.06 )">CG</text><text style="&st18;" transform="matrix(&st16;  1881.95  237.47 )">2O</text><text style="&st18;" transform="matrix(&st16;  1874.0  237.47 )">6</text><text style="&st18;" transform="matrix(&st17;  1942.48  225.5 )">G</text><text style="&st18;" transform="matrix(&st17;  1942.48  425.92 )">W-B</text><text style="&st18;" transform="matrix(&st16;  1808.73  151.07 )">16</text><text style="&st18;" transform="matrix(&st17;  1815.0  132.02 )">O</text><text style="&st18;" transform="matrix(&st16;  1811.91  162.39 )">BAT</text><text style="&st18;" transform="matrix(&st16;  1848.1  332.37 )">TC</text><text style="&st18;" transform="matrix(&st16;  1813.4  332.37 )">SIL</text><text style="&st18;" transform="matrix(&st16;  1842.72  196.95 )">13</text><text style="&st18;" transform="matrix(&st16;  1848.1  185.06 )">TC</text><text style="&st18;" transform="matrix(&st16;  1811.91  196.95 )">7</text><text style="&st18;" transform="matrix(&st16;  1813.4  185.06 )">SIL</text><text style="&st18;" transform="matrix(&st16;  1877.29  332.37 )">TACH</text><text style="&st18;" transform="matrix(&st16;  1803.95  380.52 )">SP1</text><text style="&st18;" transform="matrix(&st17;  1806.5  425.03 )">V-R</text><text style="&st18;" transform="matrix(&st17;  1764.01  420.55 )">P</text><text style="&st18;" transform="matrix(&st16;  1757.0  380.52 )">THWO</text><text style="&st18;" transform="matrix(&st17;  1882.99  306.94 )">B-W</text><text style="&st18;" transform="matrix(&st16;  1879.9  196.95 )">9</text><text style="&st18;" transform="matrix(&st16;  1850.22  322.17 )">D</text><text style="&st18;" transform="matrix(&st16;  1841.84  322.17 )">4</text><text style="&st18;" transform="matrix(&st16;  1816.22  322.17 )">D</text><text style="&st18;" transform="matrix(&st16;  1804.67  322.17 )">15</text><text style="&st18;" transform="matrix(&st16;  1874.0  279.96 )">6</text><text style="&st18;" transform="matrix(&st16;  1809.58  32.08 )">(BAT)</text><text style="&st18;" transform="matrix(&st16;  1762.97  492.42 )">2Q</text><text style="&st18;" transform="matrix(&st16;  1751.06  492.42 )">32</text><text style="&st18;" transform="matrix(&st17;  1764.01  522.53 )">P</text><text style="&st18;" transform="matrix(&st16;  1765.23  390.72 )">D</text><text style="&st18;" transform="matrix(&st16;  1882.23  279.96 )">2N</text><text style="&st18;" transform="matrix(&st16;  1756.86  390.72 )">8</text><text style="&st18;" transform="matrix(&st16;  1836.0  56.17 )">7.5A <tspan dy="6" x="0">OBD</tspan></text><text style="&st18;" transform="matrix(&st16;  1814.25  101.49 )">2D</text><text style="&st18;" transform="matrix(&st16;  1802.83  101.49 )">14</text><text style="&st18;" transform="matrix(&st17;  1849.0  425.03 )">Y-R</text><text style="&st18;" transform="matrix(&st16;  1844.0  380.52 )">GIND</text><text style="&st18;" transform="matrix(&st16;  1850.36  390.72 )">E</text><text style="&st18;" transform="matrix(&st16;  1842.62  390.72 )">1</text><text style="&st18;" transform="matrix(&st17;  1962.28  378.25 )">J29(B)</text><text style="&st18;" transform="matrix(&st16;  1875.66  151.06 )">DLC3</text><text ewd:textID="24" style="&st18;" transform="matrix(&st17;  1969.39  378.25 )">Junction Connector</text><text style="&st18;" transform="matrix(&st16;  1936.1  356.16 )">1</text><text style="&st18;" transform="matrix(&st16;  1943.84  356.16 )">B</text><text style="&st18;" transform="matrix(&st16;  1943.84  382.22 )">B</text><text style="&st18;" transform="matrix(&st16;  1935.33  382.22 )">4</text><text ewd:textID="2" style="&st18;" transform="matrix(&st16;  1603.71  44.83 )">* 1 :Before Aug. 2008 Production</text><text ewd:textID="3" style="&st18;" transform="matrix(&st16;  1603.71  53.33 )">* 2 :From Aug. 2008 Production</text><text style="&st18;" transform="matrix(&st17;  1840.5  132.02 )">G</text><text style="&st18;" transform="matrix(&st17;  1851.83  135.44 )">(*2)</text><text style="&st18;" transform="matrix(&st17;  1826.33  135.06 )">(*1)</text><text style="&st18;" transform="matrix(&st16;  1981.88  355.04 )">6</text><text style="&st18;" transform="matrix(&st16;  1979.48  383.92 )">11</text><text style="&st18;" transform="matrix(&st17;  1953.81  228.93 )">(*5)</text><text style="&st18;" transform="matrix(&st17;  1953.81  424.4 )">(*5)</text><text style="&st18;" transform="matrix(&st17;  1984.97  225.5 )">G</text><text style="&st18;" transform="matrix(&st17;  1996.3  228.93 )">(*6)</text><text style="&st18;" transform="matrix(&st17;  1984.97  425.92 )">W-B</text><text style="&st18;" transform="matrix(&st17;  1996.3  424.4 )">(*6)</text><text ewd:textID="7" style="&st18;" transform="matrix(&st16;  1603.71  71.74 )">* 6 :From Jun. 2011 Production</text><text ewd:textID="6" style="&st18;" transform="matrix(&st16;  1603.71  63.24 )">* 5 :Before Jun. 2011 Production</text><text ewd:textID="8" style="&st18;" transform="matrix(&st16;  1603.71  80.24 )">* 7 :Before Oct. 2012 Production</text><text ewd:textID="9" style="&st18;" transform="matrix(&st16;  1603.71  88.74 )">* 8 :From Oct. 2012 Production</text><text style="&st18;" transform="matrix(&st16;  1629.25  322.17 )">C</text><text style="&st18;" transform="matrix(&st16;  1617.67  322.17 )">12</text><text style="&st18;" transform="matrix(&st16;  1629.4  313.1 )">E</text><text style="&st18;" transform="matrix(&st16;  1617.67  313.1 )">12</text><text style="&st18;" transform="matrix(&st16;  1697.24  322.17 )">C</text><text style="&st18;" transform="matrix(&st16;  1688.84  322.17 )">4</text><text style="&st18;" transform="matrix(&st16;  1697.38  313.1 )">E</text><text style="&st18;" transform="matrix(&st16;  1688.84  313.1 )">4</text><text style="&st18;" transform="matrix(&st16;  1731.24  322.17 )">C</text><text style="&st18;" transform="matrix(&st16;  1722.83  322.17 )">5</text><text style="&st18;" transform="matrix(&st16;  1731.38  313.1 )">E</text><text style="&st18;" transform="matrix(&st16;  1722.83  313.1 )">5</text><text style="&st18;" transform="matrix(&st16;  1773.68  322.17 )">(*7)</text><text style="&st18;" transform="matrix(&st16;  1765.23  322.17 )">C</text><text style="&st18;" transform="matrix(&st16;  1756.83  322.17 )">6</text><text style="&st18;" transform="matrix(&st16;  1773.68  313.1 )">(*8)</text><text style="&st18;" transform="matrix(&st16;  1765.37  313.1 )">E</text><text style="&st18;" transform="matrix(&st16;  1756.83  313.1 )">6</text><text style="&st18;" transform="matrix(&st16;  1892.66  322.17 )">(*7)</text><text style="&st18;" transform="matrix(&st16;  1884.21  322.17 )">C</text><text style="&st18;" transform="matrix(&st16;  1875.81  322.17 )">7</text><text style="&st18;" transform="matrix(&st16;  1892.66  313.1 )">(*8)</text><text style="&st18;" transform="matrix(&st16;  1884.35  313.1 )">E</text><text style="&st18;" transform="matrix(&st16;  1875.81  313.1 )">7</text><text style="&st18;" transform="matrix(&st16;  1629.25  399.79 )">C</text><text style="&st18;" transform="matrix(&st16;  1620.88  399.79 )">2</text><text style="&st18;" transform="matrix(&st16;  1663.37  399.79 )">8</text><text style="&st18;" transform="matrix(&st16;  1671.75  399.79 )">C</text><text style="&st18;" transform="matrix(&st16;  1680.19  399.79 )">(*7)</text><text style="&st18;" transform="matrix(&st16;  1680.19  390.72 )">(*8)</text><text style="&st18;" transform="matrix(&st16;  1842.62  399.79 )">1</text><text style="&st18;" transform="matrix(&st16;  1850.22  399.79 )">C</text><text style="&st18;" transform="matrix(&st16;  1858.66  399.79 )">(*7)</text><text style="&st18;" transform="matrix(&st16;  1858.66  390.72 )">(*8)</text><text style="&st18;" transform="matrix(&st16;  1590.94  213.94 )">2</text><text style="&st18;" transform="matrix(&st16;  1624.94  213.94 )">3</text><text style="&st18;" transform="matrix(&st16;  1659.71  213.94 )">1</text><text style="&st18;" transform="matrix(&st16;  1692.93  213.94 )">5</text><text style="&st18;" transform="matrix(&st16;  1726.92  213.94 )">6</text><text style="&st18;" transform="matrix(&st16;  1760.92  213.94 )">4</text><text style="&st18;" transform="matrix(&st16;  1600.57  202.06 )">EPA2</text><text style="&st18;" transform="matrix(&st16;  1634.56  202.06 )">VPA2</text><text style="&st18;" transform="matrix(&st16;  1668.55  202.06 )">VCP2</text><text style="&st18;" transform="matrix(&st16;  1702.55  202.06 )">EPA</text><text style="&st18;" transform="matrix(&st16;  1736.54  202.06 )">VPA</text><text style="&st18;" transform="matrix(&st16;  1770.54  202.06 )">VCPA</text><text ewd:textID="11" style="&st18;" transform="matrix(&st16;  1620.7  142.56 )">Accelerator Position Sensor</text><text style="&st18;" transform="matrix(&st16;  1620.7  135.46 )">A22</text><text style="&st18;" transform="matrix(&st16;  1622.76  332.37 )">VPA2</text><text style="&st18;" transform="matrix(&st17;  1628.03  258.24 )">GR-G</text><text style="&st18;" transform="matrix(&st17;  1662.03  256.08 )">R-W</text><text style="&st18;" transform="matrix(&st16;  1692.72  332.37 )">EPA</text><text style="&st18;" transform="matrix(&st17;  1696.02  258.42 )">BR-W</text><text style="&st18;" transform="matrix(&st16;  1726.72  332.37 )">VPA</text><text style="&st18;" transform="matrix(&st17;  1730.02  255.59 )">W-L</text><text style="&st18;" transform="matrix(&st16;  1758.24  332.37 )">VCPA</text><text style="&st18;" transform="matrix(&st17;  1764.01  257.46 )">LG-R</text><text ewd:textID="24" style="&st18;" transform="matrix(&st17;  1501.97  641.7 )">Junction Connector</text><text style="&st18;" transform="matrix(&st16;  1521.9  270.04 )">W-R</text><text style="&st18;" transform="matrix(&st16;  1521.9  287.04 )">R-W</text><text style="&st18;" transform="matrix(&st16;  1572.89  270.04 )">W-R</text><text style="&st18;" transform="matrix(&st16;  1572.89  287.04 )">R-W</text><text style="&st18;" transform="matrix(&st17;  1500.55  137.1 )">W-R</text><text style="&st18;" transform="matrix(&st16;  1667.3  380.52 )">ACT</text><text style="&st18;" transform="matrix(&st16;  1625.33  502.34 )">AC1</text><text style="&st18;" transform="matrix(&st16;  1667.3  502.34 )">ACT</text><text style="&st18;" transform="matrix(&st17;  1670.53  450.17 )">R-L</text><text style="&st18;" transform="matrix(&st16;  1671.89  390.72 )">E</text><text style="&st18;" transform="matrix(&st16;  1663.37  390.72 )">8</text><text style="&st18;" transform="matrix(&st16;  1620.88  390.72 )">2</text><text style="&st18;" transform="matrix(&st16;  1629.4  390.72 )">E</text><text style="&st18;" transform="matrix(&st17;  1628.03  446.04 )">Y</text><text style="&st18;" transform="matrix(&st16;  1625.33  380.52 )">AC1</text><text ewd:textID="10" style="&st18;" transform="matrix(&st16;  1612.21  551.91 )">A/C Amplifier</text><text style="&st18;" transform="matrix(&st16;  1612.21  544.81 )">A14</text><text style="&st18;" transform="matrix(&st17;  1882.99  425.03 )">R-B</text><text style="&st18;" transform="matrix(&st16;  1793.55  458.43 )">26</text><text style="&st18;" transform="matrix(&st16;  1805.89  458.43 )">2P</text><text style="&st18;" transform="matrix(&st16;  1805.46  492.42 )">2Q</text><text style="&st18;" transform="matrix(&st16;  1793.55  492.42 )">26</text><text style="&st18;" transform="matrix(&st17;  1806.5  527.02 )">V-R</text><text style="&st18;" transform="matrix(&st16;  1667.43  491.01 )">2</text><text style="&st18;" transform="matrix(&st16;  1621.76  491.01 )">14</text></svg>