﻿<?xml version="1.0" encoding="utf-8"?>
<!DOCTYPE svg PUBLIC "-//W3C//DTD SVG 1.0//EN" "http://www.w3.org/TR/2001/REC-SVG-20010904/DTD/svg10.dtd"[
	<!ENTITY ns_flows "http://ns.adobe.com/Flows/1.0/">
	<!ENTITY ns_svg "http://www.w3.org/2000/svg">
	<!ENTITY ns_xlink "http://www.w3.org/1999/xlink">
	<!ENTITY st0 "font-size:7px;font-family:'MS-PGothic';adobe-font-script:japanese;">
	<!ENTITY st1 "font-size:6px;font-family:'ArialMT';">
	<!-- White fill  -->
	<!ENTITY st2 "fill:#FFFFFF;stroke:#000000; stroke-width:1.41;stroke-linecap:round;stroke-linejoin:round;">
	<!-- Yellow fill  -->
	<!ENTITY st3 "fill:#FFFFCC;stroke:#FFFFCC; stroke-width:0.1;stroke-linecap:round;stroke-linejoin:round;">
	<!-- Gray fill  -->
	<!ENTITY st4 "fill:#CCCCCC;stroke:#CCCCCC; stroke-width:0.1;stroke-linecap:round;stroke-linejoin:round;">
	<!-- Light-blue fill -->
	<!ENTITY st5 "fill:#CCECF4;stroke:#000000; stroke-width:1.133;stroke-linecap:round;stroke-linejoin:round;">
	<!ENTITY st6 "fill:none;stroke-linecap:butt; stroke-linejoin:round;">
	<!ENTITY st7 "fill:none;stroke:#000000;stroke-linecap:round;stroke-linejoin:round;">
	<!ENTITY st8 "enable-background:new    ;">
	<!-- Black fill -->
	<!ENTITY st9 "fill:#000000;stroke:#000000; stroke-linecap:round;stroke-linejoin:round;">
	<!-- SRS note   -->
	<!ENTITY st10 "font-size:9px;font-family:'ArialMT';">
	<!ENTITY st11 "font-size:9px;font-family:'Svg Symbol';">
	<!ENTITY st12 "font-size:6px;font-family:'Svg Symbol';">
	<!ENTITY st13 "fill:none;stroke:#ff0000;stroke-linecap:round;stroke-linejoin:round;">
	<!-- Yellow fill  -->
	<!ENTITY st14 "fill:#FFFF00;stroke:#FFFF00; stroke-width:0.1;stroke-linecap:round;stroke-linejoin:round;">
	<!ENTITY st15 "font-size:6px;font-family:'MS-PGothic';adobe-font-script:japanese;">
	<!ENTITY st16 "1.00 0.00 0.00 1.00">
	<!ENTITY st17 "0.00 -1.00 1.00 0.00">
	<!ENTITY st18 "font-size:6px;font-family:'Arial';">
	<!ENTITY st19 "font-size:9px;font-family:'Arial';">
	<!ENTITY st20 "font-size:6px;font-family:'MS-PGothic','MS PGothic';adobe-font-script:japanese;">
	<!ENTITY st21 "font-size:7px;font-family:'MS-PGothic','MS PGothic';adobe-font-script:japanese;">
	<!ATTLIST svg
		xmlns:ewd CDATA #FIXED "http://shcl.co.jp/ewd"
		xmlns:a CDATA #FIXED "http://ns.adobe.com/AdobeSVGViewerExtensions/3.0/"
		ewd:ver CDATA #IMPLIED
	>
	<!ATTLIST a
		ewd:lineID CDATA #IMPLIED
		ewd:groupID CDATA #IMPLIED
		ewd:figtype CDATA #IMPLIED
		ewd:code CDATA #IMPLIED
		ewd:figID CDATA #IMPLIED
		ewd:pinNo CDATA #IMPLIED
		ewd:comment CDATA #IMPLIED >
	<!ATTLIST g
		ewd:lineID CDATA #IMPLIED
		ewd:groupID CDATA #IMPLIED
		ewd:figtype CDATA #IMPLIED
		ewd:code CDATA #IMPLIED
		ewd:figID CDATA #IMPLIED
		ewd:pinNo CDATA #IMPLIED
		ewd:comment CDATA #IMPLIED >
	<!ATTLIST text
		ewd:textID CDATA #IMPLIED >
	<!ATTLIST title
		ewd:textID CDATA #IMPLIED >
]>
<!-- Generator: Shintec Hozumi YS   -->
<svg onload="call_execInitLoadProc_svg('system')" style="overflow:visible;  enable-background:new 0 0 4139.517 710.000" viewBox="0 0 4139.517 710.000" height="710.000" width="4139.517" xml:space="preserve" ewd:ver="L2.1.2.6" xmlns="&ns_svg;" xmlns:a="http://ns.adobe.com/AdobeSVGViewerExtensions/3.0/" xmlns:ewd="http://shcl.co.jp/ewd" xmlns:xlink="&ns_xlink;">
<path d=" M 4019.83,  142.01  L 4019.83,  146.26 " style="stroke-width: 1.42 ;&st7; " /><path d=" M 4006.36,  188.75  L 4011.33,  183.78 " style="stroke-width: 1.42 ;&st7; " /><path d=" M 4011.33,  176.73  L 4006.36,  171.76 " style="stroke-width: 1.42 ;&st7; " /><path d=" M 4028.33,  270.21  L 4023.36,  265.24 " style="stroke-width: 1.42 ;&st7; " /><path d=" M 4011.33,  277.27  L 4016.30,  282.24 " style="stroke-width: 1.42 ;&st7; " /><path d=" M 4023.36,  282.24  L 4028.33,  277.27 " style="stroke-width: 1.42 ;&st7; " /><path d=" M 4016.30,  265.24  L 4011.33,  270.21 " style="stroke-width: 1.42 ;&st7; " /><path d=" M 4028.89,  150.51  L 4024.64,  146.26  L 4028.89,  142.01 " style="stroke-width: 1.42 ;&st7; " /><path d=" M 4025.49,  150.51  L 4021.24,  146.26  L 4025.49,  142.01 " style="stroke-width: 1.42 ;&st7; " /><path d=" M 4053.82,  137.76  L 4053.82,  154.76  L 4138.81,  154.76  L 4138.81,  137.76  L 4053.82,  137.76 " style="stroke-width: 1.42 ;&st7; " /><path d=" M 4053.82,  214.25  L 4053.82,  282.24  L 4138.81,  282.24  L 4138.81,  214.25  L 4053.82,  214.25 " style="stroke-width: 1.42 ;&st7; " /><path d=" M 4053.82,  171.76  L 4053.82,  188.75  L 4138.81,  188.75  L 4138.81,  171.76  L 4053.82,  171.76 " style="stroke-width: 1.42 ;&st7; " /><path d=" M 4053.82,   78.27  L 4053.82,   95.27  L 4138.81,   95.27  L 4138.81,   78.27  L 4053.82,   78.27 " style="stroke-width: 1.42 ;&st7; " /><path d=" M 4053.82,   35.78  L 4053.82,   52.78  L 4138.81,   52.78  L 4138.81,   35.78  L 4053.82,   35.78 " style="stroke-width: 1.42 ;&st7; " /><path d=" M 4053.82,  290.74  L 4053.82,  341.73  L 4138.81,  341.73  L 4138.81,  290.74  L 4053.82,  290.74 " style="stroke-width: 1.42 ;&st7; " /><path d=" M 4011.19,  119.75  C 4013.09   117.61  4013.15   114.48  4011.33   112.27 " style="stroke-width: 1.42 ;&st7; " /><path d=" M 4011.47,  104.78  C 4009.57   106.92  4009.51   110.05  4011.33   112.27 " style="stroke-width: 1.42 ;&st7; " /><text style="&st18;" transform="matrix(&st16;  4009.35  139.02 )">9</text><text style="&st18;" transform="matrix(&st16;  4033.37  142.56 )">W-B</text><text ewd:textID="129" style="&st18;" transform="matrix(&st16;  4055.83  148.23 )">Spiral Cable</text><text style="&st18;" transform="matrix(&st16;  4055.83  224.72 )">(E1)</text><text style="&st18;" transform="matrix(&st16;  4033.37  176.56 )">W-B</text><text style="&st18;" transform="matrix(&st16;  4033.37  244.55 )">W-B</text><text style="&st18;" transform="matrix(&st16;  4037.72  270.04 )">W</text><text style="&st18;" transform="matrix(&st16;  4055.83  275.71 )">(E02)</text><text style="&st18;" transform="matrix(&st16;  4055.83  250.21 )">(E01)</text><text ewd:textID="63" style="&st18;" transform="matrix(&st16;  4081.33  250.21 )">Engine ECU</text><text ewd:textID="59" style="&st18;" transform="matrix(&st16;  4055.83  179.4 )">Crankshaft Position <tspan dy="6" x="0">Sensor</tspan></text><text style="&st18;" transform="matrix(&st16;  4033.37  40.58 )">W-B</text><text ewd:textID="132" style="&st18;" transform="matrix(&st16;  4055.83  46.25 )">Throttle Body Assembly</text><text style="&st18;" transform="matrix(&st16;  4033.37  83.07 )">W-B</text><text ewd:textID="141" style="&st18;" transform="matrix(&st16;  4055.83  88.74 )">Turbo Motor Driver</text><text style="&st18;" transform="matrix(&st16;  4055.83  301.2 )">(E1)</text><text style="&st18;" transform="matrix(&st16;  4055.83  326.7 )">(E01)</text><text ewd:textID="139" style="&st18;" transform="matrix(&st16;  4081.33  315.38 )">Transmission <tspan dy="6" x="0">Control ECU</tspan></text><text style="&st18;" transform="matrix(&st16;  4033.37  321.03 )">W-B</text><text style="&st18;" transform="matrix(&st16;  4033.27  332.37 )">(A/T)</text><text style="&st18;" transform="matrix(&st17;  4010.47  256.4 )">(*23)</text></svg>