﻿<?xml version="1.0" encoding="utf-8"?>
<!DOCTYPE svg PUBLIC "-//W3C//DTD SVG 1.0//EN" "http://www.w3.org/TR/2001/REC-SVG-20010904/DTD/svg10.dtd"[
	<!ENTITY ns_flows "http://ns.adobe.com/Flows/1.0/">
	<!ENTITY ns_svg "http://www.w3.org/2000/svg">
	<!ENTITY ns_xlink "http://www.w3.org/1999/xlink">
	<!ENTITY st0 "font-size:7px;font-family:'MS-PGothic';adobe-font-script:japanese;">
	<!ENTITY st1 "font-size:6px;font-family:'ArialMT';">
	<!-- White fill  -->
	<!ENTITY st2 "fill:#FFFFFF;stroke:#000000; stroke-width:1.41;stroke-linecap:round;stroke-linejoin:round;">
	<!-- Yellow fill  -->
	<!ENTITY st3 "fill:#FFFFCC;stroke:#FFFFCC; stroke-width:0.1;stroke-linecap:round;stroke-linejoin:round;">
	<!-- Gray fill  -->
	<!ENTITY st4 "fill:#CCCCCC;stroke:#CCCCCC; stroke-width:0.1;stroke-linecap:round;stroke-linejoin:round;">
	<!-- Light-blue fill -->
	<!ENTITY st5 "fill:#CCECF4;stroke:#000000; stroke-width:1.133;stroke-linecap:round;stroke-linejoin:round;">
	<!ENTITY st6 "fill:none;stroke-linecap:butt; stroke-linejoin:round;">
	<!ENTITY st7 "fill:none;stroke:#000000;stroke-linecap:round;stroke-linejoin:round;">
	<!ENTITY st8 "enable-background:new    ;">
	<!-- Black fill -->
	<!ENTITY st9 "fill:#000000;stroke:#000000; stroke-linecap:round;stroke-linejoin:round;">
	<!-- SRS note   -->
	<!ENTITY st10 "font-size:9px;font-family:'ArialMT';">
	<!ENTITY st11 "font-size:9px;font-family:'Svg Symbol';">
	<!ENTITY st12 "font-size:6px;font-family:'Svg Symbol';">
	<!ENTITY st13 "fill:none;stroke:#ff0000;stroke-linecap:round;stroke-linejoin:round;">
	<!-- Yellow fill  -->
	<!ENTITY st14 "fill:#FFFF00;stroke:#FFFF00; stroke-width:0.1;stroke-linecap:round;stroke-linejoin:round;">
	<!ENTITY st15 "font-size:6px;font-family:'MS-PGothic';adobe-font-script:japanese;">
	<!ENTITY st16 "1.00 0.00 0.00 1.00">
	<!ENTITY st17 "0.00 -1.00 1.00 0.00">
	<!ENTITY st18 "font-size:6px;font-family:'Arial';">
	<!ENTITY st19 "font-size:9px;font-family:'Arial';">
	<!ENTITY st20 "font-size:6px;font-family:'MS-PGothic','MS PGothic';adobe-font-script:japanese;">
	<!ENTITY st21 "font-size:7px;font-family:'MS-PGothic','MS PGothic';adobe-font-script:japanese;">
	<!ATTLIST svg
		xmlns:ewd CDATA #FIXED "http://shcl.co.jp/ewd"
		xmlns:a CDATA #FIXED "http://ns.adobe.com/AdobeSVGViewerExtensions/3.0/"
		ewd:ver CDATA #IMPLIED
	>
	<!ATTLIST a
		ewd:lineID CDATA #IMPLIED
		ewd:groupID CDATA #IMPLIED
		ewd:figtype CDATA #IMPLIED
		ewd:code CDATA #IMPLIED
		ewd:figID CDATA #IMPLIED
		ewd:pinNo CDATA #IMPLIED
		ewd:comment CDATA #IMPLIED >
	<!ATTLIST g
		ewd:lineID CDATA #IMPLIED
		ewd:groupID CDATA #IMPLIED
		ewd:figtype CDATA #IMPLIED
		ewd:code CDATA #IMPLIED
		ewd:figID CDATA #IMPLIED
		ewd:pinNo CDATA #IMPLIED
		ewd:comment CDATA #IMPLIED >
	<!ATTLIST text
		ewd:textID CDATA #IMPLIED >
	<!ATTLIST title
		ewd:textID CDATA #IMPLIED >
]>
<!-- Generator: Shintec Hozumi YS   -->
<svg onload="call_execInitLoadProc_svg('system')" style="overflow:visible;  enable-background:new 0 0 584.559 710.000" viewBox="0 0 584.559 710.000" height="710.000" width="584.559" xml:space="preserve" ewd:ver="L2.1.2.6" xmlns="&ns_svg;" xmlns:a="http://ns.adobe.com/AdobeSVGViewerExtensions/3.0/" xmlns:ewd="http://shcl.co.jp/ewd" xmlns:xlink="&ns_xlink;">
<path d=" M   93.48,   69.77  L   93.48,   95.27 " style="stroke-width: 0.85 ;&st7; " /><path d=" M   95.61,   95.27  L   91.36,   95.27 " style="stroke-width: 1.42 ;&st7; " /><path d=" M   95.61,  103.77  L   91.36,  103.77 " style="stroke-width: 1.42 ;&st7; " /><path d=" M  237.96,  256.74  L  246.46,  256.74 " style="stroke-width: 1.42 ;&st7; " /><path d=" M  305.95,  256.74  L  314.45,  256.74 " style="stroke-width: 1.42 ;&st7; " /><path d=" M  365.44,  562.69  L  373.94,  562.69 " style="stroke-width: 1.42 ;&st7; " /><path d=" M  433.43,  197.25  L  424.93,  197.25 " style="stroke-width: 1.42 ;&st7; " /><path d=" M  416.43,   52.78  L  424.93,   52.78 " style="stroke-width: 1.42 ;&st7; " /><path d=" M  163.60,  171.76  L  159.35,  171.76 " style="stroke-width: 1.42 ;&st7; " /><path d=" M  163.60,  180.26  L  159.35,  180.26 " style="stroke-width: 1.42 ;&st7; " /><path d=" M  163.60,  214.25  L  159.35,  214.25 " style="stroke-width: 1.42 ;&st7; " /><path d=" M  163.60,  222.75  L  159.35,  222.75 " style="stroke-width: 1.42 ;&st7; " /><path d=" M  203.97,  610.16  L  198.99,  605.18 " style="stroke-width: 1.42 ;&st7; " /><path d=" M  186.97,  617.21  L  191.94,  622.18 " style="stroke-width: 1.42 ;&st7; " /><path d=" M  198.99,  622.18  L  203.97,  617.21 " style="stroke-width: 1.42 ;&st7; " /><path d=" M  191.94,  605.18  L  186.97,  610.16 " style="stroke-width: 1.42 ;&st7; " /><path d=" M  313.25,  570.19  L  312.98,  570.66  L  312.89,  571.19  L  312.98,  571.72  L  313.25,  572.19  L  313.67,  572.54  L  314.18,  572.73  L  314.72,  572.73  L  315.23,  572.54  L  315.64,  572.19  L  315.91,  571.72  L  316.01,  571.19  L  315.91,  570.66  L  315.64,  570.19  L  315.23,  569.84  L  314.72,  569.65  L  314.18,  569.65  L  313.67,  569.84  L  313.25,  570.19  L  313.65,  570.90  L  313.65,  571.48  L  314.02,  571.93  L  314.59,  572.03  L  315.10,  571.74  L  315.30,  571.19  L  315.10,  570.64  L  314.59,  570.35  L  314.02,  570.45  L  314.45,  571.19 " style="stroke-width: 0.85 ;&st7; " /><path d=" M  305.95,  571.19  L  314.45,  571.19 " style="stroke-width: 0.85 ;&st7; " /><path d=" M  106.23,   78.27  L  106.23,   35.78  L   80.74,   35.78  L   80.74,   78.27  L  106.23,   78.27 " style="stroke-width: 1.42 ;&st7; " /><path d=" M   93.48,   90.37  L   90.65,   87.54  L   90.65,   91.79  L   93.48,   94.62  L   96.32,   91.79  L   96.32,   87.54  L   93.48,   90.37 " style="stroke-width: 0.28 ;&st9;" /><path d=" M  131.73,  358.73  L  131.73,  426.71  L   21.25,  426.71  L   21.25,  358.73  L  131.73,  358.73 " style="stroke-width: 1.42 ;&st7; " /><path d=" M  106.23,  358.73  L  106.23,  426.71 " style="stroke-width: 0.85 ;&st7; " /><path d=" M   80.74,  358.73  L   80.74,  426.71 " style="stroke-width: 0.85 ;&st7; " /><path d=" M   46.74,  358.73  L   46.74,  426.71 " style="stroke-width: 0.85 ;&st7; " /><path d=" M   46.74,  392.72  L  131.73,  392.72 " style="stroke-width: 0.85 ;&st7; " /><path d=" M   46.74,  409.72  L  131.73,  409.72 " style="stroke-width: 0.85 ;&st7; " /><path d=" M   94.90,  401.22  L  117.56,  401.22 " style="stroke-width: 0.85 ;&st7; " /><path d=" M   94.90,  418.22  L  117.56,  418.22 " style="stroke-width: 0.85 ;&st7; " /><path d=" M  161.47,  214.25  L  161.47,  180.26 " style="stroke-width: 0.85 ;&st7; " /><path d=" M  161.47,  209.35  L  158.64,  206.52  L  158.64,  210.77  L  161.47,  213.60  L  164.31,  210.77  L  164.31,  206.52  L  161.47,  209.35 " style="stroke-width: 0.28 ;&st9;" /><path d=" M  161.47,  185.15  L  164.31,  187.98  L  164.31,  183.73  L  161.47,  180.90  L  158.64,  183.73  L  158.64,  187.98  L  161.47,  185.15 " style="stroke-width: 0.28 ;&st9;" /><path d=" M   46.74,  375.72  L  131.73,  375.72 " style="stroke-width: 0.85 ;&st7; " /><path d=" M  186.97,  701.50  L  203.97,  701.50 " style="stroke-width: 0.85 ;&st7; " /><path d=" M  420.68,   43.71  L  424.93,   47.96  L  429.18,   43.71 " style="stroke-width: 1.42 ;&st7; " /><path d=" M  429.18,   47.11  L  424.93,   51.36  L  420.68,   47.11 " style="stroke-width: 1.42 ;&st7; " /><path d=" M  429.18,  206.32  L  424.93,  202.07  L  420.68,  206.32 " style="stroke-width: 1.42 ;&st7; " /><path d=" M  429.18,  202.92  L  424.93,  198.67  L  420.68,  202.92 " style="stroke-width: 1.42 ;&st7; " /><path d=" M  369.69,  553.63  L  373.94,  557.88  L  378.19,  553.63 " style="stroke-width: 1.42 ;&st7; " /><path d=" M  313.25,  179.25  L  312.98,  179.72  L  312.89,  180.26  L  312.98,  180.79  L  313.25,  181.26  L  313.67,  181.60  L  314.18,  181.79  L  314.72,  181.79  L  315.23,  181.60  L  315.64,  181.26  L  315.91,  180.79  L  316.01,  180.26  L  315.91,  179.72  L  315.64,  179.25  L  315.23,  178.91  L  314.72,  178.72  L  314.18,  178.72  L  313.67,  178.91  L  313.25,  179.25  L  313.65,  179.96  L  313.65,  180.55  L  314.02,  180.99  L  314.59,  181.09  L  315.10,  180.80  L  315.30,  180.26  L  315.10,  179.71  L  314.59,  179.42  L  314.02,  179.52  L  314.45,  180.26 " style="stroke-width: 0.85 ;&st7; " /><path d=" M  423.74,  119.76  L  423.46,  120.23  L  423.37,  120.77  L  423.46,  121.30  L  423.74,  121.77  L  424.15,  122.11  L  424.66,  122.30  L  425.20,  122.30  L  425.71,  122.11  L  426.12,  121.77  L  426.39,  121.30  L  426.49,  120.77  L  426.39,  120.23  L  426.12,  119.76  L  425.71,  119.42  L  425.20,  119.23  L  424.66,  119.23  L  424.15,  119.42  L  423.74,  119.76  L  424.13,  120.47  L  424.13,  121.06  L  424.50,  121.50  L  425.08,  121.60  L  425.58,  121.31  L  425.78,  120.77  L  425.58,  120.22  L  425.08,  119.93  L  424.50,  120.03  L  424.93,  120.77 " style="stroke-width: 0.85 ;&st7; " /><path d=" M  378.19,  557.03  L  373.94,  561.27  L  369.69,  557.03 " style="stroke-width: 1.42 ;&st7; " /><path d=" M  314.45,  562.69  L  314.45,  579.69 " style="stroke-width: 0.85 ;&st7; " /><path d=" M   12.75,  341.73  L   12.75,  443.71  L  140.23,  443.71  L  140.23,  341.73  L   12.75,  341.73 " style="stroke-width: 1.42 ;&st7; " /><path d=" M   93.48,  358.73  L   93.48,  341.73 " style="stroke-width: 0.85 ;&st7; " /><path d=" M  373.94,  486.20  L  373.94,  460.71  L  382.44,  460.71 " style="stroke-width: 0.85 ;&st7; " /><path d=" M  492.92,  435.21  L  492.92,  460.71  L  484.42,  460.71 " style="stroke-width: 0.85 ;&st7; " /><path d=" M  382.44,  460.71  L  390.93,  460.71  L  392.35,  457.88  L  395.18,  463.54  L  398.02,  457.88  L  400.85,  463.54  L  403.68,  457.88  L  406.52,  463.54  L  407.93,  460.71  L  416.43,  460.71 " style="stroke-width: 0.85 ;&st7; " /><path d=" M  450.42,  460.71  L  458.92,  460.71  L  460.34,  457.88  L  463.17,  463.54  L  466.01,  457.88  L  468.84,  463.54  L  471.67,  457.88  L  474.50,  463.54  L  475.92,  460.71  L  484.42,  460.71 " style="stroke-width: 0.85 ;&st7; " /><path d=" M  433.43,  457.88  L  434.89,  454.33  L  431.96,  454.33  L  433.43,  457.88  L  433.43,  456.40  L  434.05,  454.90  L  432.81,  454.90  L  433.43,  456.40  L  433.43,  455.65  L  433.62,  455.18  L  433.23,  455.18  L  433.43,  455.65 " style="stroke-width: 0.85 ;&st7; " /><path d=" M  433.43,  435.21  L  433.43,  457.88 " style="stroke-width: 0.85 ;&st7; " /><path d=" M  416.43,  460.71  L  426.35,  460.71  L  427.76,  457.88  L  430.59,  463.54  L  433.43,  457.88  L  436.26,  463.54  L  439.09,  457.88  L  441.93,  463.54  L  443.34,  460.71  L  450.42,  460.71 " style="stroke-width: 0.85 ;&st7; " /><path d=" M  310.20,  247.68  L  314.45,  251.93  L  318.70,  247.68 " style="stroke-width: 1.42 ;&st7; " /><path d=" M  318.70,  251.08  L  314.45,  255.33  L  310.20,  251.08 " style="stroke-width: 1.42 ;&st7; " /><path d=" M  237.96,  171.76  L  237.96,  188.75  L  348.44,  188.75  L  348.44,  171.76  L  237.96,  171.76 " style="stroke-width: 1.42 ;&st7; " /><path d=" M  178.47,  350.23  L  178.47,  401.22  L  263.46,  401.22  L  263.46,  350.23  L  178.47,  350.23 " style="stroke-width: 1.42 ;&st7; " /><path d=" M  195.47,  697.25  L  195.47,  701.50 " style="stroke-width: 0.85 ;&st7; " /><path d=" M  191.22,  704.33  L  199.72,  704.33 " style="stroke-width: 0.85 ;&st7; " /><path d=" M  192.63,  707.17  L  198.30,  707.17 " style="stroke-width: 0.85 ;&st7; " /><path d=" M  194.05,  710.00  L  196.88,  710.00 " style="stroke-width: 0.85 ;&st7; " /><path d=" M  365.44,  112.27  L  365.44,  129.26 " style="stroke-width: 0.85 ;&st7; " /><path d=" M  356.94,  112.27  L  356.94,  129.26  L  433.43,  129.26  L  433.43,  112.27  L  356.94,  112.27 " style="stroke-width: 1.42 ;&st7; " /><path d=" M  314.45,  180.26  L  339.94,  180.26  L  339.94,  188.75 " style="stroke-width: 0.85 ;&st7; " /><path d=" M  305.95,  562.69  L  322.95,  562.69  L  322.95,  579.69  L  305.95,  579.69  L  305.95,  562.69 " style="stroke-width: 1.42 ;&st7; " /><path d=" M  242.21,  247.68  L  246.46,  251.93  L  250.71,  247.68 " style="stroke-width: 1.42 ;&st7; " /><path d=" M  246.46,  188.75  L  246.46,  180.26  L  314.45,  180.26  L  314.45,  188.75 " style="stroke-width: 0.85 ;&st7; " /><path d=" M  356.94,  435.21  L  356.94,  486.20  L  509.91,  486.20  L  509.91,  435.21  L  356.94,  435.21 " style="stroke-width: 1.42 ;&st7; " /><path d=" M  313.03,  710.00  L  315.86,  710.00 " style="stroke-width: 0.85 ;&st7; " /><path d=" M  311.61,  707.17  L  317.28,  707.17 " style="stroke-width: 0.85 ;&st7; " /><path d=" M  310.20,  704.33  L  318.70,  704.33 " style="stroke-width: 0.85 ;&st7; " /><path d=" M  305.95,  701.50  L  322.95,  701.50 " style="stroke-width: 0.85 ;&st7; " /><path d=" M  314.45,  697.25  L  314.45,  701.50 " style="stroke-width: 0.85 ;&st7; " /><path d=" M  424.93,  120.77  L  424.93,  129.26 " style="stroke-width: 0.85 ;&st7; " /><path d=" M  365.44,  120.77  L  424.93,  120.77 " style="stroke-width: 0.85 ;&st7; " /><path d=" M  297.45,  350.23  L  297.45,  401.22  L  382.44,  401.22  L  382.44,  350.23  L  297.45,  350.23 " style="stroke-width: 1.42 ;&st7; " /><path d=" M  364.25,  119.76  L  363.97,  120.23  L  363.88,  120.77  L  363.97,  121.30  L  364.25,  121.77  L  364.66,  122.11  L  365.17,  122.30  L  365.71,  122.30  L  366.22,  122.11  L  366.63,  121.77  L  366.90,  121.30  L  367.00,  120.77  L  366.90,  120.23  L  366.63,  119.76  L  366.22,  119.42  L  365.71,  119.23  L  365.17,  119.23  L  364.66,  119.42  L  364.25,  119.76  L  364.64,  120.47  L  364.64,  121.06  L  365.01,  121.50  L  365.59,  121.60  L  366.09,  121.31  L  366.29,  120.77  L  366.09,  120.22  L  365.59,  119.93  L  365.01,  120.03  L  365.44,  120.77 " style="stroke-width: 0.85 ;&st7; " /><path d=" M  250.71,  251.08  L  246.46,  255.33  L  242.21,  251.08 " style="stroke-width: 1.42 ;&st7; " /><path d=" M  118.98,  426.71  L  118.98,  443.71 " style="stroke-width: 0.85 ;&st7; " /><path d=" M  424.93,  112.27  L  424.93,  120.77 " style="stroke-width: 0.85 ;&st7; " /><path d=" M   93.48,   47.11  C   90.75    48.72    89.83    52.25    91.45    54.99 " style="stroke-width: 1.42 ;&st7; " /><path d=" M   91.45,   54.99  C   91.97    55.87    92.60    56.51    93.48    57.03 " style="stroke-width: 1.42 ;&st7; " /><path d=" M   93.48,   66.94  C   96.22    65.33    97.13    61.80    95.52    59.06 " style="stroke-width: 1.42 ;&st7; " /><path d=" M   95.52,   59.06  C   95.00    58.18    94.37    57.55    93.48    57.03 " style="stroke-width: 1.42 ;&st7; " /><path d=" M   94.90,   45.69  C   94.90    44.91    94.27    44.28    93.48    44.28 " style="stroke-width: 0.85 ;&st7; " /><path d=" M   93.48,   44.28  C   92.70    44.28    92.07    44.91    92.07    45.69 " style="stroke-width: 0.85 ;&st7; " /><path d=" M   92.07,   45.69  C   92.07    46.48    92.70    47.11    93.48    47.11 " style="stroke-width: 0.85 ;&st7; " /><path d=" M   93.48,   47.11  C   94.27    47.11    94.90    46.48    94.90    45.69 " style="stroke-width: 0.85 ;&st7; " /><path d=" M   94.90,   68.36  C   94.90    67.57    94.27    66.94    93.48    66.94 " style="stroke-width: 0.85 ;&st7; " /><path d=" M   93.48,   66.94  C   92.70    66.94    92.07    67.57    92.07    68.36 " style="stroke-width: 0.85 ;&st7; " /><path d=" M   92.07,   68.36  C   92.07    69.14    92.70    69.77    93.48    69.77 " style="stroke-width: 0.85 ;&st7; " /><path d=" M   93.48,   69.77  C   94.27    69.77    94.90    69.14    94.90    68.36 " style="stroke-width: 0.85 ;&st7; " /><path d=" M   91.36,   95.27  C   89.01    95.27    87.11    97.17    87.11    99.52 " style="stroke-width: 1.42 ;&st7; " /><path d=" M   87.11,   99.52  C   87.11   101.87    89.01   103.77    91.36   103.77 " style="stroke-width: 1.42 ;&st7; " /><path d=" M   95.61,  103.77  C   97.96   103.77    99.86   101.87    99.86    99.52 " style="stroke-width: 1.42 ;&st7; " /><path d=" M   99.86,   99.52  C   99.86    97.17    97.96    95.27    95.61    95.27 " style="stroke-width: 1.42 ;&st7; " /><path d=" M   94.90,  401.22  C   94.90   400.44    94.27   399.80    93.48   399.80 " style="stroke-width: 0.85 ;&st7; " /><path d=" M   93.48,  399.80  C   92.70   399.80    92.07   400.44    92.07   401.22 " style="stroke-width: 0.85 ;&st7; " /><path d=" M   92.07,  401.22  C   92.07   402.00    92.70   402.63    93.48   402.63 " style="stroke-width: 0.85 ;&st7; " /><path d=" M   93.48,  402.63  C   94.27   402.63    94.90   402.00    94.90   401.22 " style="stroke-width: 0.85 ;&st7; " /><path d=" M   94.90,  418.22  C   94.90   417.43    94.27   416.80    93.48   416.80 " style="stroke-width: 0.85 ;&st7; " /><path d=" M   93.48,  416.80  C   92.70   416.80    92.07   417.43    92.07   418.22 " style="stroke-width: 0.85 ;&st7; " /><path d=" M   92.07,  418.22  C   92.07   419.00    92.70   419.63    93.48   419.63 " style="stroke-width: 0.85 ;&st7; " /><path d=" M   93.48,  419.63  C   94.27   419.63    94.90   419.00    94.90   418.22 " style="stroke-width: 0.85 ;&st7; " /><path d=" M  120.40,  401.22  C  120.40   400.44   119.76   399.80   118.98   399.80 " style="stroke-width: 0.85 ;&st7; " /><path d=" M  118.98,  399.80  C  118.20   399.80   117.56   400.44   117.56   401.22 " style="stroke-width: 0.85 ;&st7; " /><path d=" M  117.56,  401.22  C  117.56   402.00   118.20   402.63   118.98   402.63 " style="stroke-width: 0.85 ;&st7; " /><path d=" M  118.98,  402.63  C  119.76   402.63   120.40   402.00   120.40   401.22 " style="stroke-width: 0.85 ;&st7; " /><path d=" M  120.40,  418.22  C  120.40   417.43   119.76   416.80   118.98   416.80 " style="stroke-width: 0.85 ;&st7; " /><path d=" M  118.98,  416.80  C  118.20   416.80   117.56   417.43   117.56   418.22 " style="stroke-width: 0.85 ;&st7; " /><path d=" M  117.56,  418.22  C  117.56   419.00   118.20   419.63   118.98   419.63 " style="stroke-width: 0.85 ;&st7; " /><path d=" M  118.98,  419.63  C  119.76   419.63   120.40   419.00   120.40   418.22 " style="stroke-width: 0.85 ;&st7; " /><path d=" M   98.02,  337.20  C   98.02   334.69    95.99   332.66    93.48   332.66 " style="stroke-width: 1.42 ;&st7; " /><path d=" M   93.48,  332.66  C   90.98   332.66    88.95   334.69    88.95   337.20 " style="stroke-width: 1.42 ;&st7; " /><path d=" M   88.95,  337.20  C   88.95   339.70    90.98   341.73    93.48   341.73 " style="stroke-width: 1.42 ;&st7; " /><path d=" M   93.48,  341.73  C   95.99   341.73    98.02   339.70    98.02   337.20 " style="stroke-width: 1.42 ;&st7; " /><path d=" M   98.02,  328.13  C   98.02   325.63    95.99   323.60    93.48   323.60 " style="stroke-width: 1.42 ;&st7; " /><path d=" M   93.48,  323.60  C   90.98   323.60    88.95   325.63    88.95   328.13 " style="stroke-width: 1.42 ;&st7; " /><path d=" M   88.95,  328.13  C   88.95   330.63    90.98   332.66    93.48   332.66 " style="stroke-width: 1.42 ;&st7; " /><path d=" M   93.48,  332.66  C   95.99   332.66    98.02   330.63    98.02   328.13 " style="stroke-width: 1.42 ;&st7; " /><path d=" M  123.51,  457.31  C  123.51   454.81   121.48   452.78   118.98   452.78 " style="stroke-width: 1.42 ;&st7; " /><path d=" M  118.98,  452.78  C  116.48   452.78   114.45   454.81   114.45   457.31 " style="stroke-width: 1.42 ;&st7; " /><path d=" M  114.45,  457.31  C  114.45   459.81   116.48   461.84   118.98   461.84 " style="stroke-width: 1.42 ;&st7; " /><path d=" M  118.98,  461.84  C  121.48   461.84   123.51   459.81   123.51   457.31 " style="stroke-width: 1.42 ;&st7; " /><path d=" M  123.51,  448.24  C  123.51   445.74   121.48   443.71   118.98   443.71 " style="stroke-width: 1.42 ;&st7; " /><path d=" M  118.98,  443.71  C  116.48   443.71   114.45   445.74   114.45   448.24 " style="stroke-width: 1.42 ;&st7; " /><path d=" M  114.45,  448.24  C  114.45   450.75   116.48   452.78   118.98   452.78 " style="stroke-width: 1.42 ;&st7; " /><path d=" M  118.98,  452.78  C  121.48   452.78   123.51   450.75   123.51   448.24 " style="stroke-width: 1.42 ;&st7; " /><path d=" M  159.35,  171.76  C  157.00   171.76   155.10   173.66   155.10   176.01 " style="stroke-width: 1.42 ;&st7; " /><path d=" M  155.10,  176.01  C  155.10   178.35   157.00   180.26   159.35   180.26 " style="stroke-width: 1.42 ;&st7; " /><path d=" M  163.60,  180.26  C  165.94   180.26   167.85   178.35   167.85   176.01 " style="stroke-width: 1.42 ;&st7; " /><path d=" M  167.85,  176.01  C  167.85   173.66   165.94   171.76   163.60   171.76 " style="stroke-width: 1.42 ;&st7; " /><path d=" M  159.35,  214.25  C  157.00   214.25   155.10   216.15   155.10   218.50 " style="stroke-width: 1.42 ;&st7; " /><path d=" M  155.10,  218.50  C  155.10   220.85   157.00   222.75   159.35   222.75 " style="stroke-width: 1.42 ;&st7; " /><path d=" M  163.60,  222.75  C  165.94   222.75   167.85   220.85   167.85   218.50 " style="stroke-width: 1.42 ;&st7; " /><path d=" M  167.85,  218.50  C  167.85   216.15   165.94   214.25   163.60   214.25 " style="stroke-width: 1.42 ;&st7; " /><text style="&st18;" transform="matrix(&st16;  307.66  559.0 )">8</text><text style="&st18;" transform="matrix(&st16;  308.44  587.88 )">1</text><text style="&st18;" transform="matrix(&st16;  355.94  568.91 )">12</text><text style="&st18;" transform="matrix(&st16;  406.94  194.97 )">15</text><text style="&st18;" transform="matrix(&st16;  189.46  409.41 )">1</text><text style="&st18;" transform="matrix(&st16;  308.44  409.41 )">1</text><text ewd:textID="6" style="&st18;" transform="matrix(&st17;  337.66  582.21 )">Junction <tspan dy="6" x="0">Connector</tspan></text><text style="&st18;" transform="matrix(&st17;  330.56  582.21 )">J 1</text><text style="&st18;" transform="matrix(&st17;  310.75  459.91 )">W-B</text><text style="&st18;" transform="matrix(&st17;  191.77  459.91 )">W-B</text><text style="&st18;" transform="matrix(&st17;  370.24  527.9 )">W-B</text><text style="&st18;" transform="matrix(&st17;  370.24  595.89 )">W-B</text><text style="&st18;" transform="matrix(&st16;  358.65  108.58 )">2</text><text style="&st18;" transform="matrix(&st16;  358.65  137.46 )">7</text><text style="&st18;" transform="matrix(&st16;  418.92  137.46 )">1</text><text style="&st18;" transform="matrix(&st17;  421.23  234.0 )">G</text><text style="&st18;" transform="matrix(&st16;  384.19  278.54 )">L-O</text><text style="&st18;" transform="matrix(&st17;  242.76  229.49 )">L-O</text><text style="&st18;" transform="matrix(&st17;  310.75  230.59 )">R-W</text><text style="&st18;" transform="matrix(&st17;  336.25  229.49 )">L-O</text><text style="&st18;" transform="matrix(&st17;  361.74  166.01 )">G</text><text ewd:textID="6" style="&st18;" transform="matrix(&st16;  235.44  168.06 )">Junction Connector</text><text style="&st18;" transform="matrix(&st16;  235.44  160.95 )">J61</text><text style="&st18;" transform="matrix(&st16;  236.49  196.95 )">13</text><text style="&st18;" transform="matrix(&st16;  304.48  196.95 )">12</text><text style="&st18;" transform="matrix(&st16;  329.98  196.95 )">14</text><text style="&st18;" transform="matrix(&st16;  247.26  609.99 )">W-B</text><text style="&st18;" transform="matrix(&st16;  406.94  58.99 )">16</text><text style="&st18;" transform="matrix(&st17;  421.23  81.03 )">G</text><text style="&st18;" transform="matrix(&st17;  157.78  115.02 )">G</text><text style="&st18;" transform="matrix(&st17;  361.74  81.03 )">G</text><text style="&st18;" transform="matrix(&st16;  418.14  108.58 )">6</text><text style="&st18;" transform="matrix(&st17;  441.04  131.79 )">J64</text><text ewd:textID="6" style="&st18;" transform="matrix(&st17;  448.15  131.79 )">Junction Connector</text><text style="&st18;" transform="matrix(&st16;  99.46  330.1 )">(LHD)</text><text style="&st18;" transform="matrix(&st16;  99.46  339.16 )">(RHD)</text><text style="&st18;" transform="matrix(&st16;  157.02  177.98 )">2R</text><text style="&st18;" transform="matrix(&st16;  144.83  177.98 )">23</text><text style="&st18;" transform="matrix(&st16;  157.02  220.47 )">2R</text><text style="&st18;" transform="matrix(&st16;  148.78  220.47 )">7</text><text style="&st18;" transform="matrix(&st17;  157.78  301.99 )">G</text><text style="&st18;" transform="matrix(&st16;  295.98  567.5 )">12</text><text style="&st18;" transform="matrix(&st16;  247.26  567.49 )">W-B</text><text ewd:textID="5" style="&st18;" transform="matrix(&st16;  405.41  500.92 )">Headlamp Leveling SW</text><text style="&st18;" transform="matrix(&st16;  405.41  493.81 )">H15</text><text style="&st18;" transform="matrix(&st17;  429.73  416.46 )">L-O</text><text style="&st18;" transform="matrix(&st17;  89.79  307.36 )">G-W</text><text style="&st18;" transform="matrix(&st16;  110.79  56.17 )">10A <tspan dy="6" x="0">TAIL</tspan></text><text style="&st18;" transform="matrix(&st16;  89.03  101.49 )">2C</text><text style="&st18;" transform="matrix(&st16;  80.79  101.49 )">5</text><text style="&st18;" transform="matrix(&st16;  56.75  386.19 )">OFF</text><text ewd:textID="8" style="&st18;" transform="matrix(&st16;  58.19  403.19 )">Tail</text><text ewd:textID="2" style="&st18;" transform="matrix(&st16;  55.33  420.18 )">Head</text><text ewd:textID="7" style="&st18;" transform="matrix(&st17;  33.14  410.88 )">Light <tspan dy="6" x="-0.01">Control SW</tspan></text><text style="&st18;" transform="matrix(&st16;  27.22  451.32 )">C12(A),(B)</text><text style="&st18;" transform="matrix(&st16;  115.27  369.19 )">T1</text><text style="&st18;" transform="matrix(&st16;  89.56  369.19 )">B1</text><text ewd:textID="1" style="&st18;" transform="matrix(&st16;  27.22  458.43 )">Combination SW</text><text style="&st18;" transform="matrix(&st16;  84.37  32.08 )">(BAT)</text><text style="&st18;" transform="matrix(&st16;  91.15  339.16 )">B</text><text style="&st18;" transform="matrix(&st16;  82.61  339.16 )">5</text><text style="&st18;" transform="matrix(&st16;  91.15  330.1 )">A</text><text style="&st18;" transform="matrix(&st16;  79.43  330.1 )">13</text><text style="&st18;" transform="matrix(&st16;  124.95  459.28 )">(RHD)</text><text style="&st18;" transform="matrix(&st16;  116.65  459.28 )">B</text><text style="&st18;" transform="matrix(&st16;  108.1  459.28 )">8</text><text style="&st18;" transform="matrix(&st16;  124.95  450.21 )">(LHD)</text><text style="&st18;" transform="matrix(&st16;  116.65  450.21 )">A</text><text style="&st18;" transform="matrix(&st16;  104.92  450.21 )">10</text><text style="&st18;" transform="matrix(&st17;  115.28  497.46 )">G</text><text style="&st18;" transform="matrix(&st16;  227.69  262.96 )">22</text><text style="&st18;" transform="matrix(&st17;  271.07  403.74 )">H11</text><text style="&st18;" transform="matrix(&st16;  237.77  357.86 )">RHIG</text><text style="&st18;" transform="matrix(&st16;  187.24  357.86 )">RH T</text><text style="&st18;" transform="matrix(&st16;  187.03  397.52 )">RH E</text><text style="&st18;" transform="matrix(&st17;  191.77  301.99 )">G</text><text style="&st18;" transform="matrix(&st17;  242.76  305.98 )">L-O</text><text style="&st18;" transform="matrix(&st17;  191.77  655.38 )">W-B</text><text style="&st18;" transform="matrix(&st16;  357.7  357.86 )">LH T</text><text style="&st18;" transform="matrix(&st17;  310.75  655.38 )">W-B</text><text style="&st18;" transform="matrix(&st16;  358.65  346.54 )">3</text><text style="&st18;" transform="matrix(&st17;  489.22  412.47 )">G</text><text style="&st18;" transform="matrix(&st17;  310.75  307.08 )">R-W</text><text style="&st18;" transform="matrix(&st17;  421.23  166.01 )">G</text><text style="&st18;" transform="matrix(&st16;  367.15  494.4 )">4</text><text style="&st18;" transform="matrix(&st16;  426.64  431.52 )">2</text><text style="&st18;" transform="matrix(&st16;  486.91  431.52 )">1</text><text style="&st18;" transform="matrix(&st16;  306.5  397.52 )">LH E</text><text style="&st18;" transform="matrix(&st16;  306.25  357.86 )">LHIG</text><text style="&st18;" transform="matrix(&st17;  390.05  403.74 )">H10</text><text style="&st18;" transform="matrix(&st16;  296.45  262.96 )">14</text><text style="&st18;" transform="matrix(&st16;  188.68  346.54 )">3</text><text style="&st18;" transform="matrix(&st16;  436.26  443.41 )">T</text><text style="&st18;" transform="matrix(&st16;  495.75  443.41 )">B</text><text style="&st18;" transform="matrix(&st16;  376.77  482.51 )">E</text><text style="&st18;" transform="matrix(&st16;  307.66  346.54 )">2</text><text ewd:textID="4" style="&st18;" transform="matrix(&st17;  278.17  403.74 )">Headlamp Leveling Motor (RH)</text><text ewd:textID="3" style="&st18;" transform="matrix(&st17;  397.15  403.74 )">Headlamp Leveling Motor (LH)</text><text style="&st18;" transform="matrix(&st16;  239.67  346.54 )">2</text></svg>