﻿<?xml version="1.0" encoding="utf-8"?>
<!DOCTYPE svg PUBLIC "-//W3C//DTD SVG 1.0//EN" "http://www.w3.org/TR/2001/REC-SVG-20010904/DTD/svg10.dtd"[
	<!ENTITY ns_flows "http://ns.adobe.com/Flows/1.0/">
	<!ENTITY ns_svg "http://www.w3.org/2000/svg">
	<!ENTITY ns_xlink "http://www.w3.org/1999/xlink">
	<!ENTITY st0 "font-size:7px;font-family:'MS-PGothic';adobe-font-script:japanese;">
	<!ENTITY st1 "font-size:6px;font-family:'ArialMT';">
	<!-- White fill  -->
	<!ENTITY st2 "fill:#FFFFFF;stroke:#000000; stroke-width:1.41;stroke-linecap:round;stroke-linejoin:round;">
	<!-- Yellow fill  -->
	<!ENTITY st3 "fill:#FFFFCC;stroke:#FFFFCC; stroke-width:0.1;stroke-linecap:round;stroke-linejoin:round;">
	<!-- Gray fill  -->
	<!ENTITY st4 "fill:#CCCCCC;stroke:#CCCCCC; stroke-width:0.1;stroke-linecap:round;stroke-linejoin:round;">
	<!-- Light-blue fill -->
	<!ENTITY st5 "fill:#CCECF4;stroke:#000000; stroke-width:1.133;stroke-linecap:round;stroke-linejoin:round;">
	<!ENTITY st6 "fill:none;stroke-linecap:butt; stroke-linejoin:round;">
	<!ENTITY st7 "fill:none;stroke:#000000;stroke-linecap:round;stroke-linejoin:round;">
	<!ENTITY st8 "enable-background:new    ;">
	<!-- Black fill -->
	<!ENTITY st9 "fill:#000000;stroke:#000000; stroke-linecap:round;stroke-linejoin:round;">
	<!-- SRS note   -->
	<!ENTITY st10 "font-size:9px;font-family:'ArialMT';">
	<!ENTITY st11 "font-size:9px;font-family:'Svg Symbol';">
	<!ENTITY st12 "font-size:6px;font-family:'Svg Symbol';">
	<!ENTITY st13 "fill:none;stroke:#ff0000;stroke-linecap:round;stroke-linejoin:round;">
	<!-- Yellow fill  -->
	<!ENTITY st14 "fill:#FFFF00;stroke:#FFFF00; stroke-width:0.1;stroke-linecap:round;stroke-linejoin:round;">
	<!ENTITY st15 "font-size:6px;font-family:'MS-PGothic';adobe-font-script:japanese;">
	<!ENTITY st16 "1.00 0.00 0.00 1.00">
	<!ENTITY st17 "0.00 -1.00 1.00 0.00">
	<!ENTITY st18 "font-size:6px;font-family:'Arial';">
	<!ENTITY st19 "font-size:9px;font-family:'Arial';">
	<!ENTITY st20 "font-size:6px;font-family:'MS-PGothic','MS PGothic';adobe-font-script:japanese;">
	<!ENTITY st21 "font-size:7px;font-family:'MS-PGothic','MS PGothic';adobe-font-script:japanese;">
	<!ATTLIST svg
		xmlns:ewd CDATA #FIXED "http://shcl.co.jp/ewd"
		xmlns:a CDATA #FIXED "http://ns.adobe.com/AdobeSVGViewerExtensions/3.0/"
		ewd:ver CDATA #IMPLIED
	>
	<!ATTLIST a
		ewd:lineID CDATA #IMPLIED
		ewd:groupID CDATA #IMPLIED
		ewd:figtype CDATA #IMPLIED
		ewd:code CDATA #IMPLIED
		ewd:figID CDATA #IMPLIED
		ewd:pinNo CDATA #IMPLIED
		ewd:comment CDATA #IMPLIED >
	<!ATTLIST g
		ewd:lineID CDATA #IMPLIED
		ewd:groupID CDATA #IMPLIED
		ewd:figtype CDATA #IMPLIED
		ewd:code CDATA #IMPLIED
		ewd:figID CDATA #IMPLIED
		ewd:pinNo CDATA #IMPLIED
		ewd:comment CDATA #IMPLIED >
	<!ATTLIST text
		ewd:textID CDATA #IMPLIED >
	<!ATTLIST title
		ewd:textID CDATA #IMPLIED >
]>
<!-- Generator: Shintec Hozumi YS   -->
<svg onload="call_execInitLoadProc_svg('system')" style="overflow:visible;  enable-background:new 0 0 2068.527 710.000" viewBox="0 0 2068.527 710.000" height="710.000" width="2068.527" xml:space="preserve" ewd:ver="L2.1.2.6" xmlns="&ns_svg;" xmlns:a="http://ns.adobe.com/AdobeSVGViewerExtensions/3.0/" xmlns:ewd="http://shcl.co.jp/ewd" xmlns:xlink="&ns_xlink;">
<path d=" M 2022.66,  120.77  L 2039.66,  120.77  L 2039.66,  588.19 " style="stroke:#000000;stroke-width: 0.85 ;&st7;stroke-dasharray:3, 1.5;" /><path d=" M 2022.66,  117.24  L 2017.69,  112.27 " style="stroke-width: 1.42 ;&st7; " /><path d=" M 2005.66,  124.29  L 2010.63,  129.26 " style="stroke-width: 1.42 ;&st7; " /><path d=" M 2017.69,  129.26  L 2022.66,  124.29 " style="stroke-width: 1.42 ;&st7; " /><path d=" M 2010.64,  112.27  L 2005.66,  117.24 " style="stroke-width: 1.42 ;&st7; " /><path d=" M 2038.24,  710.00  L 2041.07,  710.00 " style="stroke-width: 0.85 ;&st7; " /><path d=" M 2036.83,  707.17  L 2042.49,  707.17 " style="stroke-width: 0.85 ;&st7; " /><path d=" M 2035.41,  704.33  L 2043.91,  704.33 " style="stroke-width: 0.85 ;&st7; " /><path d=" M 2031.16,  701.50  L 2048.16,  701.50 " style="stroke-width: 0.85 ;&st7; " /><path d=" M 2039.66,  697.25  L 2039.66,  701.50 " style="stroke-width: 0.85 ;&st7; " /><path d=" M 2031.16,  588.19  L 2048.16,  588.19  L 2048.16,  605.18  L 2031.16,  605.18  L 2031.16,  588.19 " style="stroke-width: 1.42 ;&st7; " /><path d=" M 2039.66,  588.19  L 2039.66,  605.18 " style="stroke-width: 0.85 ;&st7; " /><text style="&st18;" transform="matrix(&st17;  2035.96  643.98 )">BR</text><text ewd:textID="1" style="&st18;" transform="matrix(&st17;  2035.97  527.7 )">(Shielded)</text><text style="&st18;" transform="matrix(&st17;  2047.3  645.36 )">(*2)</text><text style="&st18;" transform="matrix(&st16;  2032.87  613.38 )">7</text><text style="&st18;" transform="matrix(&st16;  2033.65  584.5 )">1</text><text style="&st18;" transform="matrix(&st17;  2004.8  368.77 )">(*1)</text><text ewd:textID="33" style="&st18;" transform="matrix(&st17;  2062.88  607.71 )">Junction Connector</text><text style="&st18;" transform="matrix(&st17;  2055.77  607.71 )">J 8</text><text style="&st18;" transform="matrix(&st17;  2047.3  517.88 )">(*2)</text></svg>