﻿<?xml version="1.0" encoding="utf-8"?>
<!DOCTYPE svg PUBLIC "-//W3C//DTD SVG 1.0//EN" "http://www.w3.org/TR/2001/REC-SVG-20010904/DTD/svg10.dtd"[
	<!ENTITY ns_flows "http://ns.adobe.com/Flows/1.0/">
	<!ENTITY ns_svg "http://www.w3.org/2000/svg">
	<!ENTITY ns_xlink "http://www.w3.org/1999/xlink">
	<!ENTITY st0 "font-size:7px;font-family:'MS-PGothic';adobe-font-script:japanese;">
	<!ENTITY st1 "font-size:6px;font-family:'ArialMT';">
	<!-- White fill  -->
	<!ENTITY st2 "fill:#FFFFFF;stroke:#000000; stroke-width:1.41;stroke-linecap:round;stroke-linejoin:round;">
	<!-- Yellow fill  -->
	<!ENTITY st3 "fill:#FFFFCC;stroke:#FFFFCC; stroke-width:0.1;stroke-linecap:round;stroke-linejoin:round;">
	<!-- Gray fill  -->
	<!ENTITY st4 "fill:#CCCCCC;stroke:#CCCCCC; stroke-width:0.1;stroke-linecap:round;stroke-linejoin:round;">
	<!-- Light-blue fill -->
	<!ENTITY st5 "fill:#CCECF4;stroke:#000000; stroke-width:1.133;stroke-linecap:round;stroke-linejoin:round;">
	<!ENTITY st6 "fill:none;stroke-linecap:butt; stroke-linejoin:round;">
	<!ENTITY st7 "fill:none;stroke:#000000;stroke-linecap:round;stroke-linejoin:round;">
	<!ENTITY st8 "enable-background:new    ;">
	<!-- Black fill -->
	<!ENTITY st9 "fill:#000000;stroke:#000000; stroke-linecap:round;stroke-linejoin:round;">
	<!-- SRS note   -->
	<!ENTITY st10 "font-size:9px;font-family:'ArialMT';">
	<!ENTITY st11 "font-size:9px;font-family:'Svg Symbol';">
	<!ENTITY st12 "font-size:6px;font-family:'Svg Symbol';">
	<!ENTITY st13 "fill:none;stroke:#ff0000;stroke-linecap:round;stroke-linejoin:round;">
	<!-- Yellow fill  -->
	<!ENTITY st14 "fill:#FFFF00;stroke:#FFFF00; stroke-width:0.1;stroke-linecap:round;stroke-linejoin:round;">
	<!ENTITY st15 "font-size:6px;font-family:'MS-PGothic';adobe-font-script:japanese;">
	<!ENTITY st16 "1.00 0.00 0.00 1.00">
	<!ENTITY st17 "0.00 -1.00 1.00 0.00">
	<!ENTITY st18 "font-size:6px;font-family:'Arial';">
	<!ENTITY st19 "font-size:9px;font-family:'Arial';">
	<!ENTITY st20 "font-size:6px;font-family:'MS-PGothic','MS PGothic';adobe-font-script:japanese;">
	<!ENTITY st21 "font-size:7px;font-family:'MS-PGothic','MS PGothic';adobe-font-script:japanese;">
	<!ATTLIST svg
		xmlns:ewd CDATA #FIXED "http://shcl.co.jp/ewd"
		xmlns:a CDATA #FIXED "http://ns.adobe.com/AdobeSVGViewerExtensions/3.0/"
		ewd:ver CDATA #IMPLIED
	>
	<!ATTLIST a
		ewd:lineID CDATA #IMPLIED
		ewd:groupID CDATA #IMPLIED
		ewd:figtype CDATA #IMPLIED
		ewd:code CDATA #IMPLIED
		ewd:figID CDATA #IMPLIED
		ewd:pinNo CDATA #IMPLIED
		ewd:comment CDATA #IMPLIED >
	<!ATTLIST g
		ewd:lineID CDATA #IMPLIED
		ewd:groupID CDATA #IMPLIED
		ewd:figtype CDATA #IMPLIED
		ewd:code CDATA #IMPLIED
		ewd:figID CDATA #IMPLIED
		ewd:pinNo CDATA #IMPLIED
		ewd:comment CDATA #IMPLIED >
	<!ATTLIST text
		ewd:textID CDATA #IMPLIED >
	<!ATTLIST title
		ewd:textID CDATA #IMPLIED >
]>
<!-- Generator: Shintec Hozumi YS   -->
<svg onload="call_execInitLoadProc_svg('system')" style="overflow:visible;  enable-background:new 0 0 1037.352 710.000" viewBox="0 0 1037.352 710.000" height="710.000" width="1037.352" xml:space="preserve" ewd:ver="L2.1.2.6" xmlns="&ns_svg;" xmlns:a="http://ns.adobe.com/AdobeSVGViewerExtensions/3.0/" xmlns:ewd="http://shcl.co.jp/ewd" xmlns:xlink="&ns_xlink;">
<path d=" M  739.38,  205.75  L  730.88,  205.75 " style="stroke-width: 1.42 ;&st7; " /><path d=" M  773.37,  205.75  L  764.87,  205.75 " style="stroke-width: 1.42 ;&st7; " /><path d=" M  841.36,  205.75  L  832.86,  205.75 " style="stroke-width: 1.42 ;&st7; " /><path d=" M  875.35,  205.75  L  866.86,  205.75 " style="stroke-width: 1.42 ;&st7; " /><path d=" M  960.34,  205.75  L  951.84,  205.75 " style="stroke-width: 1.42 ;&st7; " /><path d=" M  994.33,  205.75  L  985.84,  205.75 " style="stroke-width: 1.42 ;&st7; " /><path d=" M  943.34,  534.36  L  951.48,  514.23 " style="stroke-width: 1.42 ;&st7; " /><path d=" M  994.33,  534.36  L  986.04,  514.38 " style="stroke-width: 1.42 ;&st7; " /><path d=" M  994.33,  534.36  L  986.04,  514.38 " style="stroke-width: 1.42 ;&st7; " /><path d=" M  934.84,  503.20  L  934.84,  517.37 " style="stroke-width: 0.85 ;&st7; " /><path d=" M  994.33,  554.19  L  994.33,  537.20 " style="stroke-width: 0.85 ;&st7; " /><path d=" M  943.34,  554.19  L  943.34,  537.20 " style="stroke-width: 0.85 ;&st7; " /><path d=" M  824.36,  534.36  L  832.50,  514.23 " style="stroke-width: 1.42 ;&st7; " /><path d=" M  875.35,  534.36  L  867.06,  514.38 " style="stroke-width: 1.42 ;&st7; " /><path d=" M  875.35,  534.36  L  867.06,  514.38 " style="stroke-width: 1.42 ;&st7; " /><path d=" M  815.86,  503.20  L  815.86,  517.37 " style="stroke-width: 0.85 ;&st7; " /><path d=" M  875.35,  554.19  L  875.35,  537.20 " style="stroke-width: 0.85 ;&st7; " /><path d=" M  824.36,  554.19  L  824.36,  537.20 " style="stroke-width: 0.85 ;&st7; " /><path d=" M  722.38,  534.36  L  730.52,  514.23 " style="stroke-width: 1.42 ;&st7; " /><path d=" M  773.37,  534.36  L  765.08,  514.38 " style="stroke-width: 1.42 ;&st7; " /><path d=" M  773.37,  534.36  L  765.08,  514.38 " style="stroke-width: 1.42 ;&st7; " /><path d=" M  713.88,  503.20  L  713.88,  517.37 " style="stroke-width: 0.85 ;&st7; " /><path d=" M  773.37,  554.19  L  773.37,  537.20 " style="stroke-width: 0.85 ;&st7; " /><path d=" M  722.38,  554.19  L  722.38,  537.20 " style="stroke-width: 0.85 ;&st7; " /><path d=" M  790.37,  435.21  L  798.87,  435.21 " style="stroke-width: 1.42 ;&st7; " /><path d=" M  722.38,  435.21  L  730.88,  435.21 " style="stroke-width: 1.42 ;&st7; " /><path d=" M  892.35,  435.21  L  900.85,  435.21 " style="stroke-width: 1.42 ;&st7; " /><path d=" M  858.36,  435.21  L  866.86,  435.21 " style="stroke-width: 1.42 ;&st7; " /><path d=" M  943.34,  435.21  L  951.84,  435.21 " style="stroke-width: 1.42 ;&st7; " /><path d=" M  769.12,  627.85  L  777.62,  627.85 " style="stroke-width: 1.42 ;&st7; " /><path d=" M  769.12,  631.81  L  769.12,  627.85 " style="stroke-width: 1.42 ;&st7; " /><path d=" M  756.37,  435.21  L  764.87,  435.21 " style="stroke-width: 1.42 ;&st7; " /><path d=" M  977.34,  435.21  L  985.84,  435.21 " style="stroke-width: 1.42 ;&st7; " /><path d=" M  824.36,  435.21  L  832.86,  435.21 " style="stroke-width: 1.42 ;&st7; " /><path d=" M  769.12,  650.51  L  777.62,  650.51 " style="stroke-width: 1.42 ;&st7; " /><path d=" M  777.62,  627.85  L  777.62,  631.81 " style="stroke-width: 1.42 ;&st7; " /><path d=" M  769.12,  646.54  L  769.12,  650.51 " style="stroke-width: 1.42 ;&st7; " /><path d=" M  777.62,  650.51  L  777.62,  646.54 " style="stroke-width: 1.42 ;&st7; " /><path d=" M  820.11,  650.51  L  828.61,  650.51 " style="stroke-width: 1.42 ;&st7; " /><path d=" M  828.61,  650.51  L  828.61,  646.54 " style="stroke-width: 1.42 ;&st7; " /><path d=" M  820.11,  646.54  L  820.11,  650.51 " style="stroke-width: 1.42 ;&st7; " /><path d=" M  820.11,  627.85  L  828.61,  627.85 " style="stroke-width: 1.42 ;&st7; " /><path d=" M  828.61,  627.85  L  828.61,  631.81 " style="stroke-width: 1.42 ;&st7; " /><path d=" M  820.11,  631.81  L  820.11,  627.85 " style="stroke-width: 1.42 ;&st7; " /><path d=" M  939.09,  650.51  L  947.59,  650.51 " style="stroke-width: 1.42 ;&st7; " /><path d=" M  947.59,  650.51  L  947.59,  646.54 " style="stroke-width: 1.42 ;&st7; " /><path d=" M  939.09,  646.54  L  939.09,  650.51 " style="stroke-width: 1.42 ;&st7; " /><path d=" M  939.09,  627.85  L  947.59,  627.85 " style="stroke-width: 1.42 ;&st7; " /><path d=" M  947.59,  627.85  L  947.59,  631.81 " style="stroke-width: 1.42 ;&st7; " /><path d=" M  939.09,  631.81  L  939.09,  627.85 " style="stroke-width: 1.42 ;&st7; " /><path d=" M  712.69,  510.70  L  712.42,  511.17  L  712.32,  511.70  L  712.42,  512.23  L  712.69,  512.70  L  713.10,  513.05  L  713.61,  513.24  L  714.15,  513.24  L  714.66,  513.05  L  715.07,  512.70  L  715.35,  512.23  L  715.44,  511.70  L  715.35,  511.17  L  715.07,  510.70  L  714.66,  510.35  L  714.15,  510.16  L  713.61,  510.16  L  713.10,  510.35  L  712.69,  510.70  L  713.08,  511.41  L  713.08,  511.99  L  713.46,  512.44  L  714.03,  512.54  L  714.53,  512.25  L  714.73,  511.70  L  714.53,  511.15  L  714.03,  510.86  L  713.46,  510.96  L  713.88,  511.70 " style="stroke-width: 0.85 ;&st7; " /><path d=" M  814.67,  510.70  L  814.40,  511.17  L  814.31,  511.70  L  814.40,  512.23  L  814.67,  512.70  L  815.08,  513.05  L  815.59,  513.24  L  816.14,  513.24  L  816.64,  513.05  L  817.06,  512.70  L  817.33,  512.23  L  817.42,  511.70  L  817.33,  511.17  L  817.06,  510.70  L  816.64,  510.35  L  816.14,  510.16  L  815.59,  510.16  L  815.08,  510.35  L  814.67,  510.70  L  815.06,  511.41  L  815.06,  511.99  L  815.44,  512.44  L  816.01,  512.54  L  816.51,  512.25  L  816.71,  511.70  L  816.51,  511.15  L  816.01,  510.86  L  815.44,  510.96  L  815.86,  511.70 " style="stroke-width: 0.85 ;&st7; " /><path d=" M  933.65,  510.70  L  933.38,  511.17  L  933.29,  511.70  L  933.38,  512.23  L  933.65,  512.70  L  934.06,  513.05  L  934.57,  513.24  L  935.12,  513.24  L  935.62,  513.05  L  936.04,  512.70  L  936.31,  512.23  L  936.40,  511.70  L  936.31,  511.17  L  936.04,  510.70  L  935.62,  510.35  L  935.12,  510.16  L  934.57,  510.16  L  934.06,  510.35  L  933.65,  510.70  L  934.04,  511.41  L  934.04,  511.99  L  934.42,  512.44  L  934.99,  512.54  L  935.49,  512.25  L  935.69,  511.70  L  935.49,  511.15  L  934.99,  510.86  L  934.42,  510.96  L  934.84,  511.70 " style="stroke-width: 0.85 ;&st7; " /><path d=" M  803.12,  429.55  L  798.87,  433.80  L  794.62,  429.55 " style="stroke-width: 1.42 ;&st7; " /><path d=" M  760.62,  426.15  L  764.87,  430.40  L  769.12,  426.15 " style="stroke-width: 1.42 ;&st7; " /><path d=" M  769.12,  429.55  L  764.87,  433.80  L  760.62,  429.55 " style="stroke-width: 1.42 ;&st7; " /><path d=" M  956.09,  429.55  L  951.84,  433.80  L  947.59,  429.55 " style="stroke-width: 1.42 ;&st7; " /><path d=" M  905.10,  429.55  L  900.85,  433.80  L  896.60,  429.55 " style="stroke-width: 1.42 ;&st7; " /><path d=" M  871.10,  429.55  L  866.85,  433.80  L  862.61,  429.55 " style="stroke-width: 1.42 ;&st7; " /><path d=" M  947.59,  426.15  L  951.84,  430.40  L  956.09,  426.15 " style="stroke-width: 1.42 ;&st7; " /><path d=" M 1002.83,  517.37  L 1002.83,  511.70  L  934.84,  511.70 " style="stroke-width: 0.85 ;&st7; " /><path d=" M  951.84,  503.20  L  951.84,  517.37 " style="stroke-width: 0.85 ;&st7; " /><path d=" M  985.83,  503.20  L  985.83,  517.37 " style="stroke-width: 0.85 ;&st7; " /><path d=" M  926.34,  503.20  L 1011.33,  503.20  L 1011.33,  554.19  L  926.34,  554.19  L  926.34,  503.20 " style="stroke-width: 1.42 ;&st7; " /><path d=" M  705.38,  596.69  L  705.38,  673.17  L  790.37,  673.17  L  790.37,  596.69  L  705.38,  596.69 " style="stroke-width: 1.42 ;&st7; " /><path d=" M  883.85,  517.37  L  883.85,  511.70  L  815.86,  511.70 " style="stroke-width: 0.85 ;&st7; " /><path d=" M  832.86,  503.20  L  832.86,  517.37 " style="stroke-width: 0.85 ;&st7; " /><path d=" M  866.85,  503.20  L  866.85,  517.37 " style="stroke-width: 0.85 ;&st7; " /><path d=" M  807.36,  503.20  L  892.35,  503.20  L  892.35,  554.19  L  807.36,  554.19  L  807.36,  503.20 " style="stroke-width: 1.42 ;&st7; " /><path d=" M  781.87,  517.37  L  781.87,  511.70  L  713.88,  511.70 " style="stroke-width: 0.85 ;&st7; " /><path d=" M  730.88,  503.20  L  730.88,  517.37 " style="stroke-width: 0.85 ;&st7; " /><path d=" M  764.87,  503.20  L  764.87,  517.37 " style="stroke-width: 0.85 ;&st7; " /><path d=" M  705.38,  503.20  L  790.37,  503.20  L  790.37,  554.19  L  705.38,  554.19  L  705.38,  503.20 " style="stroke-width: 1.42 ;&st7; " /><path d=" M  828.61,  426.15  L  832.86,  430.40  L  837.11,  426.15 " style="stroke-width: 1.42 ;&st7; " /><path d=" M  794.62,  426.15  L  798.87,  430.40  L  803.12,  426.15 " style="stroke-width: 1.42 ;&st7; " /><path d=" M  896.60,  426.15  L  900.85,  430.40  L  905.10,  426.15 " style="stroke-width: 1.42 ;&st7; " /><path d=" M  862.61,  426.15  L  866.85,  430.40  L  871.10,  426.15 " style="stroke-width: 1.42 ;&st7; " /><path d=" M  981.59,  426.15  L  985.83,  430.40  L  990.08,  426.15 " style="stroke-width: 1.42 ;&st7; " /><path d=" M  990.08,  429.55  L  985.83,  433.80  L  981.59,  429.55 " style="stroke-width: 1.42 ;&st7; " /><path d=" M  837.11,  429.55  L  832.86,  433.80  L  828.61,  429.55 " style="stroke-width: 1.42 ;&st7; " /><path d=" M  726.63,  426.15  L  730.88,  430.40  L  735.13,  426.15 " style="stroke-width: 1.42 ;&st7; " /><path d=" M  735.13,  429.55  L  730.88,  433.80  L  726.63,  429.55 " style="stroke-width: 1.42 ;&st7; " /><path d=" M  773.37,  596.69  L  773.37,  627.85 " style="stroke-width: 0.85 ;&st7; " /><path d=" M  722.38,  596.69  L  722.38,  664.67  L  773.37,  664.67  L  773.37,  650.51 " style="stroke-width: 0.85 ;&st7; " /><path d=" M  807.36,  596.69  L  807.36,  673.17  L  892.35,  673.17  L  892.35,  596.69  L  807.36,  596.69 " style="stroke-width: 1.42 ;&st7; " /><path d=" M  875.35,  596.69  L  875.35,  664.67  L  824.36,  664.67  L  824.36,  650.51 " style="stroke-width: 0.85 ;&st7; " /><path d=" M  824.36,  627.85  L  824.36,  596.69 " style="stroke-width: 0.85 ;&st7; " /><path d=" M  926.34,  596.69  L  926.34,  673.17  L 1011.33,  673.17  L 1011.33,  596.69  L  926.34,  596.69 " style="stroke-width: 1.42 ;&st7; " /><path d=" M  994.33,  596.69  L  994.33,  664.67  L  943.34,  664.67  L  943.34,  650.51 " style="stroke-width: 0.85 ;&st7; " /><path d=" M  943.34,  627.85  L  943.34,  596.69 " style="stroke-width: 0.85 ;&st7; " /><path d=" M  773.37,  116.80  L  815.86,  116.80 " style="stroke-width: 0.85 ;&st7;stroke-dasharray:3, 1.5;" /><path d=" M  773.37,  125.86  L  815.86,  125.86 " style="stroke-width: 0.85 ;&st7;stroke-dasharray:3, 1.5;" /><path d=" M  841.36,  116.80  L  849.86,  116.80 " style="stroke-width: 0.85 ;&st7;stroke-dasharray:3, 1.5;" /><path d=" M  841.36,  125.86  L  849.86,  125.86 " style="stroke-width: 0.85 ;&st7;stroke-dasharray:3, 1.5;" /><path d=" M  875.35,  116.80  L  934.84,  116.80 " style="stroke-width: 0.85 ;&st7;stroke-dasharray:3, 1.5;" /><path d=" M  875.35,  125.86  L  934.84,  125.86 " style="stroke-width: 0.85 ;&st7;stroke-dasharray:3, 1.5;" /><path d=" M  960.34,  116.80  L  968.84,  116.80 " style="stroke-width: 0.85 ;&st7;stroke-dasharray:3, 1.5;" /><path d=" M  960.34,  125.86  L  968.84,  125.86 " style="stroke-width: 0.85 ;&st7;stroke-dasharray:3, 1.5;" /><path d=" M  636.20,  332.23  L  635.93,  332.70  L  635.84,  333.23  L  635.93,  333.76  L  636.20,  334.23  L  636.61,  334.58  L  637.12,  334.77  L  637.67,  334.77  L  638.17,  334.58  L  638.59,  334.23  L  638.86,  333.76  L  638.95,  333.23  L  638.86,  332.70  L  638.59,  332.23  L  638.17,  331.88  L  637.67,  331.69  L  637.12,  331.69  L  636.61,  331.88  L  636.20,  332.23  L  636.59,  332.94  L  636.59,  333.52  L  636.97,  333.97  L  637.54,  334.07  L  638.04,  333.78  L  638.24,  333.23  L  638.04,  332.68  L  637.54,  332.39  L  636.97,  332.49  L  637.39,  333.23 " style="stroke-width: 0.85 ;&st7; " /><path d=" M  687.19,  306.73  L  686.92,  307.20  L  686.83,  307.73  L  686.92,  308.27  L  687.19,  308.74  L  687.61,  309.08  L  688.11,  309.27  L  688.66,  309.27  L  689.16,  309.08  L  689.58,  308.74  L  689.85,  308.27  L  689.94,  307.73  L  689.85,  307.20  L  689.58,  306.73  L  689.16,  306.39  L  688.66,  306.20  L  688.11,  306.20  L  687.61,  306.39  L  687.19,  306.73  L  687.59,  307.44  L  687.59,  308.03  L  687.96,  308.47  L  688.53,  308.57  L  689.04,  308.28  L  689.23,  307.73  L  689.04,  307.19  L  688.53,  306.90  L  687.96,  307.00  L  688.38,  307.73 " style="stroke-width: 0.85 ;&st7; " /><path d=" M  661.70,  247.24  L  661.42,  247.71  L  661.33,  248.24  L  661.42,  248.78  L  661.70,  249.25  L  662.11,  249.59  L  662.62,  249.78  L  663.16,  249.78  L  663.67,  249.59  L  664.08,  249.25  L  664.35,  248.78  L  664.45,  248.24  L  664.35,  247.71  L  664.08,  247.24  L  663.67,  246.90  L  663.16,  246.71  L  662.62,  246.71  L  662.11,  246.90  L  661.70,  247.24  L  662.09,  247.95  L  662.09,  248.54  L  662.46,  248.98  L  663.04,  249.08  L  663.54,  248.79  L  663.74,  248.24  L  663.54,  247.70  L  663.04,  247.41  L  662.46,  247.51  L  662.89,  248.24 " style="stroke-width: 0.85 ;&st7; " /><path d=" M  636.20,  247.24  L  635.93,  247.71  L  635.84,  248.24  L  635.93,  248.78  L  636.20,  249.25  L  636.61,  249.59  L  637.12,  249.78  L  637.67,  249.78  L  638.17,  249.59  L  638.59,  249.25  L  638.86,  248.78  L  638.95,  248.24  L  638.86,  247.71  L  638.59,  247.24  L  638.17,  246.90  L  637.67,  246.71  L  637.12,  246.71  L  636.61,  246.90  L  636.20,  247.24  L  636.59,  247.95  L  636.59,  248.54  L  636.97,  248.98  L  637.54,  249.08  L  638.04,  248.79  L  638.24,  248.24  L  638.04,  247.70  L  637.54,  247.41  L  636.97,  247.51  L  637.39,  248.24 " style="stroke-width: 0.85 ;&st7; " /><path d=" M  636.20,  264.24  L  635.93,  264.71  L  635.84,  265.24  L  635.93,  265.77  L  636.20,  266.24  L  636.61,  266.59  L  637.12,  266.78  L  637.67,  266.78  L  638.17,  266.59  L  638.59,  266.24  L  638.86,  265.77  L  638.95,  265.24  L  638.86,  264.71  L  638.59,  264.24  L  638.17,  263.89  L  637.67,  263.71  L  637.12,  263.71  L  636.61,  263.89  L  636.20,  264.24  L  636.59,  264.95  L  636.59,  265.53  L  636.97,  265.98  L  637.54,  266.08  L  638.04,  265.79  L  638.24,  265.24  L  638.04,  264.69  L  637.54,  264.41  L  636.97,  264.50  L  637.39,  265.24 " style="stroke-width: 0.85 ;&st7; " /><path d=" M  610.70,  264.24  L  610.43,  264.71  L  610.34,  265.24  L  610.43,  265.77  L  610.70,  266.24  L  611.12,  266.59  L  611.63,  266.78  L  612.17,  266.78  L  612.68,  266.59  L  613.09,  266.24  L  613.36,  265.77  L  613.46,  265.24  L  613.36,  264.71  L  613.09,  264.24  L  612.68,  263.89  L  612.17,  263.71  L  611.63,  263.71  L  611.12,  263.89  L  610.70,  264.24  L  611.10,  264.95  L  611.10,  265.53  L  611.47,  265.98  L  612.04,  266.08  L  612.55,  265.79  L  612.75,  265.24  L  612.55,  264.69  L  612.04,  264.41  L  611.47,  264.50  L  611.90,  265.24 " style="stroke-width: 0.85 ;&st7; " /><path d=" M  576.71,  247.24  L  576.44,  247.71  L  576.35,  248.24  L  576.44,  248.78  L  576.71,  249.25  L  577.12,  249.59  L  577.63,  249.78  L  578.18,  249.78  L  578.68,  249.59  L  579.10,  249.25  L  579.37,  248.78  L  579.46,  248.24  L  579.37,  247.71  L  579.10,  247.24  L  578.68,  246.90  L  578.18,  246.71  L  577.63,  246.71  L  577.12,  246.90  L  576.71,  247.24  L  577.10,  247.95  L  577.10,  248.54  L  577.48,  248.98  L  578.05,  249.08  L  578.55,  248.79  L  578.75,  248.24  L  578.55,  247.70  L  578.05,  247.41  L  577.48,  247.51  L  577.90,  248.24 " style="stroke-width: 0.85 ;&st7; " /><path d=" M  551.21,  247.24  L  550.94,  247.71  L  550.85,  248.24  L  550.94,  248.78  L  551.21,  249.25  L  551.63,  249.59  L  552.14,  249.78  L  552.68,  249.78  L  553.19,  249.59  L  553.60,  249.25  L  553.87,  248.78  L  553.97,  248.24  L  553.87,  247.71  L  553.60,  247.24  L  553.19,  246.90  L  552.68,  246.71  L  552.14,  246.71  L  551.63,  246.90  L  551.21,  247.24  L  551.61,  247.95  L  551.61,  248.54  L  551.98,  248.98  L  552.55,  249.08  L  553.06,  248.79  L  553.26,  248.24  L  553.06,  247.70  L  552.55,  247.41  L  551.98,  247.51  L  552.41,  248.24 " style="stroke-width: 0.85 ;&st7; " /><path d=" M  611.90,  273.74  L  611.90,  239.75 " style="stroke-width: 0.85 ;&st7; " /><path d=" M  637.39,  265.24  L  611.90,  265.24 " style="stroke-width: 0.85 ;&st7; " /><path d=" M  621.81,  261.70  L  620.40,  263.12  L  620.40,  267.37  L  618.98,  268.78 " style="stroke-width: 0.85 ;&st7; " /><path d=" M  577.90,  248.24  L  577.90,  273.74 " style="stroke-width: 0.85 ;&st7; " /><path d=" M  662.89,  248.24  L  552.41,  248.24 " style="stroke-width: 0.85 ;&st7; " /><path d=" M  688.38,  307.73  L  662.89,  307.73  L  662.89,  239.75 " style="stroke-width: 0.85 ;&st7; " /><path d=" M  562.32,  244.70  L  560.91,  246.12  L  560.91,  250.37  L  559.49,  251.79 " style="stroke-width: 0.85 ;&st7; " /><path d=" M  560.91,  248.24  L  566.57,  251.08  L  566.57,  245.41  L  560.91,  248.24  L  561.22,  248.24  L  561.33,  248.30  L  561.33,  248.19  L  561.62,  248.05  L  561.62,  248.44  L  561.90,  248.58  L  561.90,  247.91  L  562.18,  247.77  L  562.18,  248.72  L  562.47,  248.86  L  562.47,  247.62  L  562.75,  247.48  L  562.75,  249.01  L  563.03,  249.15  L  563.03,  247.34  L  563.31,  247.20  L  563.31,  249.29  L  563.60,  249.43  L  563.60,  247.06  L  563.88,  246.92  L  563.88,  249.57  L  564.16,  249.71  L  564.16,  246.77  L  564.45,  246.63  L  564.45,  249.86  L  564.73,  250.00  L  564.73,  246.49  L  565.01,  246.35  L  565.01,  250.14  L  565.30,  250.28  L  565.30,  246.21  L  565.58,  246.07  L  565.58,  250.42  L  565.86,  250.56  L  565.86,  245.92  L  566.15,  245.78  L  566.15,  250.71  L  566.43,  250.85  L  566.43,  245.64  L  561.22,  248.24  L  566.43,  250.85 " style="stroke-width: 0.28 ;&st7; " /><path d=" M  659.35,  280.82  L  660.76,  282.24  L  665.01,  282.24  L  666.43,  283.65 " style="stroke-width: 0.85 ;&st7; " /><path d=" M  662.89,  282.24  L  665.72,  276.57  L  660.06,  276.57  L  662.89,  282.24  L  662.89,  281.92  L  662.94,  281.81  L  662.84,  281.81  L  662.69,  281.53  L  663.08,  281.53  L  663.23,  281.24  L  662.55,  281.24  L  662.41,  280.96  L  663.37,  280.96  L  663.51,  280.68  L  662.27,  280.68  L  662.13,  280.40  L  663.65,  280.40  L  663.79,  280.11  L  661.99,  280.11  L  661.84,  279.83  L  663.93,  279.83  L  664.08,  279.55  L  661.70,  279.55  L  661.56,  279.26  L  664.22,  279.26  L  664.36,  278.98  L  661.42,  278.98  L  661.28,  278.70  L  664.50,  278.70  L  664.64,  278.41  L  661.14,  278.41  L  660.99,  278.13  L  664.78,  278.13  L  664.93,  277.85  L  660.85,  277.85  L  660.71,  277.56  L  665.07,  277.56  L  665.21,  277.28  L  660.57,  277.28  L  660.43,  277.00  L  665.35,  277.00  L  665.49,  276.71  L  660.29,  276.71  L  662.89,  281.92  L  665.49,  276.71 " style="stroke-width: 0.28 ;&st7; " /><path d=" M  620.40,  265.24  L  626.06,  268.07  L  626.06,  262.41  L  620.40,  265.24  L  620.71,  265.24  L  620.82,  265.29  L  620.82,  265.19  L  621.11,  265.05  L  621.11,  265.44  L  621.39,  265.58  L  621.39,  264.90  L  621.67,  264.76  L  621.67,  265.72  L  621.96,  265.86  L  621.96,  264.62  L  622.24,  264.48  L  622.24,  266.00  L  622.52,  266.14  L  622.52,  264.34  L  622.80,  264.20  L  622.80,  266.29  L  623.09,  266.43  L  623.09,  264.05  L  623.37,  263.91  L  623.37,  266.57  L  623.65,  266.71  L  623.65,  263.77  L  623.94,  263.63  L  623.94,  266.85  L  624.22,  266.99  L  624.22,  263.49  L  624.50,  263.35  L  624.50,  267.14  L  624.79,  267.28  L  624.79,  263.20  L  625.07,  263.06  L  625.07,  267.42  L  625.35,  267.56  L  625.35,  262.92  L  625.64,  262.78  L  625.64,  267.70  L  625.92,  267.84  L  625.92,  262.64  L  620.71,  265.24  L  625.92,  267.84 " style="stroke-width: 0.28 ;&st7; " /><path d=" M  637.39,  248.24  L  637.39,  273.74 " style="stroke-width: 0.85 ;&st7; " /><path d=" M  552.41,  239.75  L  552.41,  273.74 " style="stroke-width: 0.85 ;&st7; " /><path d=" M  688.38,  282.24  L  688.38,  333.23  L  577.90,  333.23  L  577.90,  316.23 " style="stroke-width: 0.85 ;&st7; " /><path d=" M  637.39,  316.23  L  637.39,  333.23 " style="stroke-width: 0.85 ;&st7; " /><path d=" M  688.38,  282.24  L  688.38,  273.74  L  685.55,  272.32  L  691.22,  269.49  L  685.55,  266.66  L  691.22,  263.82  L  685.55,  260.99  L  691.22,  258.16  L  688.38,  256.74  L  688.38,  239.75 " style="stroke-width: 0.85 ;&st7; " /><path d=" M  603.40,  273.74  L  603.40,  316.23  L  645.89,  316.23  L  645.89,  273.74  L  603.40,  273.74 " style="stroke-width: 1.42 ;&st7; " /><path d=" M  543.91,  273.74  L  543.91,  316.23  L  586.40,  316.23  L  586.40,  273.74  L  543.91,  273.74 " style="stroke-width: 1.42 ;&st7; " /><path d=" M  620.40,  116.80  L  650.14,  116.80 " style="stroke-width: 0.85 ;&st7;stroke-dasharray:3, 1.5;" /><path d=" M  560.91,  116.80  L  594.90,  116.80 " style="stroke-width: 0.85 ;&st7;stroke-dasharray:3, 1.5;" /><path d=" M  739.38,  125.86  L  747.87,  125.86 " style="stroke-width: 0.85 ;&st7;stroke-dasharray:3, 1.5;" /><path d=" M  739.38,  116.80  L  747.87,  116.80 " style="stroke-width: 0.85 ;&st7;stroke-dasharray:3, 1.5;" /><path d=" M  696.88,  116.80  L  713.88,  116.80 " style="stroke-width: 0.85 ;&st7;stroke-dasharray:3, 1.5;" /><path d=" M  735.13,  211.42  L  730.88,  207.17  L  726.63,  211.42 " style="stroke-width: 1.42 ;&st7; " /><path d=" M  735.13,  214.82  L  730.88,  210.57  L  726.63,  214.82 " style="stroke-width: 1.42 ;&st7; " /><path d=" M  769.12,  211.42  L  764.87,  207.17  L  760.62,  211.42 " style="stroke-width: 1.42 ;&st7; " /><path d=" M  769.12,  214.82  L  764.87,  210.57  L  760.62,  214.82 " style="stroke-width: 1.42 ;&st7; " /><path d=" M  837.11,  211.42  L  832.86,  207.17  L  828.61,  211.42 " style="stroke-width: 1.42 ;&st7; " /><path d=" M  837.11,  214.82  L  832.86,  210.57  L  828.61,  214.82 " style="stroke-width: 1.42 ;&st7; " /><path d=" M  871.10,  211.42  L  866.85,  207.17  L  862.61,  211.42 " style="stroke-width: 1.42 ;&st7; " /><path d=" M  871.10,  214.82  L  866.85,  210.57  L  862.61,  214.82 " style="stroke-width: 1.42 ;&st7; " /><path d=" M  777.31,  201.50  L  816.17,  201.50 " style="stroke-width: 0.85 ;&st7;stroke-dasharray:3, 1.5;" /><path d=" M  777.31,  193.00  L  816.17,  193.00 " style="stroke-width: 0.85 ;&st7;stroke-dasharray:3, 1.5;" /><path d=" M  956.09,  211.42  L  951.84,  207.17  L  947.59,  211.42 " style="stroke-width: 1.42 ;&st7; " /><path d=" M  956.09,  214.82  L  951.84,  210.57  L  947.59,  214.82 " style="stroke-width: 1.42 ;&st7; " /><path d=" M  879.29,  201.50  L  935.16,  201.50 " style="stroke-width: 0.85 ;&st7;stroke-dasharray:3, 1.5;" /><path d=" M  879.29,  193.00  L  935.16,  193.00 " style="stroke-width: 0.85 ;&st7;stroke-dasharray:3, 1.5;" /><path d=" M  990.08,  211.42  L  985.83,  207.17  L  981.59,  211.42 " style="stroke-width: 1.42 ;&st7; " /><path d=" M  990.08,  214.82  L  985.83,  210.57  L  981.59,  214.82 " style="stroke-width: 1.42 ;&st7; " /><path d=" M  556.94,  116.80  C  556.94   114.30   554.91   112.27   552.41   112.27 " style="stroke-width: 1.42 ;&st7; " /><path d=" M  552.41,  112.27  C  549.90   112.27   547.88   114.30   547.88   116.80 " style="stroke-width: 1.42 ;&st7; " /><path d=" M  547.88,  116.80  C  547.88   119.30   549.90   121.33   552.41   121.33 " style="stroke-width: 1.42 ;&st7; " /><path d=" M  552.41,  121.33  C  554.91   121.33   556.94   119.30   556.94   116.80 " style="stroke-width: 1.42 ;&st7; " /><path d=" M  616.43,  116.80  C  616.43   114.30   614.40   112.27   611.90   112.27 " style="stroke-width: 1.42 ;&st7; " /><path d=" M  611.90,  112.27  C  609.39   112.27   607.37   114.30   607.37   116.80 " style="stroke-width: 1.42 ;&st7; " /><path d=" M  607.37,  116.80  C  607.37   119.30   609.39   121.33   611.90   121.33 " style="stroke-width: 1.42 ;&st7; " /><path d=" M  611.90,  121.33  C  614.40   121.33   616.43   119.30   616.43   116.80 " style="stroke-width: 1.42 ;&st7; " /><path d=" M  667.42,  116.80  C  667.42   114.30   665.39   112.27   662.89   112.27 " style="stroke-width: 1.42 ;&st7; " /><path d=" M  662.89,  112.27  C  660.39   112.27   658.36   114.30   658.36   116.80 " style="stroke-width: 1.42 ;&st7; " /><path d=" M  658.36,  116.80  C  658.36   119.30   660.39   121.33   662.89   121.33 " style="stroke-width: 1.42 ;&st7; " /><path d=" M  662.89,  121.33  C  665.39   121.33   667.42   119.30   667.42   116.80 " style="stroke-width: 1.42 ;&st7; " /><path d=" M  692.92,  116.80  C  692.92   114.30   690.89   112.27   688.38   112.27 " style="stroke-width: 1.42 ;&st7; " /><path d=" M  688.38,  112.27  C  685.88   112.27   683.85   114.30   683.85   116.80 " style="stroke-width: 1.42 ;&st7; " /><path d=" M  683.85,  116.80  C  683.85   119.30   685.88   121.33   688.38   121.33 " style="stroke-width: 1.42 ;&st7; " /><path d=" M  688.38,  121.33  C  690.89   121.33   692.92   119.30   692.92   116.80 " style="stroke-width: 1.42 ;&st7; " /><path d=" M  953.26,  518.78  C  953.26   518.00   952.62   517.37   951.84   517.37 " style="stroke-width: 0.85 ;&st7; " /><path d=" M  951.84,  517.37  C  951.06   517.37   950.42   518.00   950.42   518.78 " style="stroke-width: 0.85 ;&st7; " /><path d=" M  950.42,  518.78  C  950.42   519.56   951.06   520.20   951.84   520.20 " style="stroke-width: 0.85 ;&st7; " /><path d=" M  951.84,  520.20  C  952.62   520.20   953.26   519.56   953.26   518.78 " style="stroke-width: 0.85 ;&st7; " /><path d=" M  944.76,  535.78  C  944.76   535.00   944.12   534.36   943.34   534.36 " style="stroke-width: 0.85 ;&st7; " /><path d=" M  943.34,  534.36  C  942.56   534.36   941.93   535.00   941.93   535.78 " style="stroke-width: 0.85 ;&st7; " /><path d=" M  941.93,  535.78  C  941.93   536.56   942.56   537.20   943.34   537.20 " style="stroke-width: 0.85 ;&st7; " /><path d=" M  943.34,  537.20  C  944.12   537.20   944.76   536.56   944.76   535.78 " style="stroke-width: 0.85 ;&st7; " /><path d=" M  995.75,  535.78  C  995.75   535.00   995.12   534.36   994.33   534.36 " style="stroke-width: 0.85 ;&st7; " /><path d=" M  994.33,  534.36  C  993.55   534.36   992.92   535.00   992.92   535.78 " style="stroke-width: 0.85 ;&st7; " /><path d=" M  992.92,  535.78  C  992.92   536.56   993.55   537.20   994.33   537.20 " style="stroke-width: 0.85 ;&st7; " /><path d=" M  994.33,  537.20  C  995.12   537.20   995.75   536.56   995.75   535.78 " style="stroke-width: 0.85 ;&st7; " /><path d=" M  936.26,  518.78  C  936.26   518.00   935.63   517.37   934.84   517.37 " style="stroke-width: 0.85 ;&st7; " /><path d=" M  934.84,  517.37  C  934.06   517.37   933.43   518.00   933.43   518.78 " style="stroke-width: 0.85 ;&st7; " /><path d=" M  933.43,  518.78  C  933.43   519.56   934.06   520.20   934.84   520.20 " style="stroke-width: 0.85 ;&st7; " /><path d=" M  934.84,  520.20  C  935.63   520.20   936.26   519.56   936.26   518.78 " style="stroke-width: 0.85 ;&st7; " /><path d=" M  987.25,  518.78  C  987.25   518.00   986.62   517.37   985.84   517.37 " style="stroke-width: 0.85 ;&st7; " /><path d=" M  985.84,  517.37  C  985.05   517.37   984.42   518.00   984.42   518.78 " style="stroke-width: 0.85 ;&st7; " /><path d=" M  984.42,  518.78  C  984.42   519.56   985.05   520.20   985.84   520.20 " style="stroke-width: 0.85 ;&st7; " /><path d=" M  985.84,  520.20  C  986.62   520.20   987.25   519.56   987.25   518.78 " style="stroke-width: 0.85 ;&st7; " /><path d=" M  885.27,  518.78  C  885.27   518.00   884.63   517.37   883.85   517.37 " style="stroke-width: 0.85 ;&st7; " /><path d=" M  883.85,  517.37  C  883.07   517.37   882.44   518.00   882.44   518.78 " style="stroke-width: 0.85 ;&st7; " /><path d=" M  882.44,  518.78  C  882.44   519.56   883.07   520.20   883.85   520.20 " style="stroke-width: 0.85 ;&st7; " /><path d=" M  883.85,  520.20  C  884.63   520.20   885.27   519.56   885.27   518.78 " style="stroke-width: 0.85 ;&st7; " /><path d=" M  834.28,  518.78  C  834.28   518.00   833.64   517.37   832.86   517.37 " style="stroke-width: 0.85 ;&st7; " /><path d=" M  832.86,  517.37  C  832.08   517.37   831.44   518.00   831.44   518.78 " style="stroke-width: 0.85 ;&st7; " /><path d=" M  831.44,  518.78  C  831.44   519.56   832.08   520.20   832.86   520.20 " style="stroke-width: 0.85 ;&st7; " /><path d=" M  832.86,  520.20  C  833.64   520.20   834.28   519.56   834.28   518.78 " style="stroke-width: 0.85 ;&st7; " /><path d=" M  825.78,  535.78  C  825.78   535.00   825.14   534.36   824.36   534.36 " style="stroke-width: 0.85 ;&st7; " /><path d=" M  824.36,  534.36  C  823.58   534.36   822.95   535.00   822.95   535.78 " style="stroke-width: 0.85 ;&st7; " /><path d=" M  822.95,  535.78  C  822.95   536.56   823.58   537.20   824.36   537.20 " style="stroke-width: 0.85 ;&st7; " /><path d=" M  824.36,  537.20  C  825.14   537.20   825.78   536.56   825.78   535.78 " style="stroke-width: 0.85 ;&st7; " /><path d=" M  876.77,  535.78  C  876.77   535.00   876.14   534.36   875.35   534.36 " style="stroke-width: 0.85 ;&st7; " /><path d=" M  875.35,  534.36  C  874.57   534.36   873.94   535.00   873.94   535.78 " style="stroke-width: 0.85 ;&st7; " /><path d=" M  873.94,  535.78  C  873.94   536.56   874.57   537.20   875.35   537.20 " style="stroke-width: 0.85 ;&st7; " /><path d=" M  875.35,  537.20  C  876.14   537.20   876.77   536.56   876.77   535.78 " style="stroke-width: 0.85 ;&st7; " /><path d=" M  817.28,  518.78  C  817.28   518.00   816.65   517.37   815.86   517.37 " style="stroke-width: 0.85 ;&st7; " /><path d=" M  815.86,  517.37  C  815.08   517.37   814.45   518.00   814.45   518.78 " style="stroke-width: 0.85 ;&st7; " /><path d=" M  814.45,  518.78  C  814.45   519.56   815.08   520.20   815.86   520.20 " style="stroke-width: 0.85 ;&st7; " /><path d=" M  815.86,  520.20  C  816.65   520.20   817.28   519.56   817.28   518.78 " style="stroke-width: 0.85 ;&st7; " /><path d=" M  868.27,  518.78  C  868.27   518.00   867.64   517.37   866.86   517.37 " style="stroke-width: 0.85 ;&st7; " /><path d=" M  866.86,  517.37  C  866.07   517.37   865.44   518.00   865.44   518.78 " style="stroke-width: 0.85 ;&st7; " /><path d=" M  865.44,  518.78  C  865.44   519.56   866.07   520.20   866.86   520.20 " style="stroke-width: 0.85 ;&st7; " /><path d=" M  866.86,  520.20  C  867.64   520.20   868.27   519.56   868.27   518.78 " style="stroke-width: 0.85 ;&st7; " /><path d=" M  783.29,  518.78  C  783.29   518.00   782.65   517.37   781.87   517.37 " style="stroke-width: 0.85 ;&st7; " /><path d=" M  781.87,  517.37  C  781.09   517.37   780.45   518.00   780.45   518.78 " style="stroke-width: 0.85 ;&st7; " /><path d=" M  780.45,  518.78  C  780.45   519.56   781.09   520.20   781.87   520.20 " style="stroke-width: 0.85 ;&st7; " /><path d=" M  781.87,  520.20  C  782.65   520.20   783.29   519.56   783.29   518.78 " style="stroke-width: 0.85 ;&st7; " /><path d=" M  732.29,  518.78  C  732.29   518.00   731.66   517.37   730.88   517.37 " style="stroke-width: 0.85 ;&st7; " /><path d=" M  730.88,  517.37  C  730.10   517.37   729.46   518.00   729.46   518.78 " style="stroke-width: 0.85 ;&st7; " /><path d=" M  729.46,  518.78  C  729.46   519.56   730.10   520.20   730.88   520.20 " style="stroke-width: 0.85 ;&st7; " /><path d=" M  730.88,  520.20  C  731.66   520.20   732.29   519.56   732.29   518.78 " style="stroke-width: 0.85 ;&st7; " /><path d=" M  723.80,  535.78  C  723.80   535.00   723.16   534.36   722.38   534.36 " style="stroke-width: 0.85 ;&st7; " /><path d=" M  722.38,  534.36  C  721.60   534.36   720.96   535.00   720.96   535.78 " style="stroke-width: 0.85 ;&st7; " /><path d=" M  720.96,  535.78  C  720.96   536.56   721.60   537.20   722.38   537.20 " style="stroke-width: 0.85 ;&st7; " /><path d=" M  722.38,  537.20  C  723.16   537.20   723.80   536.56   723.80   535.78 " style="stroke-width: 0.85 ;&st7; " /><path d=" M  774.79,  535.78  C  774.79   535.00   774.15   534.36   773.37   534.36 " style="stroke-width: 0.85 ;&st7; " /><path d=" M  773.37,  534.36  C  772.59   534.36   771.95   535.00   771.95   535.78 " style="stroke-width: 0.85 ;&st7; " /><path d=" M  771.95,  535.78  C  771.95   536.56   772.59   537.20   773.37   537.20 " style="stroke-width: 0.85 ;&st7; " /><path d=" M  773.37,  537.20  C  774.15   537.20   774.79   536.56   774.79   535.78 " style="stroke-width: 0.85 ;&st7; " /><path d=" M  715.30,  518.78  C  715.30   518.00   714.66   517.37   713.88   517.37 " style="stroke-width: 0.85 ;&st7; " /><path d=" M  713.88,  517.37  C  713.10   517.37   712.46   518.00   712.46   518.78 " style="stroke-width: 0.85 ;&st7; " /><path d=" M  712.46,  518.78  C  712.46   519.56   713.10   520.20   713.88   520.20 " style="stroke-width: 0.85 ;&st7; " /><path d=" M  713.88,  520.20  C  714.66   520.20   715.30   519.56   715.30   518.78 " style="stroke-width: 0.85 ;&st7; " /><path d=" M  766.29,  518.78  C  766.29   518.00   765.65   517.37   764.87   517.37 " style="stroke-width: 0.85 ;&st7; " /><path d=" M  764.87,  517.37  C  764.09   517.37   763.46   518.00   763.46   518.78 " style="stroke-width: 0.85 ;&st7; " /><path d=" M  763.46,  518.78  C  763.46   519.56   764.09   520.20   764.87   520.20 " style="stroke-width: 0.85 ;&st7; " /><path d=" M  764.87,  520.20  C  765.65   520.20   766.29   519.56   766.29   518.78 " style="stroke-width: 0.85 ;&st7; " /><path d=" M  764.87,  639.18  C  764.87   643.87   768.68   647.68   773.37   647.68 " style="stroke-width: 1.42 ;&st7; " /><path d=" M  773.37,  647.68  C  778.06   647.68   781.87   643.87   781.87   639.18 " style="stroke-width: 1.42 ;&st7; " /><path d=" M  781.87,  639.18  C  781.87   634.48   778.06   630.68   773.37   630.68 " style="stroke-width: 1.42 ;&st7; " /><path d=" M  773.37,  630.68  C  768.68   630.68   764.87   634.48   764.87   639.18 " style="stroke-width: 1.42 ;&st7; " /><path d=" M  815.86,  639.18  C  815.86   643.87   819.67   647.68   824.36   647.68 " style="stroke-width: 1.42 ;&st7; " /><path d=" M  824.36,  647.68  C  829.06   647.68   832.86   643.87   832.86   639.18 " style="stroke-width: 1.42 ;&st7; " /><path d=" M  832.86,  639.18  C  832.86   634.48   829.06   630.68   824.36   630.68 " style="stroke-width: 1.42 ;&st7; " /><path d=" M  824.36,  630.68  C  819.67   630.68   815.86   634.48   815.86   639.18 " style="stroke-width: 1.42 ;&st7; " /><path d=" M  934.84,  639.18  C  934.84   643.87   938.65   647.68   943.34   647.68 " style="stroke-width: 1.42 ;&st7; " /><path d=" M  943.34,  647.68  C  948.04   647.68   951.84   643.87   951.84   639.18 " style="stroke-width: 1.42 ;&st7; " /><path d=" M  951.84,  639.18  C  951.84   634.48   948.04   630.68   943.34   630.68 " style="stroke-width: 1.42 ;&st7; " /><path d=" M  943.34,  630.68  C  938.65   630.68   934.84   634.48   934.84   639.18 " style="stroke-width: 1.42 ;&st7; " /><path d=" M  735.41,  116.80  C  735.41   114.30   733.38   112.27   730.88   112.27 " style="stroke-width: 1.42 ;&st7; " /><path d=" M  730.88,  112.27  C  728.37   112.27   726.35   114.30   726.35   116.80 " style="stroke-width: 1.42 ;&st7; " /><path d=" M  726.35,  116.80  C  726.35   119.30   728.37   121.33   730.88   121.33 " style="stroke-width: 1.42 ;&st7; " /><path d=" M  730.88,  121.33  C  733.38   121.33   735.41   119.30   735.41   116.80 " style="stroke-width: 1.42 ;&st7; " /><path d=" M  735.41,  125.86  C  735.41   123.36   733.38   121.33   730.88   121.33 " style="stroke-width: 1.42 ;&st7; " /><path d=" M  730.88,  121.33  C  728.37   121.33   726.35   123.36   726.35   125.86 " style="stroke-width: 1.42 ;&st7; " /><path d=" M  726.35,  125.86  C  726.35   128.37   728.37   130.40   730.88   130.40 " style="stroke-width: 1.42 ;&st7; " /><path d=" M  730.88,  130.40  C  733.38   130.40   735.41   128.37   735.41   125.86 " style="stroke-width: 1.42 ;&st7; " /><path d=" M  769.40,  116.80  C  769.40   114.30   767.38   112.27   764.87   112.27 " style="stroke-width: 1.42 ;&st7; " /><path d=" M  764.87,  112.27  C  762.37   112.27   760.34   114.30   760.34   116.80 " style="stroke-width: 1.42 ;&st7; " /><path d=" M  760.34,  116.80  C  760.34   119.30   762.37   121.33   764.87   121.33 " style="stroke-width: 1.42 ;&st7; " /><path d=" M  764.87,  121.33  C  767.38   121.33   769.40   119.30   769.40   116.80 " style="stroke-width: 1.42 ;&st7; " /><path d=" M  769.40,  125.86  C  769.40   123.36   767.38   121.33   764.87   121.33 " style="stroke-width: 1.42 ;&st7; " /><path d=" M  764.87,  121.33  C  762.37   121.33   760.34   123.36   760.34   125.86 " style="stroke-width: 1.42 ;&st7; " /><path d=" M  760.34,  125.86  C  760.34   128.37   762.37   130.40   764.87   130.40 " style="stroke-width: 1.42 ;&st7; " /><path d=" M  764.87,  130.40  C  767.38   130.40   769.40   128.37   769.40   125.86 " style="stroke-width: 1.42 ;&st7; " /><path d=" M  837.39,  116.80  C  837.39   114.30   835.36   112.27   832.86   112.27 " style="stroke-width: 1.42 ;&st7; " /><path d=" M  832.86,  112.27  C  830.36   112.27   828.33   114.30   828.33   116.80 " style="stroke-width: 1.42 ;&st7; " /><path d=" M  828.33,  116.80  C  828.33   119.30   830.36   121.33   832.86   121.33 " style="stroke-width: 1.42 ;&st7; " /><path d=" M  832.86,  121.33  C  835.36   121.33   837.39   119.30   837.39   116.80 " style="stroke-width: 1.42 ;&st7; " /><path d=" M  837.39,  125.86  C  837.39   123.36   835.36   121.33   832.86   121.33 " style="stroke-width: 1.42 ;&st7; " /><path d=" M  832.86,  121.33  C  830.36   121.33   828.33   123.36   828.33   125.86 " style="stroke-width: 1.42 ;&st7; " /><path d=" M  828.33,  125.86  C  828.33   128.37   830.36   130.40   832.86   130.40 " style="stroke-width: 1.42 ;&st7; " /><path d=" M  832.86,  130.40  C  835.36   130.40   837.39   128.37   837.39   125.86 " style="stroke-width: 1.42 ;&st7; " /><path d=" M  871.39,  116.80  C  871.39   114.30   869.36   112.27   866.86   112.27 " style="stroke-width: 1.42 ;&st7; " /><path d=" M  866.86,  112.27  C  864.35   112.27   862.32   114.30   862.32   116.80 " style="stroke-width: 1.42 ;&st7; " /><path d=" M  862.32,  116.80  C  862.32   119.30   864.35   121.33   866.86   121.33 " style="stroke-width: 1.42 ;&st7; " /><path d=" M  866.86,  121.33  C  869.36   121.33   871.39   119.30   871.39   116.80 " style="stroke-width: 1.42 ;&st7; " /><path d=" M  871.39,  125.86  C  871.39   123.36   869.36   121.33   866.86   121.33 " style="stroke-width: 1.42 ;&st7; " /><path d=" M  866.86,  121.33  C  864.35   121.33   862.32   123.36   862.32   125.86 " style="stroke-width: 1.42 ;&st7; " /><path d=" M  862.32,  125.86  C  862.32   128.37   864.35   130.40   866.86   130.40 " style="stroke-width: 1.42 ;&st7; " /><path d=" M  866.86,  130.40  C  869.36   130.40   871.39   128.37   871.39   125.86 " style="stroke-width: 1.42 ;&st7; " /><path d=" M  956.37,  116.80  C  956.37   114.30   954.34   112.27   951.84   112.27 " style="stroke-width: 1.42 ;&st7; " /><path d=" M  951.84,  112.27  C  949.34   112.27   947.31   114.30   947.31   116.80 " style="stroke-width: 1.42 ;&st7; " /><path d=" M  947.31,  116.80  C  947.31   119.30   949.34   121.33   951.84   121.33 " style="stroke-width: 1.42 ;&st7; " /><path d=" M  951.84,  121.33  C  954.34   121.33   956.37   119.30   956.37   116.80 " style="stroke-width: 1.42 ;&st7; " /><path d=" M  956.37,  125.86  C  956.37   123.36   954.34   121.33   951.84   121.33 " style="stroke-width: 1.42 ;&st7; " /><path d=" M  951.84,  121.33  C  949.34   121.33   947.31   123.36   947.31   125.86 " style="stroke-width: 1.42 ;&st7; " /><path d=" M  947.31,  125.86  C  947.31   128.37   949.34   130.40   951.84   130.40 " style="stroke-width: 1.42 ;&st7; " /><path d=" M  951.84,  130.40  C  954.34   130.40   956.37   128.37   956.37   125.86 " style="stroke-width: 1.42 ;&st7; " /><path d=" M  990.37,  116.80  C  990.37   114.30   988.34   112.27   985.84   112.27 " style="stroke-width: 1.42 ;&st7; " /><path d=" M  985.84,  112.27  C  983.33   112.27   981.30   114.30   981.30   116.80 " style="stroke-width: 1.42 ;&st7; " /><path d=" M  981.30,  116.80  C  981.30   119.30   983.33   121.33   985.84   121.33 " style="stroke-width: 1.42 ;&st7; " /><path d=" M  985.84,  121.33  C  988.34   121.33   990.37   119.30   990.37   116.80 " style="stroke-width: 1.42 ;&st7; " /><path d=" M  990.37,  125.86  C  990.37   123.36   988.34   121.33   985.84   121.33 " style="stroke-width: 1.42 ;&st7; " /><path d=" M  985.84,  121.33  C  983.33   121.33   981.30   123.36   981.30   125.86 " style="stroke-width: 1.42 ;&st7; " /><path d=" M  981.30,  125.86  C  981.30   128.37   983.33   130.40   985.84   130.40 " style="stroke-width: 1.42 ;&st7; " /><path d=" M  985.84,  130.40  C  988.34   130.40   990.37   128.37   990.37   125.86 " style="stroke-width: 1.42 ;&st7; " /><text style="&st18;" transform="matrix(&st17;  982.14  161.86 )">G-Y</text><text style="&st18;" transform="matrix(&st17;  829.17  161.58 )">R-B</text><text style="&st18;" transform="matrix(&st17;  863.16  161.86 )">G-B</text><text style="&st18;" transform="matrix(&st17;  727.18  161.22 )">R-L</text><text style="&st18;" transform="matrix(&st17;  761.18  162.88 )">G-W</text><text style="&st18;" transform="matrix(&st17;  829.17  246.56 )">R-B</text><text style="&st18;" transform="matrix(&st17;  718.68  577.91 )">R</text><text style="&st18;" transform="matrix(&st17;  769.68  581.9 )">L-R</text><text style="&st18;" transform="matrix(&st17;  899.96  556.72 )">P13</text><text style="&st18;" transform="matrix(&st17;  820.67  577.91 )">R</text><text style="&st18;" transform="matrix(&st17;  871.66  581.9 )">L-R</text><text style="&st18;" transform="matrix(&st17;  939.65  577.91 )">R</text><text style="&st18;" transform="matrix(&st17;  990.64  581.9 )">L-R</text><text style="&st18;" transform="matrix(&st17;  982.14  476.31 )">G-B</text><text style="&st18;" transform="matrix(&st17;  948.15  476.02 )">R-B</text><text style="&st18;" transform="matrix(&st17;  897.15  471.18 )">L</text><text style="&st18;" transform="matrix(&st17;  863.16  476.31 )">G-B</text><text style="&st18;" transform="matrix(&st17;  829.17  476.02 )">R-B</text><text style="&st18;" transform="matrix(&st17;  761.18  477.33 )">G-W</text><text style="&st18;" transform="matrix(&st17;  727.18  475.67 )">R-L</text><text ewd:textID="20" style="&st18;" transform="matrix(&st17;  817.83  536.02 )">Up</text><text ewd:textID="20" style="&st18;" transform="matrix(&st17;  936.81  536.02 )">Up</text><text ewd:textID="9" style="&st18;" transform="matrix(&st17;  885.82  545.06 )">Down</text><text ewd:textID="20" style="&st18;" transform="matrix(&st17;  715.85  536.02 )">Up</text><text ewd:textID="9" style="&st18;" transform="matrix(&st17;  783.84  545.06 )">Down</text><text style="&st18;" transform="matrix(&st16;  711.36  680.78 )">P 8</text><text style="&st18;" transform="matrix(&st16;  715.59  593.0 )">2</text><text style="&st18;" transform="matrix(&st16;  767.35  593.0 )">1</text><text style="&st18;" transform="matrix(&st16;  821.47  641.15 )">M</text><text style="&st18;" transform="matrix(&st16;  813.34  680.78 )">P10</text><text style="&st18;" transform="matrix(&st16;  817.57  593.0 )">2</text><text style="&st18;" transform="matrix(&st16;  869.34  593.0 )">1</text><text style="&st18;" transform="matrix(&st16;  940.45  641.15 )">M</text><text style="&st18;" transform="matrix(&st16;  932.32  680.78 )">P 9</text><text style="&st18;" transform="matrix(&st16;  936.55  593.0 )">2</text><text style="&st18;" transform="matrix(&st16;  988.32  593.0 )">1</text><text style="&st18;" transform="matrix(&st16;  770.47  641.15 )">M</text><text style="&st18;" transform="matrix(&st17;  829.17  416.53 )">R-B</text><text style="&st18;" transform="matrix(&st17;  863.16  416.82 )">G-B</text><text style="&st18;" transform="matrix(&st17;  897.15  411.69 )">L</text><text style="&st18;" transform="matrix(&st17;  948.15  416.53 )">R-Y</text><text style="&st18;" transform="matrix(&st17;  982.14  416.82 )">G-Y</text><text style="&st18;" transform="matrix(&st16;  983.36  108.57 )">D</text><text style="&st18;" transform="matrix(&st16;  949.37  108.57 )">U</text><text style="&st18;" transform="matrix(&st16;  864.38  108.57 )">D</text><text style="&st18;" transform="matrix(&st16;  830.39  108.57 )">U</text><text style="&st18;" transform="matrix(&st16;  762.4  108.57 )">D</text><text style="&st18;" transform="matrix(&st16;  728.41  108.57 )">U</text><text style="&st18;" transform="matrix(&st16;  541.93  380.52 )">L</text><text style="&st18;" transform="matrix(&st16;  541.93  406.02 )">L</text><text style="&st18;" transform="matrix(&st16;  788.39  406.02 )">L</text><text style="&st18;" transform="matrix(&st16;  541.93  575.99 )">L</text><text style="&st18;" transform="matrix(&st16;  686.41  465.51 )">L</text><text style="&st18;" transform="matrix(&st16;  728.35  33.47 )">P 6(A),(B)</text><text ewd:textID="12" style="&st18;" transform="matrix(&st16;  728.35  40.58 )">Power Window Master SW</text><text ewd:textID="14" style="&st18;" transform="matrix(&st16;  711.36  687.89 )">Power Window Regulator <tspan dy="6" x="0">Motor (Front RH)</tspan></text><text ewd:textID="16" style="&st18;" transform="matrix(&st16;  813.34  687.89 )">Power Window Regulator <tspan dy="6" x="0">Motor (Rear RH)</tspan></text><text ewd:textID="15" style="&st18;" transform="matrix(&st16;  932.32  687.89 )">Power Window Regulator <tspan dy="6" x="0">Motor (Rear LH)</tspan></text><text ewd:textID="19" style="&st18;" transform="matrix(&st17;  907.07  556.72 )">Power Window SW <tspan dy="6" x="0">(Rear RH)</tspan></text><text style="&st18;" transform="matrix(&st16;  716.82  118.77 )">13</text><text style="&st18;" transform="matrix(&st16;  728.55  118.77 )">A</text><text style="&st18;" transform="matrix(&st16;  716.82  127.83 )">18</text><text style="&st18;" transform="matrix(&st16;  728.55  127.83 )">B</text><text style="&st18;" transform="matrix(&st16;  750.82  118.77 )">15</text><text style="&st18;" transform="matrix(&st16;  762.54  118.77 )">A</text><text style="&st18;" transform="matrix(&st16;  750.82  127.83 )">15</text><text style="&st18;" transform="matrix(&st16;  762.54  127.83 )">B</text><text style="&st18;" transform="matrix(&st16;  818.81  118.77 )">18</text><text style="&st18;" transform="matrix(&st16;  830.53  118.77 )">A</text><text style="&st18;" transform="matrix(&st16;  818.81  127.83 )">10</text><text style="&st18;" transform="matrix(&st16;  830.53  127.83 )">B</text><text style="&st18;" transform="matrix(&st16;  852.8  118.77 )">16</text><text style="&st18;" transform="matrix(&st16;  681.59  236.05 )">4</text><text style="&st18;" transform="matrix(&st16;  656.1  236.05 )">6</text><text style="&st18;" transform="matrix(&st16;  545.61  236.05 )">5</text><text style="&st18;" transform="matrix(&st16;  605.1  236.05 )">3</text><text style="&st18;" transform="matrix(&st17;  684.69  159.56 )">BR</text><text style="&st18;" transform="matrix(&st17;  548.71  161.86 )">P-G</text><text style="&st18;" transform="matrix(&st17;  608.2  157.09 )">B</text><text style="&st18;" transform="matrix(&st17;  659.19  161.51 )">L-O</text><text style="&st18;" transform="matrix(&st16;  681.11  108.57 )">VCC</text><text style="&st18;" transform="matrix(&st16;  655.19  108.57 )">GND</text><text style="&st18;" transform="matrix(&st16;  603.28  108.57 )">PLS2</text><text style="&st18;" transform="matrix(&st16;  545.77  108.57 )">PLS</text><text style="&st18;" transform="matrix(&st16;  677.51  118.77 )">3</text><text style="&st18;" transform="matrix(&st16;  686.05  118.77 )">A</text><text style="&st18;" transform="matrix(&st16;  652.01  118.77 )">2</text><text style="&st18;" transform="matrix(&st16;  660.56  118.77 )">A</text><text style="&st18;" transform="matrix(&st16;  597.84  118.77 )">17</text><text style="&st18;" transform="matrix(&st16;  609.57  118.77 )">A</text><text style="&st18;" transform="matrix(&st16;  538.35  118.77 )">14</text><text style="&st18;" transform="matrix(&st16;  550.08  118.77 )">A</text><text style="&st18;" transform="matrix(&st17;  696.02  160.55 )">(*1)</text><text style="&st18;" transform="matrix(&st17;  670.53  160.55 )">(*1)</text><text style="&st18;" transform="matrix(&st17;  619.53  160.55 )">(*1)</text><text style="&st18;" transform="matrix(&st17;  560.04  160.55 )">(*1)</text><text ewd:textID="17" style="&st18;" transform="matrix(&st17;  689.79  556.72 )">Power Window SW <tspan dy="6" x="0">(Front Passenger's </tspan><tspan dy="6" x="-0.01">Side)</tspan></text><text style="&st18;" transform="matrix(&st17;  682.68  556.72 )">P11</text><text style="&st18;" transform="matrix(&st17;  795.17  471.18 )">L</text><text style="&st18;" transform="matrix(&st16;  864.52  118.77 )">A</text><text style="&st18;" transform="matrix(&st16;  852.8  127.83 )">16</text><text style="&st18;" transform="matrix(&st16;  864.52  127.83 )">B</text><text style="&st18;" transform="matrix(&st16;  937.79  118.77 )">12</text><text style="&st18;" transform="matrix(&st16;  949.51  118.77 )">A</text><text style="&st18;" transform="matrix(&st16;  937.79  127.83 )">12</text><text style="&st18;" transform="matrix(&st16;  949.51  127.83 )">B</text><text style="&st18;" transform="matrix(&st16;  991.81  118.77 )">(*1)</text><text style="&st18;" transform="matrix(&st16;  971.78  118.77 )">10</text><text style="&st18;" transform="matrix(&st16;  983.5  118.77 )">A</text><text style="&st18;" transform="matrix(&st16;  991.81  127.83 )">(*2)</text><text style="&st18;" transform="matrix(&st16;  971.78  127.83 )">13</text><text style="&st18;" transform="matrix(&st16;  983.5  127.83 )">B</text><text style="&st18;" transform="matrix(&st17;  982.14  246.84 )">G-Y</text><text style="&st18;" transform="matrix(&st16;  936.55  562.39 )">2</text><text style="&st18;" transform="matrix(&st16;  852.04  441.43 )">7</text><text style="&st18;" transform="matrix(&st16;  971.02  441.43 )">7</text><text style="&st18;" transform="matrix(&st17;  761.18  247.87 )">G-W</text><text style="&st18;" transform="matrix(&st17;  948.15  161.58 )">R-Y</text><text style="&st18;" transform="matrix(&st16;  868.56  562.39 )">5</text><text style="&st18;" transform="matrix(&st16;  784.05  441.43 )">8</text><text style="&st18;" transform="matrix(&st16;  750.06  441.43 )">4</text><text style="&st18;" transform="matrix(&st16;  937.03  441.43 )">6</text><text style="&st18;" transform="matrix(&st16;  886.04  441.43 )">8</text><text style="&st18;" transform="matrix(&st17;  727.18  246.21 )">R-L</text><text style="&st18;" transform="matrix(&st17;  863.16  246.84 )">G-B</text><text style="&st18;" transform="matrix(&st16;  724.86  499.51 )">1</text><text style="&st18;" transform="matrix(&st16;  979.04  499.51 )">4</text><text style="&st18;" transform="matrix(&st16;  707.09  499.51 )">3</text><text style="&st18;" transform="matrix(&st16;  945.82  499.51 )">1</text><text style="&st18;" transform="matrix(&st16;  715.59  562.39 )">2</text><text style="&st18;" transform="matrix(&st16;  766.58  562.39 )">5</text><text style="&st18;" transform="matrix(&st16;  860.06  499.51 )">4</text><text style="&st18;" transform="matrix(&st16;  987.54  562.39 )">5</text><text style="&st18;" transform="matrix(&st16;  817.57  562.39 )">2</text><text style="&st18;" transform="matrix(&st16;  826.84  499.51 )">1</text><text style="&st18;" transform="matrix(&st16;  809.07  499.51 )">3</text><text style="&st18;" transform="matrix(&st16;  758.08  499.51 )">4</text><text style="&st18;" transform="matrix(&st16;  928.05  499.51 )">3</text><text style="&st18;" transform="matrix(&st16;  818.05  441.43 )">6</text><text style="&st18;" transform="matrix(&st16;  716.06  441.43 )">3</text><text style="&st18;" transform="matrix(&st17;  948.15  246.56 )">R-Y</text><text ewd:textID="13" style="&st18;" transform="matrix(&st16;  558.38  356.45 )">Power Window Regulator <tspan dy="6" x="0">Motor (Front LH)</tspan></text><text style="&st18;" transform="matrix(&st16;  558.38  349.34 )">P 7</text><text style="&st18;" transform="matrix(&st16;  712.88  194.97 )">10</text><text style="&st18;" transform="matrix(&st16;  713.66  203.47 )">11</text><text style="&st18;" transform="matrix(&st16;  750.06  194.97 )">3</text><text style="&st18;" transform="matrix(&st16;  746.88  203.47 )">10</text><text style="&st18;" transform="matrix(&st16;  818.05  194.97 )">6</text><text style="&st18;" transform="matrix(&st16;  818.05  203.47 )">9</text><text style="&st18;" transform="matrix(&st16;  852.04  194.97 )">5</text><text style="&st18;" transform="matrix(&st16;  852.04  203.47 )">8</text><text style="&st18;" transform="matrix(&st16;  937.03  194.97 )">2</text><text style="&st18;" transform="matrix(&st16;  937.03  203.47 )">3</text><text style="&st18;" transform="matrix(&st16;  995.75  203.47 )">(*6)</text><text style="&st18;" transform="matrix(&st16;  995.75  194.97 )">(*5)</text><text style="&st18;" transform="matrix(&st16;  971.8  194.97 )">1</text><text style="&st18;" transform="matrix(&st16;  971.02  203.47 )">2</text></svg>