﻿<?xml version="1.0" encoding="utf-8"?>
<!DOCTYPE svg PUBLIC "-//W3C//DTD SVG 1.0//EN" "http://www.w3.org/TR/2001/REC-SVG-20010904/DTD/svg10.dtd"[
	<!ENTITY ns_flows "http://ns.adobe.com/Flows/1.0/">
	<!ENTITY ns_svg "http://www.w3.org/2000/svg">
	<!ENTITY ns_xlink "http://www.w3.org/1999/xlink">
	<!ENTITY st0 "font-size:7px;font-family:'MS-PGothic';adobe-font-script:japanese;">
	<!ENTITY st1 "font-size:6px;font-family:'ArialMT';">
	<!-- White fill  -->
	<!ENTITY st2 "fill:#FFFFFF;stroke:#000000; stroke-width:1.41;stroke-linecap:round;stroke-linejoin:round;">
	<!-- Yellow fill  -->
	<!ENTITY st3 "fill:#FFFFCC;stroke:#FFFFCC; stroke-width:0.1;stroke-linecap:round;stroke-linejoin:round;">
	<!-- Gray fill  -->
	<!ENTITY st4 "fill:#CCCCCC;stroke:#CCCCCC; stroke-width:0.1;stroke-linecap:round;stroke-linejoin:round;">
	<!-- Light-blue fill -->
	<!ENTITY st5 "fill:#CCECF4;stroke:#000000; stroke-width:1.133;stroke-linecap:round;stroke-linejoin:round;">
	<!ENTITY st6 "fill:none;stroke-linecap:butt; stroke-linejoin:round;">
	<!ENTITY st7 "fill:none;stroke:#000000;stroke-linecap:round;stroke-linejoin:round;">
	<!ENTITY st8 "enable-background:new    ;">
	<!-- Black fill -->
	<!ENTITY st9 "fill:#000000;stroke:#000000; stroke-linecap:round;stroke-linejoin:round;">
	<!-- SRS note   -->
	<!ENTITY st10 "font-size:9px;font-family:'ArialMT';">
	<!ENTITY st11 "font-size:9px;font-family:'Svg Symbol';">
	<!ENTITY st12 "font-size:6px;font-family:'Svg Symbol';">
	<!ENTITY st13 "fill:none;stroke:#ff0000;stroke-linecap:round;stroke-linejoin:round;">
	<!-- Yellow fill  -->
	<!ENTITY st14 "fill:#FFFF00;stroke:#FFFF00; stroke-width:0.1;stroke-linecap:round;stroke-linejoin:round;">
	<!ENTITY st15 "font-size:6px;font-family:'MS-PGothic';adobe-font-script:japanese;">
	<!ENTITY st16 "1.00 0.00 0.00 1.00">
	<!ENTITY st17 "0.00 -1.00 1.00 0.00">
	<!ENTITY st18 "font-size:6px;font-family:'Arial';">
	<!ENTITY st19 "font-size:9px;font-family:'Arial';">
	<!ENTITY st20 "font-size:6px;font-family:'MS-PGothic','MS PGothic';adobe-font-script:japanese;">
	<!ENTITY st21 "font-size:7px;font-family:'MS-PGothic','MS PGothic';adobe-font-script:japanese;">
	<!ATTLIST svg
		xmlns:ewd CDATA #FIXED "http://shcl.co.jp/ewd"
		xmlns:a CDATA #FIXED "http://ns.adobe.com/AdobeSVGViewerExtensions/3.0/"
		ewd:ver CDATA #IMPLIED
	>
	<!ATTLIST a
		ewd:lineID CDATA #IMPLIED
		ewd:groupID CDATA #IMPLIED
		ewd:figtype CDATA #IMPLIED
		ewd:code CDATA #IMPLIED
		ewd:figID CDATA #IMPLIED
		ewd:pinNo CDATA #IMPLIED
		ewd:comment CDATA #IMPLIED >
	<!ATTLIST g
		ewd:lineID CDATA #IMPLIED
		ewd:groupID CDATA #IMPLIED
		ewd:figtype CDATA #IMPLIED
		ewd:code CDATA #IMPLIED
		ewd:figID CDATA #IMPLIED
		ewd:pinNo CDATA #IMPLIED
		ewd:comment CDATA #IMPLIED >
	<!ATTLIST text
		ewd:textID CDATA #IMPLIED >
	<!ATTLIST title
		ewd:textID CDATA #IMPLIED >
]>
<!-- Generator: Shintec Hozumi YS   -->
<svg onload="call_execInitLoadProc_svg('system')" style="overflow:visible;  enable-background:new 0 0 485.127 710.000" viewBox="0 0 485.127 710.000" height="710.000" width="485.127" xml:space="preserve" ewd:ver="L2.1.2.6" xmlns="&ns_svg;" xmlns:a="http://ns.adobe.com/AdobeSVGViewerExtensions/3.0/" xmlns:ewd="http://shcl.co.jp/ewd" xmlns:xlink="&ns_xlink;"><script type="text/javascript" xlink:href="../../../../../system/js/ewd/fig/svgfig.js" xmlns:xlink="http://www.w3.org/1999/xlink" /><defs><font horiz-adv-x="1229"><font-face font-family="Svg Symbol" units-per-em="2048" panose-1="5 5 1 2 1 7 6 2 5 7" ascent="2059" descent="450" alphabetic="0" /><missing-glyph d="M 103,0 l 0,1280 1024,0 0,-1280 -1024,0 z m 32,32 l 960,0 0,1216 -960,0 0,-1216 z" /><glyph unicode="" horiz-adv-x="1573" d="M 1517,0 l -567,0 24,279 q 141,59 207.5,168 66.5,109 66.5,306    0,272 -132.5,417.5 -132.5,145.5 -333.5,145.5 -194,0 -328,-147.5 -134,-147.5 -134,-401.5 0,-200 68.5,-319 68.5,-119     206.5,-169 l 25,-279 -564,0 0,279 35,0 q 3,-61 32,-83 45,-35 137,-35 l 270,0 0,70 q -210,61 -324.5,209 -114.5,148     -114.5,349 0,252 186.5,425 186.5,173 504.5,173 195,0 358.5,-73.5 163.5,-73.5 252,-214.5 88.5,-141 88.5,-310 0,-207     -121.5,-360.5 -121.5,-153.5 -317.5,-197.5 l -8,-70 275,0 q 92,0 128,28 36,28 42,90 l 38,0 0,-279 z" /></font></defs>
<g id="ewd_top"><a ewd:code="K2" ewd:figID="1" ewd:figtype="conn" style="cursor:pointer;"><path d=" M  169.97,  528.70  L  152.97,  528.70  L  152.97,  494.70  L  169.97,  494.70  L  169.97,  528.70 " style="&st5;" /><title ewd:textID="8">Key Interlock Solenoid</title></a><a ewd:code="S11,S31" ewd:figID="2" ewd:figtype="conn" style="cursor:pointer;"><path d=" M  135.98,  341.73  L  135.98,  392.72  L  348.44,  392.72  L  348.44,  579.69  L  484.42,  579.69  L  484.42,  341.73  L  135.98,  341.73 " style="&st5;" /><title ewd:textID="9">Shift Lock Control ECU</title></a><a ewd:code="FUSE5,FUSE7" ewd:figID="3" ewd:figtype="rb" style="cursor:pointer;"><path d=" M   72.24,   78.27  L   72.24,   35.78  L   46.74,   35.78  L   46.74,   78.27  L   72.24,   78.27 " style="&st5;" /></a><a ewd:code="J49,J50" ewd:figID="4" ewd:figtype="conn" style="cursor:pointer;"><path d=" M   50.99,  231.25  L   50.99,  256.74  L   67.99,  256.74  L   67.99,  231.25  L   50.99,  231.25 " style="&st5;" /><title ewd:textID="7">Junction Connector</title></a><a ewd:code="J29" ewd:figID="5" ewd:figtype="conn" style="cursor:pointer;"><path d=" M  152.97,  596.69  L  169.97,  596.69  L  169.97,  613.68  L  152.97,  613.68  L  152.97,  596.69 " style="&st5;" /><title ewd:textID="7">Junction Connector</title></a><a ewd:code="J65,J66" ewd:figID="6" ewd:figtype="conn" style="cursor:pointer;"><path d=" M  101.98,  494.70  L  101.98,  520.20  L  118.98,  520.20  L  118.98,  494.70  L  101.98,  494.70 " style="&st5;" /><title ewd:textID="7">Junction Connector</title></a><a ewd:code="S14" ewd:figID="7" ewd:figtype="conn" style="cursor:pointer;"><path d=" M  424.93,  188.75  L  407.93,  188.75  L  407.93,  154.76  L  424.93,  154.76  L  424.93,  188.75 " style="&st5;" /><title ewd:textID="11">Stop Lamp SW</title></a><a ewd:code="J27" ewd:figID="8" ewd:figtype="conn" style="cursor:pointer;"><path d=" M  263.46,  596.69  L  280.45,  596.69  L  280.45,  613.68  L  263.46,  613.68  L  263.46,  596.69 " style="&st5;" /><title ewd:textID="7">Junction Connector</title></a><a ewd:code="J26,J27" ewd:figID="9" ewd:figtype="conn" style="cursor:pointer;"><path d=" M   50.99,  494.70  L   50.99,  520.20  L   67.99,  520.20  L   67.99,  494.70  L   50.99,  494.70 " style="&st5;" /><title ewd:textID="7">Junction Connector</title></a><a ewd:code="2" ewd:figID="10" ewd:figtype="jb" style="cursor:pointer;"><path d=" M  144.48,   35.78  L  144.48,  103.77  L  458.92,  103.77  L  458.92,   35.78  L  144.48,   35.78 " style="&st4;" /></a><a ewd:code="2" ewd:figID="11" ewd:figtype="jb" style="cursor:pointer;"><path d=" M  399.43,  239.75  L  399.43,  290.74  L  424.93,  290.74  L  424.93,  239.75  L  399.43,  239.75 " style="&st4;" /></a><a ewd:code="FUSE44" ewd:figID="12" ewd:figtype="fuse" style="cursor:pointer;"><path d=" M  174.22,   78.27  L  174.22,   35.78  L  148.73,   35.78  L  148.73,   78.27  L  174.22,   78.27 " style="&st7;" /></a><a ewd:code="FUSE38" ewd:figID="13" ewd:figtype="fuse" style="cursor:pointer;"><path d=" M  352.69,   78.27  L  352.69,   35.78  L  327.20,   35.78  L  327.20,   78.27  L  352.69,   78.27 " style="&st7;" /></a><a ewd:code="FUSE5,FUSE7" ewd:figID="14" ewd:figtype="fuse" style="cursor:pointer;"><path d=" M   72.24,   78.27  L   72.24,   35.78  L   46.74,   35.78  L   46.74,   78.27  L   72.24,   78.27 " style="&st7;" /></a><a ewd:code="FUSE45" ewd:figID="15" ewd:figtype="fuse" style="cursor:pointer;"><path d=" M  429.18,   78.27  L  429.18,   35.78  L  403.68,   35.78  L  403.68,   78.27  L  429.18,   78.27 " style="&st7;" /></a><a ewd:lineID="1" style="cursor:pointer;"><path d=" M   59.49,  529.26  L   59.49,  664.67  L  263.46,  664.67  L  271.95,  673.17  L  271.95,  681.67 " style="stroke:#000000;stroke-width: 5.10 ;&st6;" /><path d=" M   59.49,  529.26  L   59.49,  664.67  L  263.46,  664.67  L  271.95,  673.17  L  271.95,  681.67 " style="stroke:#FFFFFF;stroke-width: 4.53 ;&st6;" /><path d=" M   59.49,  529.26  L   59.49,  664.67  L  263.46,  664.67  L  271.95,  673.17  L  271.95,  681.67 " style="stroke:#000000;stroke-width: 1.13 ;&st6;" /></a><a ewd:lineID="2" style="cursor:pointer;"><path d=" M  110.48,  485.64  L  110.48,  443.71  L   59.49,  443.71  L   59.49,  485.64 " style="stroke:#000000;stroke-width: 5.10 ;&st6;" /><path d=" M  110.48,  485.64  L  110.48,  443.71  L   59.49,  443.71  L   59.49,  485.64 " style="stroke:#FFFFFF;stroke-width: 4.53 ;&st6;" /><path d=" M  110.48,  485.64  L  110.48,  443.71  L   59.49,  443.71  L   59.49,  485.64 " style="stroke:#000000;stroke-width: 1.13 ;&st6;" /></a><a ewd:lineID="3" style="cursor:pointer;"><path d=" M   59.49,  265.81  L   59.49,  307.73  L  152.97,  307.73  L  161.47,  316.23  L  161.47,  323.60 " style="stroke:#FF0000;stroke-width: 5.10 ;&st6;" /><path d=" M   59.49,  265.81  L   59.49,  307.73  L  152.97,  307.73  L  161.47,  316.23  L  161.47,  323.60 " style="stroke:#FFFFFF;stroke-width: 2.27 ;&st6;" /><path d=" M   59.49,  265.81  L   59.49,  307.73  L  152.97,  307.73  L  161.47,  316.23  L  161.47,  323.60 " style="stroke:#00A0C6;stroke-width: 1.13 ;&st6;" /></a><a ewd:lineID="4" style="cursor:pointer;"><path d=" M   59.49,  178.27  L   59.49,  222.18 " style="stroke:#FF0000;stroke-width: 5.10 ;&st6;" /><path d=" M   59.49,  178.27  L   59.49,  222.18 " style="stroke:#FFFFFF;stroke-width: 2.27 ;&st6;" /><path d=" M   59.49,  178.27  L   59.49,  222.18 " style="stroke:#00A0C6;stroke-width: 1.13 ;&st6;" /></a><a ewd:lineID="5" style="cursor:pointer;"><path d=" M   59.49,  103.77  L   59.49,  154.76 " style="stroke:#FF0000;stroke-width: 5.10 ;&st6;" /><path d=" M   59.49,  103.77  L   59.49,  154.76 " style="stroke:#FFFFFF;stroke-width: 2.27 ;&st6;" /><path d=" M   59.49,  103.77  L   59.49,  154.76 " style="stroke:#00A0C6;stroke-width: 1.13 ;&st6;" /></a><a ewd:lineID="6" style="cursor:pointer;"><path d=" M  161.47,  528.70  L  161.47,  537.20  L  152.97,  545.69  L  110.48,  545.69  L  110.48,  529.26 " style="stroke:#FFE600;stroke-width: 5.10 ;&st6;" /></a><a ewd:lineID="7" style="cursor:pointer;"><path d=" M  161.47,  613.68  L  161.47,  681.67 " style="stroke:#000000;stroke-width: 5.10 ;&st6;" /><path d=" M  161.47,  613.68  L  161.47,  681.67 " style="stroke:#FFFFFF;stroke-width: 4.53 ;&st6;" /><path d=" M  161.47,  613.68  L  161.47,  681.67 " style="stroke:#000000;stroke-width: 1.13 ;&st6;" /></a><a ewd:lineID="8" style="cursor:pointer;"><path d=" M  161.47,  528.70  L  161.47,  596.69 " style="stroke:#FFE600;stroke-width: 5.10 ;&st6;" /></a><a ewd:lineID="9" style="cursor:pointer;"><path d=" M  161.47,  494.70  L  161.47,  410.85 " style="stroke:#00A0C6;stroke-width: 5.10 ;&st6;" /><path d=" M  161.47,  494.70  L  161.47,  410.85 " style="stroke:#FFFFFF;stroke-width: 1.13 ;&st6;" /></a><a ewd:lineID="10" style="cursor:pointer;"><path d=" M  161.47,  103.77  L  161.47,  323.60 " style="stroke:#000000;stroke-width: 5.10 ;&st6;" /></a><a ewd:lineID="11" style="cursor:pointer;"><path d=" M  271.95,  622.75  L  271.95,  681.67 " style="stroke:#000000;stroke-width: 5.10 ;&st6;" /><path d=" M  271.95,  622.75  L  271.95,  681.67 " style="stroke:#FFFFFF;stroke-width: 4.53 ;&st6;" /><path d=" M  271.95,  622.75  L  271.95,  681.67 " style="stroke:#000000;stroke-width: 1.13 ;&st6;" /></a><a ewd:lineID="12" style="cursor:pointer;"><path d=" M  271.95,  587.62  L  271.95,  410.85 " style="stroke:#FFE600;stroke-width: 5.10 ;&st6;" /></a><a ewd:lineID="13" style="cursor:pointer;"><path d=" M  339.94,  103.77  L  339.94,  323.60 " style="stroke:#999999;stroke-width: 5.10 ;&st6;" /></a><a ewd:lineID="14" style="cursor:pointer;"><path d=" M  416.43,  290.74  L  416.43,  323.60 " style="stroke:#008837;stroke-width: 5.10 ;&st6;" /><path d=" M  416.43,  290.74  L  416.43,  323.60 " style="stroke:#FFFFFF;stroke-width: 2.27 ;&st6;" /><path d=" M  416.43,  290.74  L  416.43,  323.60 " style="stroke:#FFE600;stroke-width: 1.13 ;&st6;" /></a><a ewd:lineID="15" style="cursor:pointer;"><path d=" M  416.43,  188.75  L  416.43,  239.75 " style="stroke:#008837;stroke-width: 5.10 ;&st6;" /><path d=" M  416.43,  188.75  L  416.43,  239.75 " style="stroke:#FFFFFF;stroke-width: 1.13 ;&st6;" /></a><a ewd:lineID="16" style="cursor:pointer;"><path d=" M  416.43,  103.77  L  416.43,  154.76 " style="stroke:#008837;stroke-width: 5.10 ;&st6;" /><path d=" M  416.43,  103.77  L  416.43,  154.76 " style="stroke:#FFFFFF;stroke-width: 2.27 ;&st6;" /><path d=" M  416.43,  103.77  L  416.43,  154.76 " style="stroke:#000000;stroke-width: 1.13 ;&st6;" /></a><a ewd:code="II6" ewd:figID="16" ewd:figtype="w2w" ewd:pinNo="5" style="cursor:pointer;"><path d=" M   67.99,  154.76  L   50.99,  154.76  L   50.99,  163.26  L   67.99,  163.26  L   67.99,  154.76 " style="&st2;" /><text style="&st8;" transform="matrix(&st16;  55.33  161.5 )"><tspan style="&st18;" x="0" y="0">II6</tspan></text></a><a ewd:code="II6" ewd:figID="17" ewd:figtype="w2w" ewd:pinNo="25" style="cursor:pointer;"><path d=" M   67.99,  163.26  L   50.99,  163.26  L   50.99,  171.76  L   67.99,  171.76  L   67.99,  163.26 " style="&st2;" /><text style="&st8;" transform="matrix(&st16;  55.33  170.0 )"><tspan style="&st18;" x="0" y="0">II6</tspan></text></a><a ewd:code="IH" ewd:figID="18" ewd:figtype="gp" style="cursor:pointer;"><path d=" M  150.85,  681.67  L  172.10,  681.67  L  161.47,  697.25  L  150.85,  681.67 " style="&st2;" /><text style="&st8;" transform="matrix(&st16;  157.83  689.83 )"><tspan style="&st18;" x="0" y="0">IH</tspan></text></a><a ewd:code="IG" ewd:figID="19" ewd:figtype="gp" style="cursor:pointer;"><path d=" M  261.33,  681.67  L  282.58,  681.67  L  271.95,  697.25  L  261.33,  681.67 " style="&st2;" /><text style="&st8;" transform="matrix(&st16;  268.01  689.83 )"><tspan style="&st18;" x="0" y="0">IG</tspan></text></a></g></svg>