﻿<?xml version="1.0" encoding="utf-8"?>
<!DOCTYPE svg PUBLIC "-//W3C//DTD SVG 1.0//EN" "http://www.w3.org/TR/2001/REC-SVG-20010904/DTD/svg10.dtd"[
	<!ENTITY ns_flows "http://ns.adobe.com/Flows/1.0/">
	<!ENTITY ns_svg "http://www.w3.org/2000/svg">
	<!ENTITY ns_xlink "http://www.w3.org/1999/xlink">
	<!ENTITY st0 "font-size:7px;font-family:'MS-PGothic';adobe-font-script:japanese;">
	<!ENTITY st1 "font-size:6px;font-family:'ArialMT';">
	<!-- White fill  -->
	<!ENTITY st2 "fill:#FFFFFF;stroke:#000000; stroke-width:1.41;stroke-linecap:round;stroke-linejoin:round;">
	<!-- Yellow fill  -->
	<!ENTITY st3 "fill:#FFFFCC;stroke:#FFFFCC; stroke-width:0.1;stroke-linecap:round;stroke-linejoin:round;">
	<!-- Gray fill  -->
	<!ENTITY st4 "fill:#CCCCCC;stroke:#CCCCCC; stroke-width:0.1;stroke-linecap:round;stroke-linejoin:round;">
	<!-- Light-blue fill -->
	<!ENTITY st5 "fill:#CCECF4;stroke:#000000; stroke-width:1.133;stroke-linecap:round;stroke-linejoin:round;">
	<!ENTITY st6 "fill:none;stroke-linecap:butt; stroke-linejoin:round;">
	<!ENTITY st7 "fill:none;stroke:#000000;stroke-linecap:round;stroke-linejoin:round;">
	<!ENTITY st8 "enable-background:new    ;">
	<!-- Black fill -->
	<!ENTITY st9 "fill:#000000;stroke:#000000; stroke-linecap:round;stroke-linejoin:round;">
	<!-- SRS note   -->
	<!ENTITY st10 "font-size:9px;font-family:'ArialMT';">
	<!ENTITY st11 "font-size:9px;font-family:'Svg Symbol';">
	<!ENTITY st12 "font-size:6px;font-family:'Svg Symbol';">
	<!ENTITY st13 "fill:none;stroke:#ff0000;stroke-linecap:round;stroke-linejoin:round;">
	<!-- Yellow fill  -->
	<!ENTITY st14 "fill:#FFFF00;stroke:#FFFF00; stroke-width:0.1;stroke-linecap:round;stroke-linejoin:round;">
	<!ENTITY st15 "font-size:6px;font-family:'MS-PGothic';adobe-font-script:japanese;">
	<!ENTITY st16 "1.00 0.00 0.00 1.00">
	<!ENTITY st17 "0.00 -1.00 1.00 0.00">
	<!ENTITY st18 "font-size:6px;font-family:'Arial';">
	<!ENTITY st19 "font-size:9px;font-family:'Arial';">
	<!ENTITY st20 "font-size:6px;font-family:'MS-PGothic','MS PGothic';adobe-font-script:japanese;">
	<!ENTITY st21 "font-size:7px;font-family:'MS-PGothic','MS PGothic';adobe-font-script:japanese;">
	<!ATTLIST svg
		xmlns:ewd CDATA #FIXED "http://shcl.co.jp/ewd"
		xmlns:a CDATA #FIXED "http://ns.adobe.com/AdobeSVGViewerExtensions/3.0/"
		ewd:ver CDATA #IMPLIED
	>
	<!ATTLIST a
		ewd:lineID CDATA #IMPLIED
		ewd:groupID CDATA #IMPLIED
		ewd:figtype CDATA #IMPLIED
		ewd:code CDATA #IMPLIED
		ewd:figID CDATA #IMPLIED
		ewd:pinNo CDATA #IMPLIED
		ewd:comment CDATA #IMPLIED >
	<!ATTLIST g
		ewd:lineID CDATA #IMPLIED
		ewd:groupID CDATA #IMPLIED
		ewd:figtype CDATA #IMPLIED
		ewd:code CDATA #IMPLIED
		ewd:figID CDATA #IMPLIED
		ewd:pinNo CDATA #IMPLIED
		ewd:comment CDATA #IMPLIED >
	<!ATTLIST text
		ewd:textID CDATA #IMPLIED >
	<!ATTLIST title
		ewd:textID CDATA #IMPLIED >
]>
<!-- Generator: Shintec Hozumi YS   -->
<svg onload="call_execInitLoadProc_svg('system')" style="overflow:visible;  enable-background:new 0 0 1415.556 710.000" viewBox="0 0 1415.556 710.000" height="710.000" width="1415.556" xml:space="preserve" ewd:ver="L2.1.2.6" xmlns="&ns_svg;" xmlns:a="http://ns.adobe.com/AdobeSVGViewerExtensions/3.0/" xmlns:ewd="http://shcl.co.jp/ewd" xmlns:xlink="&ns_xlink;">
<path d=" M  195.47,  456.46  L  195.47,  452.21 " style="stroke-width: 0.85 ;&st7; " /><path d=" M  195.47,  486.20  L  195.47,  481.95 " style="stroke-width: 0.85 ;&st7; " /><path d=" M  195.47,  479.12  L  201.13,  456.46 " style="stroke-width: 1.42 ;&st7; " /><path d=" M  152.97,   69.77  L  152.97,   95.27 " style="stroke-width: 0.85 ;&st7; " /><path d=" M  155.10,   95.27  L  150.85,   95.27 " style="stroke-width: 1.42 ;&st7; " /><path d=" M  155.10,  103.77  L  150.85,  103.77 " style="stroke-width: 1.42 ;&st7; " /><path d=" M  229.46,   69.77  L  229.46,   78.27 " style="stroke-width: 0.85 ;&st7; " /><path d=" M  231.59,   95.27  L  227.34,   95.27 " style="stroke-width: 1.42 ;&st7; " /><path d=" M  231.59,  103.77  L  227.34,  103.77 " style="stroke-width: 1.42 ;&st7; " /><path d=" M  197.59,  333.23  L  193.34,  333.23 " style="stroke-width: 1.42 ;&st7; " /><path d=" M  197.59,  341.73  L  193.34,  341.73 " style="stroke-width: 1.42 ;&st7; " /><path d=" M  197.59,  375.72  L  193.34,  375.72 " style="stroke-width: 1.42 ;&st7; " /><path d=" M  197.59,  384.22  L  193.34,  384.22 " style="stroke-width: 1.42 ;&st7; " /><path d=" M  237.96,  171.76  L  229.46,  171.76 " style="stroke-width: 1.42 ;&st7; " /><path d=" M  280.45,  571.19  L  441.93,  571.19 " style="stroke-width: 1.13 ;&st7;stroke-dasharray:3, 1.5;" /><path d=" M  280.45,  562.69  L  280.45,  596.69  L  441.93,  596.69  L  441.93,  562.69  L  280.45,  562.69 " style="stroke-width: 1.42 ;&st7; " /><path d=" M  135.98,  239.75  L  135.98,  282.24  L  475.92,  282.24  L  475.92,  239.75  L  135.98,  239.75 " style="stroke-width: 1.42 ;&st7; " /><path d=" M  356.94,  384.22  L  356.94,  452.21  L  467.42,  452.21  L  467.42,  384.22  L  356.94,  384.22 " style="stroke-width: 1.42 ;&st7; " /><path d=" M  399.43,  452.21  L  399.43,  384.22 " style="stroke-width: 0.85 ;&st7; " /><path d=" M  416.43,  452.21  L  416.43,  384.22 " style="stroke-width: 0.85 ;&st7; " /><path d=" M  450.42,  452.21  L  450.42,  384.22 " style="stroke-width: 0.85 ;&st7; " /><path d=" M  434.84,  443.71  L  457.51,  443.71 " style="stroke-width: 0.85 ;&st7; " /><path d=" M  382.44,  452.21  L  382.44,  384.22 " style="stroke-width: 0.85 ;&st7; " /><path d=" M  409.35,  409.72  L  432.01,  409.72 " style="stroke-width: 0.85 ;&st7; " /><path d=" M  382.44,  435.21  L  467.42,  435.21 " style="stroke-width: 0.85 ;&st7; " /><path d=" M  382.44,  418.22  L  467.42,  418.22 " style="stroke-width: 0.85 ;&st7; " /><path d=" M  220.96,  596.69  L  220.96,  579.69  L  195.47,  579.69 " style="stroke-width: 0.85 ;&st7; " /><path d=" M  229.46,  588.19  L  186.97,  588.19 " style="stroke-width: 1.13 ;&st7;stroke-dasharray:3, 1.5;" /><path d=" M  229.46,  571.19  L  186.97,  571.19 " style="stroke-width: 1.13 ;&st7;stroke-dasharray:3, 1.5;" /><path d=" M  195.47,  596.69  L  195.47,  562.69 " style="stroke-width: 0.85 ;&st7; " /><path d=" M  186.97,  562.69  L  229.46,  562.69  L  229.46,  596.69  L  186.97,  596.69  L  186.97,  562.69 " style="stroke-width: 1.42 ;&st7; " /><path d=" M  203.97,  486.20  L  203.97,  452.21  L  186.97,  452.21  L  186.97,  486.20  L  203.97,  486.20 " style="stroke-width: 1.42 ;&st7; " /><path d=" M  194.27,  578.69  L  194.00,  579.16  L  193.91,  579.69  L  194.00,  580.22  L  194.27,  580.69  L  194.69,  581.04  L  195.20,  581.22  L  195.74,  581.22  L  196.25,  581.04  L  196.66,  580.69  L  196.93,  580.22  L  197.03,  579.69  L  196.93,  579.16  L  196.66,  578.69  L  196.25,  578.34  L  195.74,  578.15  L  195.20,  578.15  L  194.69,  578.34  L  194.27,  578.69  L  194.67,  579.40  L  194.67,  579.98  L  195.04,  580.43  L  195.61,  580.52  L  196.12,  580.24  L  196.32,  579.69  L  196.12,  579.14  L  195.61,  578.85  L  195.04,  578.95  L  195.47,  579.69 " style="stroke-width: 0.85 ;&st7; " /><path d=" M  220.96,  697.25  L  220.96,  701.50 " style="stroke-width: 0.85 ;&st7; " /><path d=" M  212.46,  701.50  L  229.46,  701.50 " style="stroke-width: 0.85 ;&st7; " /><path d=" M  216.71,  704.33  L  225.21,  704.33 " style="stroke-width: 0.85 ;&st7; " /><path d=" M  218.13,  707.17  L  223.80,  707.17 " style="stroke-width: 0.85 ;&st7; " /><path d=" M  219.55,  710.00  L  222.38,  710.00 " style="stroke-width: 0.85 ;&st7; " /><path d=" M  165.72,   78.27  L  165.72,   35.78  L  140.23,   35.78  L  140.23,   78.27  L  165.72,   78.27 " style="stroke-width: 1.42 ;&st7; " /><path d=" M  152.97,   90.37  L  150.14,   87.54  L  150.14,   91.79  L  152.97,   94.62  L  155.81,   91.79  L  155.81,   87.54  L  152.97,   90.37 " style="stroke-width: 0.28 ;&st9;" /><path d=" M  242.21,   78.27  L  242.21,   35.78  L  216.71,   35.78  L  216.71,   78.27  L  242.21,   78.27 " style="stroke-width: 1.42 ;&st7; " /><path d=" M  229.46,   95.27  L  229.46,   78.27 " style="stroke-width: 0.85 ;&st7; " /><path d=" M  229.46,   90.37  L  226.63,   87.54  L  226.63,   91.79  L  229.46,   94.62  L  232.29,   91.79  L  232.29,   87.54  L  229.46,   90.37 " style="stroke-width: 0.28 ;&st9;" /><path d=" M  382.44,  401.22  L  467.42,  401.22 " style="stroke-width: 0.85 ;&st7; " /><path d=" M  280.45,  588.19  L  441.93,  588.19 " style="stroke-width: 1.13 ;&st7;stroke-dasharray:3, 1.5;" /><path d=" M  433.43,  562.69  L  433.43,  596.69 " style="stroke-width: 0.85 ;&st7; " /><path d=" M  348.44,  367.22  L  348.44,  469.21  L  475.92,  469.21  L  475.92,  367.22  L  348.44,  367.22 " style="stroke-width: 1.42 ;&st7; " /><path d=" M  416.43,  362.69  L  441.93,  362.69 " style="stroke-width: 0.85 ;&st7;stroke-dasharray:3, 1.5;" /><path d=" M  416.43,  353.63  L  441.93,  353.63 " style="stroke-width: 0.85 ;&st7;stroke-dasharray:3, 1.5;" /><path d=" M  195.47,  346.62  L  198.30,  349.46  L  198.30,  345.21  L  195.47,  342.37  L  192.63,  345.21  L  192.63,  349.46  L  195.47,  346.62 " style="stroke-width: 0.28 ;&st9;" /><path d=" M  195.47,  370.83  L  192.63,  367.99  L  192.63,  372.24  L  195.47,  375.08  L  198.30,  372.24  L  198.30,  367.99  L  195.47,  370.83 " style="stroke-width: 0.28 ;&st9;" /><path d=" M  195.47,  375.72  L  195.47,  341.73 " style="stroke-width: 0.85 ;&st7; " /><path d=" M  458.92,  384.22  L  458.92,  367.22 " style="stroke-width: 0.85 ;&st7; " /><path d=" M  407.93,  384.22  L  407.93,  367.22 " style="stroke-width: 0.85 ;&st7; " /><path d=" M  433.43,  452.21  L  433.43,  469.21 " style="stroke-width: 0.85 ;&st7; " /><path d=" M  263.46,  435.21  L  263.46,  494.70  L  314.45,  494.70  L  314.45,  435.21  L  263.46,  435.21 " style="stroke-width: 1.42 ;&st7; " /><path d=" M  432.23,  578.69  L  431.96,  579.16  L  431.87,  579.69  L  431.96,  580.22  L  432.23,  580.69  L  432.65,  581.04  L  433.16,  581.22  L  433.70,  581.22  L  434.21,  581.04  L  434.62,  580.69  L  434.89,  580.22  L  434.99,  579.69  L  434.89,  579.16  L  434.62,  578.69  L  434.21,  578.34  L  433.70,  578.15  L  433.16,  578.15  L  432.65,  578.34  L  432.23,  578.69  L  432.63,  579.40  L  432.63,  579.98  L  433.00,  580.43  L  433.57,  580.52  L  434.08,  580.24  L  434.28,  579.69  L  434.08,  579.14  L  433.57,  578.85  L  433.00,  578.95  L  433.43,  579.69 " style="stroke-width: 0.85 ;&st7; " /><path d=" M  288.95,  562.69  L  288.95,  579.69  L  433.43,  579.69 " style="stroke-width: 0.85 ;&st7; " /><path d=" M  161.47,  235.21  L  216.71,  235.21 " style="stroke-width: 0.85 ;&st7;stroke-dasharray:3, 1.5;" /><path d=" M  161.47,  226.15  L  216.71,  226.15 " style="stroke-width: 0.85 ;&st7;stroke-dasharray:3, 1.5;" /><path d=" M  161.47,  286.77  L  182.72,  286.77 " style="stroke-width: 0.85 ;&st7;stroke-dasharray:3, 1.5;" /><path d=" M  161.47,  295.84  L  182.72,  295.84 " style="stroke-width: 0.85 ;&st7;stroke-dasharray:3, 1.5;" /><path d=" M  203.97,  286.77  L  395.18,  286.77 " style="stroke-width: 0.85 ;&st7;stroke-dasharray:3, 1.5;" /><path d=" M  203.97,  295.84  L  395.18,  295.84 " style="stroke-width: 0.85 ;&st7;stroke-dasharray:3, 1.5;" /><path d=" M  416.43,  286.77  L  446.18,  286.77 " style="stroke-width: 0.85 ;&st7;stroke-dasharray:3, 1.5;" /><path d=" M  416.43,  295.84  L  446.18,  295.84 " style="stroke-width: 0.85 ;&st7;stroke-dasharray:3, 1.5;" /><path d=" M  233.71,  177.42  L  229.46,  173.17  L  225.21,  177.42 " style="stroke-width: 1.42 ;&st7; " /><path d=" M  233.71,  180.82  L  229.46,  176.57  L  225.21,  180.82 " style="stroke-width: 1.42 ;&st7; " /><path d=" M  416.43,  335.50  L  446.18,  335.50 " style="stroke-width: 0.85 ;&st7;stroke-dasharray:3, 1.5;" /><path d=" M  416.43,  344.56  L  441.93,  344.56 " style="stroke-width: 0.85 ;&st7;stroke-dasharray:3, 1.5;" /><path d=" M   50.99,  554.19  L  110.48,  554.19  L  110.48,  571.19  L   50.99,  571.19  L   50.99,  554.19 " style="stroke-width: 1.42 ;&st7; " /><path d=" M   59.49,  554.19  L   59.49,  571.19 " style="stroke-width: 0.85 ;&st7; " /><path d=" M  101.98,  554.19  L  101.98,  571.19 " style="stroke-width: 0.85 ;&st7; " /><path d=" M   59.49,  562.69  L  101.98,  562.69 " style="stroke-width: 0.85 ;&st7; " /><path d=" M  100.79,  561.69  L  100.52,  562.16  L  100.42,  562.69  L  100.52,  563.22  L  100.79,  563.69  L  101.20,  564.04  L  101.71,  564.23  L  102.25,  564.23  L  102.76,  564.04  L  103.18,  563.69  L  103.45,  563.22  L  103.54,  562.69  L  103.45,  562.16  L  103.18,  561.69  L  102.76,  561.34  L  102.25,  561.16  L  101.71,  561.16  L  101.20,  561.34  L  100.79,  561.69  L  101.18,  562.40  L  101.18,  562.98  L  101.56,  563.43  L  102.13,  563.53  L  102.63,  563.24  L  102.83,  562.69  L  102.63,  562.14  L  102.13,  561.86  L  101.56,  561.95  L  101.98,  562.69 " style="stroke-width: 0.85 ;&st7; " /><path d=" M   58.30,  561.69  L   58.03,  562.16  L   57.93,  562.69  L   58.03,  563.22  L   58.30,  563.69  L   58.71,  564.04  L   59.22,  564.23  L   59.76,  564.23  L   60.27,  564.04  L   60.68,  563.69  L   60.95,  563.22  L   61.05,  562.69  L   60.95,  562.16  L   60.68,  561.69  L   60.27,  561.34  L   59.76,  561.16  L   59.22,  561.16  L   58.71,  561.34  L   58.30,  561.69  L   58.69,  562.40  L   58.69,  562.98  L   59.07,  563.43  L   59.64,  563.53  L   60.14,  563.24  L   60.34,  562.69  L   60.14,  562.14  L   59.64,  561.86  L   59.07,  561.95  L   59.49,  562.69 " style="stroke-width: 0.85 ;&st7; " /><path d=" M  416.43,  235.21  L  429.18,  235.21 " style="stroke-width: 0.85 ;&st7;stroke-dasharray:3, 1.5;" /><path d=" M  416.43,  226.15  L  429.18,  226.15 " style="stroke-width: 0.85 ;&st7;stroke-dasharray:3, 1.5;" /><path d=" M  437.96,  558.16  C  437.96   555.66   435.93   553.63   433.43   553.63 " style="stroke-width: 1.42 ;&st7; " /><path d=" M  433.43,  553.63  C  430.92   553.63   428.90   555.66   428.90   558.16 " style="stroke-width: 1.42 ;&st7; " /><path d=" M  428.90,  558.16  C  428.90   560.66   430.92   562.69   433.43   562.69 " style="stroke-width: 1.42 ;&st7; " /><path d=" M  433.43,  562.69  C  435.93   562.69   437.96   560.66   437.96   558.16 " style="stroke-width: 1.42 ;&st7; " /><path d=" M  437.96,  601.22  C  437.96   598.71   435.93   596.69   433.43   596.69 " style="stroke-width: 1.42 ;&st7; " /><path d=" M  433.43,  596.69  C  430.92   596.69   428.90   598.71   428.90   601.22 " style="stroke-width: 1.42 ;&st7; " /><path d=" M  428.90,  601.22  C  428.90   603.72   430.92   605.75   433.43   605.75 " style="stroke-width: 1.42 ;&st7; " /><path d=" M  433.43,  605.75  C  435.93   605.75   437.96   603.72   437.96   601.22 " style="stroke-width: 1.42 ;&st7; " /><path d=" M  463.46,  362.69  C  463.46   360.19   461.43   358.16   458.92   358.16 " style="stroke-width: 1.42 ;&st7; " /><path d=" M  458.92,  358.16  C  456.42   358.16   454.39   360.19   454.39   362.69 " style="stroke-width: 1.42 ;&st7; " /><path d=" M  454.39,  362.69  C  454.39   365.19   456.42   367.22   458.92   367.22 " style="stroke-width: 1.42 ;&st7; " /><path d=" M  458.92,  367.22  C  461.43   367.22   463.46   365.19   463.46   362.69 " style="stroke-width: 1.42 ;&st7; " /><path d=" M  463.46,  353.63  C  463.46   351.12   461.43   349.09   458.92   349.09 " style="stroke-width: 1.42 ;&st7; " /><path d=" M  458.92,  349.09  C  456.42   349.09   454.39   351.12   454.39   353.63 " style="stroke-width: 1.42 ;&st7; " /><path d=" M  454.39,  353.63  C  454.39   356.13   456.42   358.16   458.92   358.16 " style="stroke-width: 1.42 ;&st7; " /><path d=" M  458.92,  358.16  C  461.43   358.16   463.46   356.13   463.46   353.63 " style="stroke-width: 1.42 ;&st7; " /><path d=" M  412.46,  362.69  C  412.46   360.19   410.44   358.16   407.93   358.16 " style="stroke-width: 1.42 ;&st7; " /><path d=" M  407.93,  358.16  C  405.43   358.16   403.40   360.19   403.40   362.69 " style="stroke-width: 1.42 ;&st7; " /><path d=" M  403.40,  362.69  C  403.40   365.19   405.43   367.22   407.93   367.22 " style="stroke-width: 1.42 ;&st7; " /><path d=" M  407.93,  367.22  C  410.44   367.22   412.46   365.19   412.46   362.69 " style="stroke-width: 1.42 ;&st7; " /><path d=" M  412.46,  353.63  C  412.46   351.12   410.44   349.09   407.93   349.09 " style="stroke-width: 1.42 ;&st7; " /><path d=" M  407.93,  349.09  C  405.43   349.09   403.40   351.12   403.40   353.63 " style="stroke-width: 1.42 ;&st7; " /><path d=" M  403.40,  353.63  C  403.40   356.13   405.43   358.16   407.93   358.16 " style="stroke-width: 1.42 ;&st7; " /><path d=" M  407.93,  358.16  C  410.44   358.16   412.46   356.13   412.46   353.63 " style="stroke-width: 1.42 ;&st7; " /><path d=" M  437.96,  473.74  C  437.96   471.24   435.93   469.21   433.43   469.21 " style="stroke-width: 1.42 ;&st7; " /><path d=" M  433.43,  469.21  C  430.92   469.21   428.90   471.24   428.90   473.74 " style="stroke-width: 1.42 ;&st7; " /><path d=" M  428.90,  473.74  C  428.90   476.24   430.92   478.27   433.43   478.27 " style="stroke-width: 1.42 ;&st7; " /><path d=" M  433.43,  478.27  C  435.93   478.27   437.96   476.24   437.96   473.74 " style="stroke-width: 1.42 ;&st7; " /><path d=" M  437.96,  482.80  C  437.96   480.30   435.93   478.27   433.43   478.27 " style="stroke-width: 1.42 ;&st7; " /><path d=" M  433.43,  478.27  C  430.92   478.27   428.90   480.30   428.90   482.80 " style="stroke-width: 1.42 ;&st7; " /><path d=" M  428.90,  482.80  C  428.90   485.31   430.92   487.34   433.43   487.34 " style="stroke-width: 1.42 ;&st7; " /><path d=" M  433.43,  487.34  C  435.93   487.34   437.96   485.31   437.96   482.80 " style="stroke-width: 1.42 ;&st7; " /><path d=" M  193.34,  333.23  C  191.00   333.23   189.09   335.13   189.09   337.48 " style="stroke-width: 1.42 ;&st7; " /><path d=" M  189.09,  337.48  C  189.09   339.83   191.00   341.73   193.34   341.73 " style="stroke-width: 1.42 ;&st7; " /><path d=" M  197.59,  341.73  C  199.94   341.73   201.84   339.83   201.84   337.48 " style="stroke-width: 1.42 ;&st7; " /><path d=" M  201.84,  337.48  C  201.84   335.13   199.94   333.23   197.59   333.23 " style="stroke-width: 1.42 ;&st7; " /><path d=" M  193.34,  375.72  C  191.00   375.72   189.09   377.63   189.09   379.97 " style="stroke-width: 1.42 ;&st7; " /><path d=" M  189.09,  379.97  C  189.09   382.32   191.00   384.22   193.34   384.22 " style="stroke-width: 1.42 ;&st7; " /><path d=" M  197.59,  384.22  C  199.94   384.22   201.84   382.32   201.84   379.97 " style="stroke-width: 1.42 ;&st7; " /><path d=" M  201.84,  379.97  C  201.84   377.63   199.94   375.72   197.59   375.72 " style="stroke-width: 1.42 ;&st7; " /><path d=" M  293.48,  558.16  C  293.48   555.66   291.45   553.63   288.95   553.63 " style="stroke-width: 1.42 ;&st7; " /><path d=" M  288.95,  553.63  C  286.45   553.63   284.42   555.66   284.42   558.16 " style="stroke-width: 1.42 ;&st7; " /><path d=" M  284.42,  558.16  C  284.42   560.66   286.45   562.69   288.95   562.69 " style="stroke-width: 1.42 ;&st7; " /><path d=" M  288.95,  562.69  C  291.45   562.69   293.48   560.66   293.48   558.16 " style="stroke-width: 1.42 ;&st7; " /><path d=" M  157.51,  235.21  C  157.51   232.71   155.48   230.68   152.97   230.68 " style="stroke-width: 1.42 ;&st7; " /><path d=" M  152.97,  230.68  C  150.47   230.68   148.44   232.71   148.44   235.21 " style="stroke-width: 1.42 ;&st7; " /><path d=" M  148.44,  235.21  C  148.44   237.72   150.47   239.75   152.97   239.75 " style="stroke-width: 1.42 ;&st7; " /><path d=" M  152.97,  239.75  C  155.48   239.75   157.51   237.72   157.51   235.21 " style="stroke-width: 1.42 ;&st7; " /><path d=" M  157.51,  226.15  C  157.51   223.64   155.48   221.61   152.97   221.61 " style="stroke-width: 1.42 ;&st7; " /><path d=" M  152.97,  221.61  C  150.47   221.61   148.44   223.64   148.44   226.15 " style="stroke-width: 1.42 ;&st7; " /><path d=" M  148.44,  226.15  C  148.44   228.65   150.47   230.68   152.97   230.68 " style="stroke-width: 1.42 ;&st7; " /><path d=" M  152.97,  230.68  C  155.48   230.68   157.51   228.65   157.51   226.15 " style="stroke-width: 1.42 ;&st7; " /><path d=" M  233.99,  235.21  C  233.99   232.71   231.96   230.68   229.46   230.68 " style="stroke-width: 1.42 ;&st7; " /><path d=" M  229.46,  230.68  C  226.96   230.68   224.93   232.71   224.93   235.21 " style="stroke-width: 1.42 ;&st7; " /><path d=" M  224.93,  235.21  C  224.93   237.72   226.96   239.75   229.46   239.75 " style="stroke-width: 1.42 ;&st7; " /><path d=" M  229.46,  239.75  C  231.96   239.75   233.99   237.72   233.99   235.21 " style="stroke-width: 1.42 ;&st7; " /><path d=" M  233.99,  226.15  C  233.99   223.64   231.96   221.61   229.46   221.61 " style="stroke-width: 1.42 ;&st7; " /><path d=" M  229.46,  221.61  C  226.96   221.61   224.93   223.64   224.93   226.15 " style="stroke-width: 1.42 ;&st7; " /><path d=" M  224.93,  226.15  C  224.93   228.65   226.96   230.68   229.46   230.68 " style="stroke-width: 1.42 ;&st7; " /><path d=" M  229.46,  230.68  C  231.96   230.68   233.99   228.65   233.99   226.15 " style="stroke-width: 1.42 ;&st7; " /><path d=" M  157.51,  286.77  C  157.51   284.27   155.48   282.24   152.97   282.24 " style="stroke-width: 1.42 ;&st7; " /><path d=" M  152.97,  282.24  C  150.47   282.24   148.44   284.27   148.44   286.77 " style="stroke-width: 1.42 ;&st7; " /><path d=" M  148.44,  286.77  C  148.44   289.27   150.47   291.30   152.97   291.30 " style="stroke-width: 1.42 ;&st7; " /><path d=" M  152.97,  291.30  C  155.48   291.30   157.51   289.27   157.51   286.77 " style="stroke-width: 1.42 ;&st7; " /><path d=" M  157.51,  295.84  C  157.51   293.33   155.48   291.30   152.97   291.30 " style="stroke-width: 1.42 ;&st7; " /><path d=" M  152.97,  291.30  C  150.47   291.30   148.44   293.33   148.44   295.84 " style="stroke-width: 1.42 ;&st7; " /><path d=" M  148.44,  295.84  C  148.44   298.34   150.47   300.37   152.97   300.37 " style="stroke-width: 1.42 ;&st7; " /><path d=" M  152.97,  300.37  C  155.48   300.37   157.51   298.34   157.51   295.84 " style="stroke-width: 1.42 ;&st7; " /><path d=" M  200.00,  286.77  C  200.00   284.27   197.97   282.24   195.47   282.24 " style="stroke-width: 1.42 ;&st7; " /><path d=" M  195.47,  282.24  C  192.96   282.24   190.93   284.27   190.93   286.77 " style="stroke-width: 1.42 ;&st7; " /><path d=" M  190.93,  286.77  C  190.93   289.27   192.96   291.30   195.47   291.30 " style="stroke-width: 1.42 ;&st7; " /><path d=" M  195.47,  291.30  C  197.97   291.30   200.00   289.27   200.00   286.77 " style="stroke-width: 1.42 ;&st7; " /><path d=" M  200.00,  295.84  C  200.00   293.33   197.97   291.30   195.47   291.30 " style="stroke-width: 1.42 ;&st7; " /><path d=" M  195.47,  291.30  C  192.96   291.30   190.93   293.33   190.93   295.84 " style="stroke-width: 1.42 ;&st7; " /><path d=" M  190.93,  295.84  C  190.93   298.34   192.96   300.37   195.47   300.37 " style="stroke-width: 1.42 ;&st7; " /><path d=" M  195.47,  300.37  C  197.97   300.37   200.00   298.34   200.00   295.84 " style="stroke-width: 1.42 ;&st7; " /><path d=" M  412.46,  286.77  C  412.46   284.27   410.44   282.24   407.93   282.24 " style="stroke-width: 1.42 ;&st7; " /><path d=" M  407.93,  282.24  C  405.43   282.24   403.40   284.27   403.40   286.77 " style="stroke-width: 1.42 ;&st7; " /><path d=" M  403.40,  286.77  C  403.40   289.27   405.43   291.30   407.93   291.30 " style="stroke-width: 1.42 ;&st7; " /><path d=" M  407.93,  291.30  C  410.44   291.30   412.46   289.27   412.46   286.77 " style="stroke-width: 1.42 ;&st7; " /><path d=" M  412.46,  295.84  C  412.46   293.33   410.44   291.30   407.93   291.30 " style="stroke-width: 1.42 ;&st7; " /><path d=" M  407.93,  291.30  C  405.43   291.30   403.40   293.33   403.40   295.84 " style="stroke-width: 1.42 ;&st7; " /><path d=" M  403.40,  295.84  C  403.40   298.34   405.43   300.37   407.93   300.37 " style="stroke-width: 1.42 ;&st7; " /><path d=" M  407.93,  300.37  C  410.44   300.37   412.46   298.34   412.46   295.84 " style="stroke-width: 1.42 ;&st7; " /><path d=" M  463.46,  286.77  C  463.46   284.27   461.43   282.24   458.92   282.24 " style="stroke-width: 1.42 ;&st7; " /><path d=" M  458.92,  282.24  C  456.42   282.24   454.39   284.27   454.39   286.77 " style="stroke-width: 1.42 ;&st7; " /><path d=" M  454.39,  286.77  C  454.39   289.27   456.42   291.30   458.92   291.30 " style="stroke-width: 1.42 ;&st7; " /><path d=" M  458.92,  291.30  C  461.43   291.30   463.46   289.27   463.46   286.77 " style="stroke-width: 1.42 ;&st7; " /><path d=" M  463.46,  295.84  C  463.46   293.33   461.43   291.30   458.92   291.30 " style="stroke-width: 1.42 ;&st7; " /><path d=" M  458.92,  291.30  C  456.42   291.30   454.39   293.33   454.39   295.84 " style="stroke-width: 1.42 ;&st7; " /><path d=" M  454.39,  295.84  C  454.39   298.34   456.42   300.37   458.92   300.37 " style="stroke-width: 1.42 ;&st7; " /><path d=" M  458.92,  300.37  C  461.43   300.37   463.46   298.34   463.46   295.84 " style="stroke-width: 1.42 ;&st7; " /><path d=" M  437.96,  491.87  C  437.96   489.37   435.93   487.34   433.43   487.34 " style="stroke-width: 1.42 ;&st7; " /><path d=" M  433.43,  487.34  C  430.92   487.34   428.90   489.37   428.90   491.87 " style="stroke-width: 1.42 ;&st7; " /><path d=" M  428.90,  491.87  C  428.90   494.37   430.92   496.40   433.43   496.40 " style="stroke-width: 1.42 ;&st7; " /><path d=" M  433.43,  496.40  C  435.93   496.40   437.96   494.37   437.96   491.87 " style="stroke-width: 1.42 ;&st7; " /><path d=" M  437.96,  500.93  C  437.96   498.43   435.93   496.40   433.43   496.40 " style="stroke-width: 1.42 ;&st7; " /><path d=" M  433.43,  496.40  C  430.92   496.40   428.90   498.43   428.90   500.93 " style="stroke-width: 1.42 ;&st7; " /><path d=" M  428.90,  500.93  C  428.90   503.44   430.92   505.47   433.43   505.47 " style="stroke-width: 1.42 ;&st7; " /><path d=" M  433.43,  505.47  C  435.93   505.47   437.96   503.44   437.96   500.93 " style="stroke-width: 1.42 ;&st7; " /><path d=" M  412.46,  344.56  C  412.46   342.06   410.44   340.03   407.93   340.03 " style="stroke-width: 1.42 ;&st7; " /><path d=" M  407.93,  340.03  C  405.43   340.03   403.40   342.06   403.40   344.56 " style="stroke-width: 1.42 ;&st7; " /><path d=" M  403.40,  344.56  C  403.40   347.06   405.43   349.09   407.93   349.09 " style="stroke-width: 1.42 ;&st7; " /><path d=" M  407.93,  349.09  C  410.44   349.09   412.46   347.06   412.46   344.56 " style="stroke-width: 1.42 ;&st7; " /><path d=" M  412.46,  335.50  C  412.46   332.99   410.44   330.96   407.93   330.96 " style="stroke-width: 1.42 ;&st7; " /><path d=" M  407.93,  330.96  C  405.43   330.96   403.40   332.99   403.40   335.50 " style="stroke-width: 1.42 ;&st7; " /><path d=" M  403.40,  335.50  C  403.40   338.00   405.43   340.03   407.93   340.03 " style="stroke-width: 1.42 ;&st7; " /><path d=" M  407.93,  340.03  C  410.44   340.03   412.46   338.00   412.46   335.50 " style="stroke-width: 1.42 ;&st7; " /><path d=" M  463.46,  344.56  C  463.46   342.06   461.43   340.03   458.92   340.03 " style="stroke-width: 1.42 ;&st7; " /><path d=" M  458.92,  340.03  C  456.42   340.03   454.39   342.06   454.39   344.56 " style="stroke-width: 1.42 ;&st7; " /><path d=" M  454.39,  344.56  C  454.39   347.06   456.42   349.09   458.92   349.09 " style="stroke-width: 1.42 ;&st7; " /><path d=" M  458.92,  349.09  C  461.43   349.09   463.46   347.06   463.46   344.56 " style="stroke-width: 1.42 ;&st7; " /><path d=" M  463.46,  335.50  C  463.46   332.99   461.43   330.96   458.92   330.96 " style="stroke-width: 1.42 ;&st7; " /><path d=" M  458.92,  330.96  C  456.42   330.96   454.39   332.99   454.39   335.50 " style="stroke-width: 1.42 ;&st7; " /><path d=" M  454.39,  335.50  C  454.39   338.00   456.42   340.03   458.92   340.03 " style="stroke-width: 1.42 ;&st7; " /><path d=" M  458.92,  340.03  C  461.43   340.03   463.46   338.00   463.46   335.50 " style="stroke-width: 1.42 ;&st7; " /><path d=" M  293.48,  430.68  C  293.48   428.18   291.45   426.15   288.95   426.15 " style="stroke-width: 1.42 ;&st7; " /><path d=" M  288.95,  426.15  C  286.45   426.15   284.42   428.18   284.42   430.68 " style="stroke-width: 1.42 ;&st7; " /><path d=" M  284.42,  430.68  C  284.42   433.18   286.45   435.21   288.95   435.21 " style="stroke-width: 1.42 ;&st7; " /><path d=" M  288.95,  435.21  C  291.45   435.21   293.48   433.18   293.48   430.68 " style="stroke-width: 1.42 ;&st7; " /><path d=" M  293.48,  421.61  C  293.48   419.11   291.45   417.08   288.95   417.08 " style="stroke-width: 1.42 ;&st7; " /><path d=" M  288.95,  417.08  C  286.45   417.08   284.42   419.11   284.42   421.61 " style="stroke-width: 1.42 ;&st7; " /><path d=" M  284.42,  421.61  C  284.42   424.12   286.45   426.15   288.95   426.15 " style="stroke-width: 1.42 ;&st7; " /><path d=" M  288.95,  426.15  C  291.45   426.15   293.48   424.12   293.48   421.61 " style="stroke-width: 1.42 ;&st7; " /><path d=" M  293.48,  499.24  C  293.48   496.73   291.45   494.70   288.95   494.70 " style="stroke-width: 1.42 ;&st7; " /><path d=" M  288.95,  494.70  C  286.45   494.70   284.42   496.73   284.42   499.24 " style="stroke-width: 1.42 ;&st7; " /><path d=" M  284.42,  499.24  C  284.42   501.74   286.45   503.77   288.95   503.77 " style="stroke-width: 1.42 ;&st7; " /><path d=" M  288.95,  503.77  C  291.45   503.77   293.48   501.74   293.48   499.24 " style="stroke-width: 1.42 ;&st7; " /><path d=" M  293.48,  508.30  C  293.48   505.80   291.45   503.77   288.95   503.77 " style="stroke-width: 1.42 ;&st7; " /><path d=" M  288.95,  503.77  C  286.45   503.77   284.42   505.80   284.42   508.30 " style="stroke-width: 1.42 ;&st7; " /><path d=" M  284.42,  508.30  C  284.42   510.80   286.45   512.83   288.95   512.83 " style="stroke-width: 1.42 ;&st7; " /><path d=" M  288.95,  512.83  C  291.45   512.83   293.48   510.80   293.48   508.30 " style="stroke-width: 1.42 ;&st7; " /><path d=" M  412.46,  235.21  C  412.46   232.71   410.44   230.68   407.93   230.68 " style="stroke-width: 1.42 ;&st7; " /><path d=" M  407.93,  230.68  C  405.43   230.68   403.40   232.71   403.40   235.21 " style="stroke-width: 1.42 ;&st7; " /><path d=" M  403.40,  235.21  C  403.40   237.72   405.43   239.75   407.93   239.75 " style="stroke-width: 1.42 ;&st7; " /><path d=" M  407.93,  239.75  C  410.44   239.75   412.46   237.72   412.46   235.21 " style="stroke-width: 1.42 ;&st7; " /><path d=" M  412.46,  226.15  C  412.46   223.64   410.44   221.61   407.93   221.61 " style="stroke-width: 1.42 ;&st7; " /><path d=" M  407.93,  221.61  C  405.43   221.61   403.40   223.64   403.40   226.15 " style="stroke-width: 1.42 ;&st7; " /><path d=" M  403.40,  226.15  C  403.40   228.65   405.43   230.68   407.93   230.68 " style="stroke-width: 1.42 ;&st7; " /><path d=" M  407.93,  230.68  C  410.44   230.68   412.46   228.65   412.46   226.15 " style="stroke-width: 1.42 ;&st7; " /><path d=" M  446.46,  235.21  C  446.46   232.71   444.43   230.68   441.93   230.68 " style="stroke-width: 1.42 ;&st7; " /><path d=" M  441.93,  230.68  C  439.42   230.68   437.39   232.71   437.39   235.21 " style="stroke-width: 1.42 ;&st7; " /><path d=" M  437.39,  235.21  C  437.39   237.72   439.42   239.75   441.93   239.75 " style="stroke-width: 1.42 ;&st7; " /><path d=" M  441.93,  239.75  C  444.43   239.75   446.46   237.72   446.46   235.21 " style="stroke-width: 1.42 ;&st7; " /><path d=" M  446.46,  226.15  C  446.46   223.64   444.43   221.61   441.93   221.61 " style="stroke-width: 1.42 ;&st7; " /><path d=" M  441.93,  221.61  C  439.42   221.61   437.39   223.64   437.39   226.15 " style="stroke-width: 1.42 ;&st7; " /><path d=" M  437.39,  226.15  C  437.39   228.65   439.42   230.68   441.93   230.68 " style="stroke-width: 1.42 ;&st7; " /><path d=" M  441.93,  230.68  C  444.43   230.68   446.46   228.65   446.46   226.15 " style="stroke-width: 1.42 ;&st7; " /><path d=" M  434.84,  443.71  C  434.84   442.93   434.21   442.29   433.43   442.29 " style="stroke-width: 0.85 ;&st7; " /><path d=" M  433.43,  442.29  C  432.65   442.29   432.01   442.93   432.01   443.71 " style="stroke-width: 0.85 ;&st7; " /><path d=" M  432.01,  443.71  C  432.01   444.49   432.65   445.13   433.43   445.13 " style="stroke-width: 0.85 ;&st7; " /><path d=" M  433.43,  445.13  C  434.21   445.13   434.84   444.49   434.84   443.71 " style="stroke-width: 0.85 ;&st7; " /><path d=" M  460.34,  443.71  C  460.34   442.93   459.71   442.29   458.92   442.29 " style="stroke-width: 0.85 ;&st7; " /><path d=" M  458.92,  442.29  C  458.14   442.29   457.51   442.93   457.51   443.71 " style="stroke-width: 0.85 ;&st7; " /><path d=" M  457.51,  443.71  C  457.51   444.49   458.14   445.13   458.92   445.13 " style="stroke-width: 0.85 ;&st7; " /><path d=" M  458.92,  445.13  C  459.71   445.13   460.34   444.49   460.34   443.71 " style="stroke-width: 0.85 ;&st7; " /><path d=" M  409.35,  409.72  C  409.35   408.93   408.71   408.30   407.93   408.30 " style="stroke-width: 0.85 ;&st7; " /><path d=" M  407.93,  408.30  C  407.15   408.30   406.52   408.93   406.52   409.72 " style="stroke-width: 0.85 ;&st7; " /><path d=" M  406.52,  409.72  C  406.52   410.50   407.15   411.13   407.93   411.13 " style="stroke-width: 0.85 ;&st7; " /><path d=" M  407.93,  411.13  C  408.71   411.13   409.35   410.50   409.35   409.72 " style="stroke-width: 0.85 ;&st7; " /><path d=" M  434.84,  409.72  C  434.84   408.93   434.21   408.30   433.43   408.30 " style="stroke-width: 0.85 ;&st7; " /><path d=" M  433.43,  408.30  C  432.65   408.30   432.01   408.93   432.01   409.72 " style="stroke-width: 0.85 ;&st7; " /><path d=" M  432.01,  409.72  C  432.01   410.50   432.65   411.13   433.43   411.13 " style="stroke-width: 0.85 ;&st7; " /><path d=" M  433.43,  411.13  C  434.21   411.13   434.84   410.50   434.84   409.72 " style="stroke-width: 0.85 ;&st7; " /><path d=" M  196.88,  457.88  C  196.88   457.09   196.25   456.46   195.47   456.46 " style="stroke-width: 0.85 ;&st7; " /><path d=" M  195.47,  456.46  C  194.69   456.46   194.05   457.09   194.05   457.88 " style="stroke-width: 0.85 ;&st7; " /><path d=" M  194.05,  457.88  C  194.05   458.66   194.69   459.29   195.47   459.29 " style="stroke-width: 0.85 ;&st7; " /><path d=" M  195.47,  459.29  C  196.25   459.29   196.88   458.66   196.88   457.88 " style="stroke-width: 0.85 ;&st7; " /><path d=" M  196.88,  480.54  C  196.88   479.76   196.25   479.12   195.47   479.12 " style="stroke-width: 0.85 ;&st7; " /><path d=" M  195.47,  479.12  C  194.69   479.12   194.05   479.76   194.05   480.54 " style="stroke-width: 0.85 ;&st7; " /><path d=" M  194.05,  480.54  C  194.05   481.32   194.69   481.95   195.47   481.95 " style="stroke-width: 0.85 ;&st7; " /><path d=" M  195.47,  481.95  C  196.25   481.95   196.88   481.32   196.88   480.54 " style="stroke-width: 0.85 ;&st7; " /><path d=" M  200.00,  558.16  C  200.00   555.66   197.97   553.63   195.47   553.63 " style="stroke-width: 1.42 ;&st7; " /><path d=" M  195.47,  553.63  C  192.96   553.63   190.93   555.66   190.93   558.16 " style="stroke-width: 1.42 ;&st7; " /><path d=" M  190.93,  558.16  C  190.93   560.66   192.96   562.69   195.47   562.69 " style="stroke-width: 1.42 ;&st7; " /><path d=" M  195.47,  562.69  C  197.97   562.69   200.00   560.66   200.00   558.16 " style="stroke-width: 1.42 ;&st7; " /><path d=" M  225.50,  601.22  C  225.50   598.71   223.47   596.69   220.96   596.69 " style="stroke-width: 1.42 ;&st7; " /><path d=" M  220.96,  596.69  C  218.46   596.69   216.43   598.71   216.43   601.22 " style="stroke-width: 1.42 ;&st7; " /><path d=" M  216.43,  601.22  C  216.43   603.72   218.46   605.75   220.96   605.75 " style="stroke-width: 1.42 ;&st7; " /><path d=" M  220.96,  605.75  C  223.47   605.75   225.50   603.72   225.50   601.22 " style="stroke-width: 1.42 ;&st7; " /><path d=" M  200.00,  601.22  C  200.00   598.71   197.97   596.69   195.47   596.69 " style="stroke-width: 1.42 ;&st7; " /><path d=" M  195.47,  596.69  C  192.96   596.69   190.93   598.71   190.93   601.22 " style="stroke-width: 1.42 ;&st7; " /><path d=" M  190.93,  601.22  C  190.93   603.72   192.96   605.75   195.47   605.75 " style="stroke-width: 1.42 ;&st7; " /><path d=" M  195.47,  605.75  C  197.97   605.75   200.00   603.72   200.00   601.22 " style="stroke-width: 1.42 ;&st7; " /><path d=" M  152.97,   47.11  C  150.24    48.72   149.32    52.25   150.94    54.99 " style="stroke-width: 1.42 ;&st7; " /><path d=" M  150.94,   54.99  C  151.46    55.87   152.09    56.51   152.97    57.03 " style="stroke-width: 1.42 ;&st7; " /><path d=" M  152.97,   66.94  C  155.71    65.33   156.62    61.80   155.01    59.06 " style="stroke-width: 1.42 ;&st7; " /><path d=" M  155.01,   59.06  C  154.49    58.18   153.86    57.55   152.97    57.03 " style="stroke-width: 1.42 ;&st7; " /><path d=" M  154.39,   45.69  C  154.39    44.91   153.76    44.28   152.97    44.28 " style="stroke-width: 0.85 ;&st7; " /><path d=" M  152.97,   44.28  C  152.19    44.28   151.56    44.91   151.56    45.69 " style="stroke-width: 0.85 ;&st7; " /><path d=" M  151.56,   45.69  C  151.56    46.48   152.19    47.11   152.97    47.11 " style="stroke-width: 0.85 ;&st7; " /><path d=" M  152.97,   47.11  C  153.76    47.11   154.39    46.48   154.39    45.69 " style="stroke-width: 0.85 ;&st7; " /><path d=" M  154.39,   68.36  C  154.39    67.57   153.76    66.94   152.97    66.94 " style="stroke-width: 0.85 ;&st7; " /><path d=" M  152.97,   66.94  C  152.19    66.94   151.56    67.57   151.56    68.36 " style="stroke-width: 0.85 ;&st7; " /><path d=" M  151.56,   68.36  C  151.56    69.14   152.19    69.77   152.97    69.77 " style="stroke-width: 0.85 ;&st7; " /><path d=" M  152.97,   69.77  C  153.76    69.77   154.39    69.14   154.39    68.36 " style="stroke-width: 0.85 ;&st7; " /><path d=" M  150.85,   95.27  C  148.50    95.27   146.60    97.17   146.60    99.52 " style="stroke-width: 1.42 ;&st7; " /><path d=" M  146.60,   99.52  C  146.60   101.87   148.50   103.77   150.85   103.77 " style="stroke-width: 1.42 ;&st7; " /><path d=" M  155.10,  103.77  C  157.45   103.77   159.35   101.87   159.35    99.52 " style="stroke-width: 1.42 ;&st7; " /><path d=" M  159.35,   99.52  C  159.35    97.17   157.45    95.27   155.10    95.27 " style="stroke-width: 1.42 ;&st7; " /><path d=" M  229.46,   47.11  C  226.72    48.72   225.81    52.25   227.42    54.99 " style="stroke-width: 1.42 ;&st7; " /><path d=" M  227.42,   54.99  C  227.94    55.87   228.58    56.51   229.46    57.03 " style="stroke-width: 1.42 ;&st7; " /><path d=" M  229.46,   66.94  C  232.20    65.33   233.11    61.80   231.50    59.06 " style="stroke-width: 1.42 ;&st7; " /><path d=" M  231.50,   59.06  C  230.98    58.18   230.34    57.55   229.46    57.03 " style="stroke-width: 1.42 ;&st7; " /><path d=" M  230.88,   45.69  C  230.88    44.91   230.24    44.28   229.46    44.28 " style="stroke-width: 0.85 ;&st7; " /><path d=" M  229.46,   44.28  C  228.68    44.28   228.05    44.91   228.05    45.69 " style="stroke-width: 0.85 ;&st7; " /><path d=" M  228.05,   45.69  C  228.05    46.48   228.68    47.11   229.46    47.11 " style="stroke-width: 0.85 ;&st7; " /><path d=" M  229.46,   47.11  C  230.24    47.11   230.88    46.48   230.88    45.69 " style="stroke-width: 0.85 ;&st7; " /><path d=" M  230.88,   68.36  C  230.88    67.57   230.24    66.94   229.46    66.94 " style="stroke-width: 0.85 ;&st7; " /><path d=" M  229.46,   66.94  C  228.68    66.94   228.05    67.57   228.05    68.36 " style="stroke-width: 0.85 ;&st7; " /><path d=" M  228.05,   68.36  C  228.05    69.14   228.68    69.77   229.46    69.77 " style="stroke-width: 0.85 ;&st7; " /><path d=" M  229.46,   69.77  C  230.24    69.77   230.88    69.14   230.88    68.36 " style="stroke-width: 0.85 ;&st7; " /><path d=" M  227.34,   95.27  C  224.99    95.27   223.09    97.17   223.09    99.52 " style="stroke-width: 1.42 ;&st7; " /><path d=" M  223.09,   99.52  C  223.09   101.87   224.99   103.77   227.34   103.77 " style="stroke-width: 1.42 ;&st7; " /><path d=" M  231.59,  103.77  C  233.93   103.77   235.84   101.87   235.84    99.52 " style="stroke-width: 1.42 ;&st7; " /><path d=" M  235.84,   99.52  C  235.84    97.17   233.93    95.27   231.59    95.27 " style="stroke-width: 1.42 ;&st7; " /><text style="&st18;" transform="matrix(&st17;  455.23  323.33 )">G-Y</text><text style="&st18;" transform="matrix(&st17;  429.73  540.55 )">W</text><text style="&st18;" transform="matrix(&st17;  191.77  531.17 )">R</text><text style="&st18;" transform="matrix(&st17;  191.77  434.24 )">G-O</text><text style="&st18;" transform="matrix(&st17;  217.27  629.88 )">W-B</text><text style="&st18;" transform="matrix(&st17;  429.73  629.88 )">W-B</text><text ewd:textID="28" style="&st18;" transform="matrix(&st17;  371.66  443.22 )">Turn Signal SW</text><text style="&st18;" transform="matrix(&st16;  386.48  411.69 )">LH</text><text style="&st18;" transform="matrix(&st16;  388.46  428.68 )">N</text><text style="&st18;" transform="matrix(&st16;  385.99  445.68 )">RH</text><text style="&st18;" transform="matrix(&st16;  104.66  53.34 )">10A <tspan dy="6" x="0">ECU-IG&amp; </tspan><tspan dy="6" x="0">GAUGE</tspan></text><text style="&st18;" transform="matrix(&st16;  146.9  32.08 )">(IG)</text><text style="&st18;" transform="matrix(&st16;  148.67  101.49 )">2S</text><text style="&st18;" transform="matrix(&st16;  136.33  101.49 )">20</text><text style="&st18;" transform="matrix(&st16;  246.77  56.17 )">15A <tspan dy="6" x="0">TURN-HAZ</tspan></text><text style="&st18;" transform="matrix(&st16;  227.87  101.49 )">1</text><text style="&st18;" transform="matrix(&st17;  225.77  135.94 )">B-Y</text><text style="&st18;" transform="matrix(&st17;  225.77  212.43 )">B-Y</text><text style="&st18;" transform="matrix(&st17;  149.28  169.72 )">R-L</text><text style="&st18;" transform="matrix(&st16;  220.35  32.08 )">(BAT)</text><text style="&st18;" transform="matrix(&st16;  222.67  86.47 )">2</text><text style="&st18;" transform="matrix(&st16;  227.13  247.38 )">B</text><text style="&st18;" transform="matrix(&st16;  149.23  247.38 )">IG</text><text style="&st18;" transform="matrix(&st16;  454.12  278.54 )">ER</text><text style="&st18;" transform="matrix(&st16;  403.62  278.54 )">EL</text><text style="&st18;" transform="matrix(&st16;  150.64  278.54 )">E</text><text style="&st18;" transform="matrix(&st16;  188.54  278.54 )">HAZ</text><text style="&st18;" transform="matrix(&st16;  286.43  228.94 )">T23(A),T40(B)</text><text style="&st18;" transform="matrix(&st16;  485.22  660.98 )">W-B</text><text style="&st18;" transform="matrix(&st16;  485.82  91.57 )">G-B</text><text style="&st18;" transform="matrix(&st16;  485.82  74.58 )">G-Y</text><text style="&st18;" transform="matrix(&st16;  403.83  394.69 )">TL</text><text style="&st18;" transform="matrix(&st16;  422.94  391.86 )">EL(*7) <tspan dy="6" x="0">E(*8)</tspan></text><text style="&st18;" transform="matrix(&st16;  454.33  394.69 )">TR</text><text style="&st18;" transform="matrix(&st16;  207.11  464.07 )">H 8</text><text style="&st18;" transform="matrix(&st17;  237.07  607.71 )">J28(A),J29(B)</text><text ewd:textID="14" style="&st18;" transform="matrix(&st16;  207.11  471.18 )">Hazard <tspan dy="6" x="0">Warning </tspan><tspan dy="6" x="0">Signal SW</tspan></text><text ewd:textID="15" style="&st18;" transform="matrix(&st17;  244.18  607.71 )">Junction <tspan dy="6" x="0">Connector</tspan></text><text ewd:textID="23" style="&st18;" transform="matrix(&st16;  286.43  236.05 )">Turn Signal Flasher</text><text style="&st18;" transform="matrix(&st16;  431.1  560.13 )">A</text><text style="&st18;" transform="matrix(&st16;  422.55  560.13 )">2</text><text style="&st18;" transform="matrix(&st16;  431.1  603.19 )">B</text><text style="&st18;" transform="matrix(&st16;  422.55  603.19 )">6</text><text style="&st18;" transform="matrix(&st16;  464.9  364.66 )">(RHD *7)</text><text style="&st18;" transform="matrix(&st16;  456.45  364.66 )">D</text><text style="&st18;" transform="matrix(&st16;  444.87  364.66 )">16</text><text style="&st18;" transform="matrix(&st16;  464.9  355.6 )">(LHD *7)</text><text style="&st18;" transform="matrix(&st16;  456.45  355.6 )">C</text><text style="&st18;" transform="matrix(&st16;  444.87  355.6 )">13</text><text style="&st18;" transform="matrix(&st16;  405.46  364.66 )">D</text><text style="&st18;" transform="matrix(&st16;  393.88  364.66 )">18</text><text style="&st18;" transform="matrix(&st16;  405.46  355.6 )">C</text><text style="&st18;" transform="matrix(&st16;  393.88  355.6 )">15</text><text style="&st18;" transform="matrix(&st16;  439.4  475.71 )">(LHD *8)</text><text style="&st18;" transform="matrix(&st16;  431.1  475.71 )">A</text><text style="&st18;" transform="matrix(&st16;  422.55  475.71 )">7</text><text style="&st18;" transform="matrix(&st16;  439.4  484.77 )">(RHD *8)</text><text style="&st18;" transform="matrix(&st16;  431.1  484.77 )">B</text><text style="&st18;" transform="matrix(&st16;  420.15  484.77 )">11</text><text style="&st18;" transform="matrix(&st16;  190.73  339.45 )">2O</text><text style="&st18;" transform="matrix(&st16;  178.82  339.45 )">25</text><text style="&st18;" transform="matrix(&st16;  191.02  381.94 )">2N</text><text style="&st18;" transform="matrix(&st16;  178.82  381.94 )">25</text><text style="&st18;" transform="matrix(&st17;  203.1  432.89 )">(*2)</text><text style="&st18;" transform="matrix(&st17;  203.1  539.89 )">(*2 *5)</text><text style="&st18;" transform="matrix(&st16;  439.4  502.9 )">(RHD *7)</text><text style="&st18;" transform="matrix(&st16;  419.37  502.9 )">19</text><text style="&st18;" transform="matrix(&st16;  430.96  502.9 )">D</text><text style="&st18;" transform="matrix(&st16;  393.88  346.53 )">12</text><text style="&st18;" transform="matrix(&st16;  405.6  346.53 )">B</text><text style="&st18;" transform="matrix(&st16;  397.06  337.47 )">5</text><text style="&st18;" transform="matrix(&st16;  405.6  337.47 )">A</text><text style="&st18;" transform="matrix(&st16;  464.9  346.53 )">(RHD *8)</text><text style="&st18;" transform="matrix(&st16;  444.87  346.53 )">13</text><text style="&st18;" transform="matrix(&st16;  456.59  346.53 )">B</text><text style="&st18;" transform="matrix(&st16;  464.9  337.47 )">(LHD *8)</text><text style="&st18;" transform="matrix(&st16;  448.05  337.47 )">6</text><text style="&st18;" transform="matrix(&st16;  456.59  337.47 )">A</text><text ewd:textID="13" style="&st18;" transform="matrix(&st17;  490.64  463.23 )">Combination SW</text><text style="&st18;" transform="matrix(&st17;  483.53  463.23 )">C12(A),(B),C29(C),(D)</text><text style="&st18;" transform="matrix(&st16;  294.93  432.65 )">(*6)</text><text style="&st18;" transform="matrix(&st16;  274.9  432.65 )">16</text><text style="&st18;" transform="matrix(&st16;  286.62  432.65 )">B</text><text style="&st18;" transform="matrix(&st16;  294.93  423.58 )">(*5)</text><text style="&st18;" transform="matrix(&st16;  274.9  423.58 )">16</text><text style="&st18;" transform="matrix(&st16;  286.62  423.58 )">A</text><text style="&st18;" transform="matrix(&st16;  294.93  501.2 )">(*5)</text><text style="&st18;" transform="matrix(&st16;  278.85  501.2 )">1</text><text style="&st18;" transform="matrix(&st16;  286.62  501.2 )">A</text><text style="&st18;" transform="matrix(&st16;  294.93  510.27 )">(*6)</text><text style="&st18;" transform="matrix(&st16;  278.85  510.27 )">1</text><text style="&st18;" transform="matrix(&st16;  286.62  510.27 )">B</text><text ewd:textID="15" style="&st18;" transform="matrix(&st16;  286.43  611.4 )">Junction Connector</text><text style="&st18;" transform="matrix(&st16;  286.43  604.3 )">J26(A),J27(B)</text><text style="&st18;" transform="matrix(&st16;  50.3  579.38 )">11</text><text style="&st18;" transform="matrix(&st16;  53.48  550.5 )">1</text><text style="&st18;" transform="matrix(&st16;  92.02  579.38 )">10</text><text style="&st18;" transform="matrix(&st16;  95.19  550.5 )">3</text><text style="&st18;" transform="matrix(&st17;  55.79  337.96 )">LG</text><text style="&st18;" transform="matrix(&st17;  67.13  339.41 )">(*6)</text><text style="&st18;" transform="matrix(&st17;  55.8  612.88 )">W-B</text><text style="&st18;" transform="matrix(&st17;  67.13  611.37 )">(*6)</text><text style="&st18;" transform="matrix(&st17;  98.29  608.54 )">W</text><text style="&st18;" transform="matrix(&st17;  109.62  611.37 )">(*6)</text><text style="&st18;" transform="matrix(&st17;  463.73  540.55 )">W</text><text style="&st18;" transform="matrix(&st17;  475.06  543.38 )">(*6)</text><text style="&st18;" transform="matrix(&st17;  441.06  543.38 )">(*5)</text><text ewd:textID="15" style="&st18;" transform="matrix(&st17;  125.2  573.71 )">Junction <tspan dy="6" x="0">Connector</tspan></text><text style="&st18;" transform="matrix(&st17;  118.09  573.71 )">J62</text><text style="&st18;" transform="matrix(&st17;  98.29  531.17 )">R</text><text style="&st18;" transform="matrix(&st17;  109.62  539.89 )">(*2 *6)</text><text style="&st18;" transform="matrix(&st17;  160.61  339.41 )">(*5)</text><text style="&st18;" transform="matrix(&st17;  228.6  628.36 )">(*5)</text><text style="&st18;" transform="matrix(&st16;  403.48  247.38 )">LR</text><text style="&st18;" transform="matrix(&st16;  397.06  237.18 )">2</text><text style="&st18;" transform="matrix(&st16;  405.6  237.18 )">B</text><text style="&st18;" transform="matrix(&st16;  281.25  491.01 )">GND</text><text style="&st18;" transform="matrix(&st16;  281.68  442.85 )">SW1</text><text ewd:textID="14" style="&st18;" transform="matrix(&st16;  275.74  458.45 )">Hazard <tspan dy="6" x="0">Warning </tspan><tspan dy="6" x="0">Signal </tspan><tspan dy="6" x="0">SW</tspan></text><text ewd:textID="11" style="&st18;" transform="matrix(&st17;  329.17  497.23 )">A/C Control <tspan dy="6" x="0">Assembly</tspan></text><text style="&st18;" transform="matrix(&st17;  322.06  497.23 )">A16(A),A38(B)</text><text style="&st18;" transform="matrix(&st16;  278.08  560.13 )">6</text><text style="&st18;" transform="matrix(&st16;  286.62  560.13 )">A</text><text style="&st18;" transform="matrix(&st17;  285.26  530.67 )">L</text><text style="&st18;" transform="matrix(&st17;  296.59  534.49 )">(*1)</text><text style="&st18;" transform="matrix(&st16;  230.44  397.52 )">G-O</text><text style="&st18;" transform="matrix(&st16;  232.17  408.85 )">(*1)</text><text style="&st18;" transform="matrix(&st16;  142.87  237.18 )">1</text><text style="&st18;" transform="matrix(&st16;  150.64  237.18 )">B</text><text style="&st18;" transform="matrix(&st16;  142.87  228.12 )">1</text><text style="&st18;" transform="matrix(&st16;  150.64  228.12 )">A</text><text style="&st18;" transform="matrix(&st16;  235.44  237.18 )">(*6)</text><text style="&st18;" transform="matrix(&st16;  218.59  237.18 )">4</text><text style="&st18;" transform="matrix(&st16;  227.13  237.18 )">B</text><text style="&st18;" transform="matrix(&st16;  235.44  228.12 )">(*5)</text><text style="&st18;" transform="matrix(&st16;  218.59  228.12 )">4</text><text style="&st18;" transform="matrix(&st16;  227.13  228.12 )">A</text><text style="&st18;" transform="matrix(&st16;  142.1  288.74 )">7</text><text style="&st18;" transform="matrix(&st16;  150.64  288.74 )">A</text><text style="&st18;" transform="matrix(&st16;  142.1  297.81 )">7</text><text style="&st18;" transform="matrix(&st16;  150.64  297.81 )">B</text><text style="&st18;" transform="matrix(&st16;  184.59  288.74 )">8</text><text style="&st18;" transform="matrix(&st16;  193.14  288.74 )">A</text><text style="&st18;" transform="matrix(&st16;  184.59  297.81 )">8</text><text style="&st18;" transform="matrix(&st16;  193.14  297.81 )">B</text><text style="&st18;" transform="matrix(&st16;  397.06  288.74 )">5</text><text style="&st18;" transform="matrix(&st16;  405.6  288.74 )">A</text><text style="&st18;" transform="matrix(&st16;  397.06  297.81 )">5</text><text style="&st18;" transform="matrix(&st16;  405.6  297.81 )">B</text><text style="&st18;" transform="matrix(&st16;  448.05  288.74 )">6</text><text style="&st18;" transform="matrix(&st16;  456.59  288.74 )">A</text><text style="&st18;" transform="matrix(&st16;  448.05  297.81 )">6</text><text style="&st18;" transform="matrix(&st16;  456.59  297.81 )">B</text><text style="&st18;" transform="matrix(&st16;  464.9  288.74 )">(*5)</text><text style="&st18;" transform="matrix(&st16;  464.9  297.81 )">(*6)</text><text style="&st18;" transform="matrix(&st16;  239.37  169.48 )">(*6)</text><text style="&st18;" transform="matrix(&st16;  239.37  160.98 )">(*5)</text><text style="&st18;" transform="matrix(&st16;  214.65  160.98 )">2</text><text style="&st18;" transform="matrix(&st16;  214.65  169.48 )">9</text><text style="&st18;" transform="matrix(&st16;  439.4  493.84 )">(LHD *7)</text><text style="&st18;" transform="matrix(&st16;  419.37  493.84 )">12</text><text style="&st18;" transform="matrix(&st16;  430.96  493.84 )">C</text><text style="&st18;" transform="matrix(&st16;  193.14  560.13 )">A</text><text style="&st18;" transform="matrix(&st16;  184.62  560.13 )">4</text><text style="&st18;" transform="matrix(&st16;  218.63  603.19 )">B</text><text style="&st18;" transform="matrix(&st16;  210.11  603.19 )">4</text><text style="&st18;" transform="matrix(&st16;  193.14  603.19 )">B</text><text style="&st18;" transform="matrix(&st16;  184.62  603.19 )">6</text><text style="&st18;" transform="matrix(&st16;  188.68  494.4 )">2</text><text style="&st18;" transform="matrix(&st16;  188.67  448.52 )">4</text><text style="&st18;" transform="matrix(&st17;  191.77  323.76 )">G-O</text><text style="&st18;" transform="matrix(&st17;  149.28  337.96 )">LG</text><text style="&st18;" transform="matrix(&st17;  404.24  323.33 )">G-B</text><text style="&st18;" transform="matrix(&st16;  397.06  228.12 )">2</text><text style="&st18;" transform="matrix(&st16;  405.6  228.12 )">A</text><text style="&st18;" transform="matrix(&st16;  437.97  247.38 )">LL</text><text style="&st18;" transform="matrix(&st16;  447.9  237.18 )">(*6)</text><text style="&st18;" transform="matrix(&st16;  431.05  237.18 )">3</text><text style="&st18;" transform="matrix(&st16;  439.59  237.18 )">B</text><text style="&st18;" transform="matrix(&st16;  447.9  228.12 )">(*5)</text><text style="&st18;" transform="matrix(&st16;  431.05  228.12 )">3</text><text style="&st18;" transform="matrix(&st16;  439.59  228.12 )">A</text><text style="&st18;" transform="matrix(&st17;  438.23  212.85 )">G-B</text><text style="&st18;" transform="matrix(&st17;  404.24  212.85 )">G-Y</text></svg>